Division,WeightClassKg,Place,Name,Team,BodyweightKg,Best3SquatKg,Best3BenchKg,Best3DeadliftKg,TotalKg,Equipment,Event,Sex
Boys,51.71,1,Cameron Sams,Lorena,50.62,124.74,70.31,117.93,312.98,Single-ply,SBD,M
Boys,51.71,2,Weslee Duke,Groesbeck,51.53,115.67,61.23,124.74,301.64,Single-ply,SBD,M
Boys,51.71,3,Isaiah Boyd,Waco Connally,48.17,102.06,63.5,124.74,290.3,Single-ply,SBD,M
Boys,51.71,4,Zander Henderson,Troy,48.9,104.33,63.5,115.67,283.5,Single-ply,SBD,M
Boys,51.71,5,Demetrius Parker,Waco La Vega,48.08,111.13,65.77,104.33,281.23,Single-ply,SBD,M
Boys,51.71,6,Garrett Kwast,West,44.27,104.33,54.43,97.52,256.28,Single-ply,SBD,M
Boys,51.71,7,Tj Collins,Robinson,50.08,97.52,47.63,92.99,238.14,Single-ply,SBD,M
Boys,51.71,8,Nathan Skipworth,Bosqueville,47.63,90.72,43.09,90.72,224.53,Single-ply,SBD,M
Boys,55.79,1,Brady Bearden,Troy,55.61,149.69,88.45,142.88,381.02,Single-ply,SBD,M
Boys,55.79,2,Caidn Kocian,West,55.79,136.08,63.5,120.2,319.78,Single-ply,SBD,M
Boys,55.79,3,Wesley Hughes,Whitney,52.8,102.06,70.31,120.2,292.57,Single-ply,SBD,M
Boys,55.79,4,Shane Christensen,Troy,53.8,72.57,49.9,90.72,213.19,Single-ply,SBD,M
Boys,59.87,1,Trevor Uptmor,West,59.42,181.44,102.06,172.37,455.86,Single-ply,SBD,M
Boys,59.87,2,Khyran Jones,McGregor,59.06,172.37,90.72,185.97,449.06,Single-ply,SBD,M
Boys,59.87,3,Joseph Rangel,Cameron Yoe,59.42,154.22,83.91,192.78,430.91,Single-ply,SBD,M
Boys,59.87,4,Joel Santillan,Clifton,58.06,163.29,99.79,156.49,419.57,Single-ply,SBD,M
Boys,59.87,5,Joshua Lopez,Cameron Yoe,57.06,156.49,92.99,161.03,410.5,Single-ply,SBD,M
Boys,59.87,6,Ethan Rodriguez,Lorena,59.24,158.76,86.18,158.76,403.7,Single-ply,SBD,M
Boys,59.87,7,Gilberto Olguin,Waco Connally,58.97,158.76,83.91,151.95,394.63,Single-ply,SBD,M
Boys,59.87,8,Ruben Salazar,West,57.24,158.76,86.18,131.54,376.48,Single-ply,SBD,M
Boys,59.87,9,Jacob Caldwell,Lorena,59.6,131.54,79.38,145.15,356.07,Single-ply,SBD,M
Boys,59.87,10,Emiliano Olivares,Waco Connally,58.24,129.27,68.04,145.15,342.46,Single-ply,SBD,M
Boys,59.87,11,Dalton Wooten,Whitney,58.15,140.61,68.04,129.27,337.93,Single-ply,SBD,M
Boys,59.87,12,Jon Harris,Waco La Vega,56.61,133.81,74.84,127.01,335.66,Single-ply,SBD,M
Boys,59.87,13,Josiah Olvera,Riesel,57.61,129.27,61.23,127.01,317.51,Single-ply,SBD,M
Boys,59.87,14,Chris Eckenrode,Bosqueville,58.97,115.67,79.38,122.47,317.51,Single-ply,SBD,M
Boys,59.87,15,Colby Williamson,Troy,59.33,127.01,74.84,115.67,317.51,Single-ply,SBD,M
Boys,59.87,16,Brayden Cato,Troy,59.24,111.13,70.31,129.27,310.71,Single-ply,SBD,M
Boys,59.87,17,Lance Salvador,Troy,59.78,95.25,52.16,131.54,278.96,Single-ply,SBD,M
Boys,59.87,18,Hayden Jenson,Whitney,56.34,92.99,58.97,92.99,244.94,Single-ply,SBD,M
Boys,67.13,1,Fausto Rodriguez,West,60.24,210.92,131.54,190.51,532.97,Single-ply,SBD,M
Boys,67.13,2,Fabian Soloman,Cameron Yoe,66.22,181.44,99.79,181.44,462.66,Single-ply,SBD,M
Boys,67.13,3,Riley Kinsey,Riesel,66.68,163.29,102.06,163.29,428.64,Single-ply,SBD,M
Boys,67.13,4,Thomas Powers,Lorena,66.68,147.42,102.06,170.1,419.57,Single-ply,SBD,M
Boys,67.13,5,Dauvo McDonald,Bosqueville,65.59,167.83,86.18,161.03,415.04,Single-ply,SBD,M
Boys,67.13,6,Coby Bollig,Whitney,64.14,154.22,83.91,154.22,392.36,Single-ply,SBD,M
Boys,67.13,7,Abe Garrett,Whitney,65.41,140.61,72.57,172.37,385.55,Single-ply,SBD,M
Boys,67.13,8,Karson Green,Crawford,61.51,142.88,79.38,138.35,360.61,Single-ply,SBD,M
Boys,67.13,9,Wade Schronk,Riesel,66.22,147.42,70.31,136.08,353.8,Single-ply,SBD,M
Boys,67.13,10,Noah Pena,Bosqueville,60.42,122.47,72.57,151.95,347,Single-ply,SBD,M
Boys,67.13,11,Kaleb Holloway,Riesel,63.41,113.4,74.84,124.74,312.98,Single-ply,SBD,M
Boys,67.13,12,Devon Tucker,Crawford,60.87,124.74,58.97,124.74,308.44,Single-ply,SBD,M
Boys,67.13,13,Luke Finnell,Bosqueville,64.68,127.01,65.77,113.4,306.17,Single-ply,SBD,M
Boys,67.13,14,Anthony Goodwin,Crawford,63.41,99.79,56.7,113.4,269.89,Single-ply,SBD,M
Boys,67.13,15,Dakota Davis,Riesel,64.5,99.79,58.97,111.13,269.89,Single-ply,SBD,M
Boys,67.13,DQ,Lane Francis,Bosqueville,65.32,165.56,,,,Single-ply,SBD,M
Boys,67.13,DQ,Holden Rogers,Clifton,64.41,147.42,,,,Single-ply,SBD,M
Boys,67.13,DQ,Trey Lacina,Crawford,67.04,,,,,Single-ply,SBD,M
Boys,74.84,1,Larson Hoffmeyer,Bosqueville,71.12,206.38,113.4,206.38,526.17,Single-ply,SBD,M
Boys,74.84,2,Colby Skarpa,West,67.31,204.12,120.2,190.51,514.83,Single-ply,SBD,M
Boys,74.84,3,Gilbert Smith,West,73.84,199.58,117.93,190.51,508.02,Single-ply,SBD,M
Boys,74.84,4,Teel Mesmer,Moody,74.75,183.7,111.13,206.38,501.22,Single-ply,SBD,M
Boys,74.84,5,Dalton Boeche,Riesel,74.84,181.44,106.59,213.19,501.22,Single-ply,SBD,M
Boys,74.84,6,Devin Jackson,Waco La Vega,67.49,197.31,106.59,192.78,496.68,Single-ply,SBD,M
Boys,74.84,7,Hayden Clark,McGregor,71.12,170.1,124.74,192.78,487.61,Single-ply,SBD,M
Boys,74.84,8,Toby Cook,West,74.3,172.37,102.06,165.56,439.98,Single-ply,SBD,M
Boys,74.84,9,Coker Holloway,Groesbeck,67.31,172.37,97.52,165.56,435.45,Single-ply,SBD,M
Boys,74.84,10,Jace Carr,Troy,74.3,167.83,95.25,163.29,426.38,Single-ply,SBD,M
Boys,74.84,11,Preston Shields,Groesbeck,70.49,133.81,92.99,145.15,371.95,Single-ply,SBD,M
Boys,74.84,12,Connor Shelton,Cameron Yoe,69.85,136.08,86.18,142.88,365.14,Single-ply,SBD,M
Boys,74.84,13,Austin Armour,Riesel,72.67,136.08,74.84,154.22,365.14,Single-ply,SBD,M
Boys,74.84,14,Jaco Rogers,Clifton,67.68,147.42,63.5,147.42,358.34,Single-ply,SBD,M
Boys,74.84,15,Jacob Mitchell,Crawford,73.48,124.74,77.11,145.15,347,Single-ply,SBD,M
Boys,82.1,1,Nate Gerik,West,81.83,272.16,149.69,249.48,671.32,Single-ply,SBD,M
Boys,82.1,2,Carsen Ford,Lorena,79.02,226.8,127.01,226.8,580.6,Single-ply,SBD,M
Boys,82.1,3,Ethan Linder,Robinson,81.37,204.12,131.54,195.04,530.7,Single-ply,SBD,M
Boys,82.1,4,Jordan Morgan,Waco La Vega,81.37,210.92,108.86,210.92,530.7,Single-ply,SBD,M
Boys,82.1,5,Trashawn Hill,Moody,79.29,206.38,113.4,201.85,521.63,Single-ply,SBD,M
Boys,82.1,6,Damon Harp,Groesbeck,81.37,201.85,108.86,204.12,514.83,Single-ply,SBD,M
Boys,82.1,7,Mason Wooten,Whitney,77.75,188.24,106.59,217.72,512.56,Single-ply,SBD,M
Boys,82.1,8,Logan Sauer,Robinson,78.93,204.12,120.2,188.24,512.56,Single-ply,SBD,M
Boys,82.1,9,Zane Taylor,Crawford,75.57,199.58,92.99,206.38,498.95,Single-ply,SBD,M
Boys,82.1,10,David Lopez,West,81.1,190.51,102.06,174.63,467.2,Single-ply,SBD,M
Boys,82.1,11,Davion Carr,Waco La Vega,77.75,158.76,99.79,195.04,453.59,Single-ply,SBD,M
Boys,82.1,12,Hunter Martin,Troy,80.38,183.7,102.06,167.83,453.59,Single-ply,SBD,M
Boys,82.1,13,Hunter Heath,Bosqueville,77.38,185.97,99.79,163.29,449.06,Single-ply,SBD,M
Boys,82.1,14,Aj Zamora,Whitney,81.47,170.1,92.99,185.97,449.06,Single-ply,SBD,M
Boys,82.1,15,Colby Franks,McGregor,79.29,170.1,92.99,167.83,430.91,Single-ply,SBD,M
Boys,82.1,16,Clayton Pitts,Troy,78.02,154.22,99.79,170.1,424.11,Single-ply,SBD,M
Boys,82.1,17,Trenton Nix,Cameron Yoe,81.47,151.95,104.33,156.49,412.77,Single-ply,SBD,M
Boys,82.1,18,Matthew Hobbs,Clifton,81.56,136.08,81.65,163.29,381.02,Single-ply,SBD,M
Boys,82.1,19,Sergio Garcia,Clifton,79.65,161.03,77.11,138.35,376.48,Single-ply,SBD,M
Boys,82.1,20,Caleb Sampson,Waco La Vega,75.48,136.08,65.77,170.1,371.95,Single-ply,SBD,M
Boys,82.1,21,Peyton Goebel,Crawford,78.47,136.08,81.65,145.15,362.87,Single-ply,SBD,M
Boys,82.1,22,Brooks Booth,Whitney,77.02,145.15,68.04,136.08,349.27,Single-ply,SBD,M
Boys,82.1,DQ,Justin Bahajak,Riesel,82.01,222.26,120.2,,,Single-ply,SBD,M
Boys,89.81,1,Jay'Veon Sunday,Waco Connally,88.45,197.31,129.27,240.4,566.99,Single-ply,SBD,M
Boys,89.81,2,Josh Gunn,Robinson,89.09,204.12,140.61,206.38,551.11,Single-ply,SBD,M
Boys,89.81,3,Cade Michna,Lorena,86.36,208.65,124.74,210.92,544.31,Single-ply,SBD,M
Boys,89.81,4,Bodee Humphreys,Clifton,82.83,215.46,127.01,188.24,530.7,Single-ply,SBD,M
Boys,89.81,5,Noah Jenkins,McGregor,88.72,204.12,113.4,206.38,523.9,Single-ply,SBD,M
Boys,89.81,6,Silas Prickett,West,83.64,183.7,104.33,204.12,492.15,Single-ply,SBD,M
Boys,89.81,7,Tate Sehon,Robinson,89.81,170.1,111.13,179.17,460.4,Single-ply,SBD,M
Boys,89.81,8,Marco Cano,Clifton,87.54,145.15,74.84,181.44,401.43,Single-ply,SBD,M
Boys,89.81,9,Willie Burns,Bosqueville,85.37,145.15,104.33,133.81,383.29,Single-ply,SBD,M
Boys,89.81,10,Wyatt Drews,Riesel,82.28,120.2,72.57,127.01,319.78,Single-ply,SBD,M
Boys,89.81,DQ,Cooper Wagenschein,Robinson,88.18,208.65,,,,Single-ply,SBD,M
Boys,89.81,DQ,Matthew Hale,Crawford,87.63,158.76,,,,Single-ply,SBD,M
Boys,89.81,DQ,Renee Contreras,Moody,84.1,151.95,,,,Single-ply,SBD,M
Boys,99.79,1,Sterling Harris,Lorena,99.79,238.14,154.22,219.99,612.35,Single-ply,SBD,M
Boys,99.79,2,Dylan Froehlich,Moody,94.62,231.33,129.27,231.33,591.94,Single-ply,SBD,M
Boys,99.79,3,Brady King,Robinson,91.35,226.8,136.08,204.12,566.99,Single-ply,SBD,M
Boys,99.79,4,Colton Tucker,Lorena,91.81,215.46,140.61,197.31,553.38,Single-ply,SBD,M
Boys,99.79,5,Eduardo Gil,Cameron Yoe,95.07,215.46,140.61,192.78,548.85,Single-ply,SBD,M
Boys,99.79,6,Ryan Lloyd,Clifton,96.52,192.78,142.88,172.37,508.02,Single-ply,SBD,M
Boys,99.79,7,Scotty Warren,Waco Connally,94.08,183.7,133.81,188.24,505.76,Single-ply,SBD,M
Boys,99.79,8,Jeremy Seymore,Cameron Yoe,92.17,190.51,99.79,197.31,487.61,Single-ply,SBD,M
Boys,99.79,9,Aaron Tyus,Groesbeck,93.26,190.51,108.86,188.24,487.61,Single-ply,SBD,M
Boys,99.79,10,Oliver Jenkins,McGregor,94.89,181.44,102.06,181.44,464.93,Single-ply,SBD,M
Boys,99.79,11,Tyler Burrell,Whitney,95.89,183.7,99.79,181.44,464.93,Single-ply,SBD,M
Boys,99.79,12,Waylon Martin,McGregor,91.53,167.83,102.06,142.88,412.77,Single-ply,SBD,M
Boys,99.79,13,Dalton Light,Bosqueville,92.26,140.61,88.45,145.15,374.21,Single-ply,SBD,M
Boys,99.79,14,Macen Robinson,McGregor,97.25,136.08,97.52,140.61,374.21,Single-ply,SBD,M
Boys,99.79,15,Gabe Schneider,Crawford,92.53,136.08,88.45,131.54,356.07,Single-ply,SBD,M
Boys,99.79,DQ,Geronimo Rodriguez,Whitney,93.08,192.78,,,,Single-ply,SBD,M
Boys,99.79,DQ,Fred Cruz,McGregor,96.52,136.08,,,,Single-ply,SBD,M
Boys,109.77,1,Joseph Brotherton,Groesbeck,108.68,233.6,142.88,222.26,598.74,Single-ply,SBD,M
Boys,109.77,2,Ruben Vera,West,105.51,229.06,122.47,229.06,580.6,Single-ply,SBD,M
Boys,109.77,3,Vernon Walker,Waco La Vega,105.14,242.67,120.2,215.46,578.33,Single-ply,SBD,M
Boys,109.77,4,Dominic Lewis,Cameron Yoe,109.77,215.46,136.08,226.8,578.33,Single-ply,SBD,M
Boys,109.77,5,Jesus Garcia,Waco La Vega,100.24,201.85,131.54,192.78,526.17,Single-ply,SBD,M
Boys,109.77,6,Ivan Martinez,Waco La Vega,105.87,210.92,102.06,181.44,494.42,Single-ply,SBD,M
Boys,109.77,7,John Hernandez,McGregor,101.79,165.56,115.67,181.44,462.66,Single-ply,SBD,M
Boys,124.74,1,James Baggett,Waco La Vega,120.66,249.48,181.44,238.14,669.05,Single-ply,SBD,M
Boys,124.74,2,Shawntay Owens,Whitney,122.92,251.74,142.88,265.35,659.98,Single-ply,SBD,M
Boys,124.74,3,Daniel Wilde,Robinson,119.39,244.94,142.88,233.6,621.42,Single-ply,SBD,M
Boys,124.74,4,Tyler Sparks,Lorena,117.3,238.14,161.03,208.65,607.81,Single-ply,SBD,M
Boys,124.74,5,Jorde Del Rio,Groesbeck,116.39,229.06,136.08,229.06,594.21,Single-ply,SBD,M
Boys,124.74,6,Demontavion Carprew,Waco Connally,117.21,231.33,138.35,199.58,569.26,Single-ply,SBD,M
Boys,124.74,7,Gabriel Gongora,Waco La Vega,119.57,235.87,122.47,201.85,560.19,Single-ply,SBD,M
Boys,124.74,8,Caedmon Garner,Lorena,123.1,217.72,158.76,172.37,548.85,Single-ply,SBD,M
Boys,124.74,9,Coby Gray,Waco Connally,122.47,224.53,120.2,199.58,544.31,Single-ply,SBD,M
Boys,124.74,10,Jackson Orr,Moody,114.03,226.8,136.08,151.95,514.83,Single-ply,SBD,M
Boys,124.74,11,Davis Orr,Moody,118.93,163.29,122.47,163.29,449.06,Single-ply,SBD,M
Boys,124.74,12,Kylan Bernardi,Lorena,121.47,172.37,79.38,158.76,410.5,Single-ply,SBD,M
Boys,124.74,DQ,Cole Manzoni,Riesel,124.1,240.4,,,,Single-ply,SBD,M
Boys,124.74+,1,Seth Kohlscheen,Crawford,143.7,340.19,204.12,274.42,818.73,Single-ply,SBD,M
Boys,124.74+,2,Clayton Herridge,Groesbeck,126.73,233.6,174.63,208.65,616.89,Single-ply,SBD,M
Boys,124.74+,3,Trace Snyder,Robinson,160.75,235.87,142.88,235.87,614.62,Single-ply,SBD,M
Boys,124.74+,4,Devin Smith,Waco La Vega,126.46,249.48,136.08,210.92,596.47,Single-ply,SBD,M
Boys,124.74+,5,Jake Knuppel,Crawford,134.85,240.4,108.86,215.46,564.72,Single-ply,SBD,M
Boys,124.74+,6,Michael Martinez,Riesel,147.78,226.8,136.08,190.51,553.38,Single-ply,SBD,M
