Division,WeightClassKg,Place,Name,Team,BodyweightKg,Best3SquatKg,Best3BenchKg,Best3DeadliftKg,TotalKg,Equipment,Event,Sex
Boys,55.79,1,James Lightfoot,Channelview,55.79,117.93,61.23,113.4,292.57,Single-ply,SBD,M
Boys,59.87,1,Jessy Yanez,Channelview,58.42,176.9,95.25,192.78,464.93,Single-ply,SBD,M
Boys,59.87,DQ,Dremar Washington,Beaumont Ozen,59.87,,,,,Single-ply,SBD,M
Boys,67.13,1,Deric Lowe,Beaumont Ozen,66.77,117.93,79.38,167.83,365.14,Single-ply,SBD,M
Boys,74.84,1,Adrian Blanton,Conroe Caney Creek,73.39,204.12,115.67,183.7,503.49,Single-ply,SBD,M
Boys,74.84,2,Jacob Duncan,Conroe Caney Creek,72.21,185.97,108.86,172.37,467.2,Single-ply,SBD,M
Boys,74.84,3,Wai Kaurig,Galveston Ball,71.21,108.86,83.91,102.06,294.84,Single-ply,SBD,M
Boys,89.81,1,Chris Garcia,Conroe Caney Creek,88,201.85,106.59,215.46,523.9,Single-ply,SBD,M
Boys,89.81,2,Trey Garza,Galveston Ball,88.72,142.88,102.06,179.17,424.11,Single-ply,SBD,M
Boys,89.81,3,Gabriel Winters,Beaumont Ozen,85.73,158.76,79.38,181.44,419.57,Single-ply,SBD,M
Boys,89.81,4,Josh Flores #1,Conroe Caney Creek,89.72,163.29,102.06,149.69,415.04,Single-ply,SBD,M
Boys,89.81,DQ,Trey Keel,Splendora,89.81,,,,,Single-ply,SBD,M
Boys,89.81,DQ,Dominic Morris,Beaumont Ozen,89.81,,,,,Single-ply,SBD,M
Boys,99.79,1,Claude Conner,Beaumont Ozen,94.62,149.69,124.74,210.92,485.34,Single-ply,SBD,M
Boys,99.79,2,Carson Herbert,Galveston Ball,91.53,170.1,102.06,183.7,455.86,Single-ply,SBD,M
Boys,99.79,3,Eduardo Maury,Beaumont Ozen,97.98,154.22,86.18,199.58,439.98,Single-ply,SBD,M
Boys,99.79,DQ,Jamall Edwards,Beaumont Ozen,99.79,,,,,Single-ply,SBD,M
Boys,99.79,DQ,Gabe Garcia,Conroe Caney Creek,98.07,247.21,149.69,,,Single-ply,SBD,M
Boys,109.77,1,David Alsip,Conroe Caney Creek,104.96,249.48,158.76,226.8,635.03,Single-ply,SBD,M
Boys,109.77,2,Michael Bush,Channelview,104.24,226.8,142.88,235.87,605.55,Single-ply,SBD,M
Boys,109.77,3,Terrance Jackson,Beaumont Ozen,108.23,158.76,97.52,190.51,446.79,Single-ply,SBD,M
Boys,109.77,DQ,Neeairus Withers,Beaumont Ozen,109.77,,,,,Single-ply,SBD,M
Boys,109.77,DQ,Taylor Young,Beaumont Ozen,107.41,,,,,Single-ply,SBD,M
Boys,124.74,1,Nathaniel Sandoval,Conroe Caney Creek,121.56,299.37,167.83,213.19,680.39,Single-ply,SBD,M
Boys,124.74,2,Sean Dillon,Galveston Ball,120.93,229.06,127.01,208.65,564.72,Single-ply,SBD,M
Boys,124.74,DQ,Marcus Garza,Conroe Caney Creek,116.03,,,,,Single-ply,SBD,M
Boys,124.74+,1,Jerome Harmon,Beaumont Ozen,130.91,226.8,142.88,229.06,598.74,Single-ply,SBD,M
Boys,124.74+,2,Paula Vaipulu,Channelview,131.18,231.33,115.67,231.33,578.33,Single-ply,SBD,M
Boys,124.74+,3,Byron Henderson,Channelview,129.09,229.06,142.88,183.7,555.65,Single-ply,SBD,M
Boys,124.74+,4,Michael Flores,Conroe Caney Creek,150.14,240.4,127.01,149.69,517.1,Single-ply,SBD,M
