Place,Name,WeightClassKg,Event,Equipment,Sex,Tested,BirthDate,Country,Division,BodyweightKg,Squat1Kg,Squat2Kg,Squat3Kg,Best3SquatKg,Squat4Kg,Bench1Kg,Bench2Kg,Bench3Kg,Best3BenchKg,Bench4Kg,Deadlift1Kg,Deadlift2Kg,Deadlift3Kg,Best3DeadliftKg,Deadlift4Kg,TotalKg
1,Elena Shelepova,52,SBD,Wraps,F,Yes,1973-01-28,Russia,Open,51.6,82.5,87.5,90,90,,57.5,60,62.5,62.5,,115,122.5,-125,122.5,,275
1,Alyona Sotnikova,56,SBD,Wraps,F,Yes,1989-08-29,Russia,Juniors,55.9,70,80,85,85,90,50,55,-60,55,,80,90,95,95,100,235
1,Valeriya Bukina,60,SBD,Wraps,F,Yes,1990-05-07,Russia,Open,59.9,-90,95,102.5,102.5,,75,-80,-80,75,,140,150,-157.5,150,,327.5
2,Viktoriya Demeneva,60,SBD,Wraps,F,Yes,1977-06-08,Russia,Open,57.1,60,65,70,70,,40,-42.5,-42.5,40,,-70,70,80,80,,190
1,Natalya Korenkova,67.5,SBD,Wraps,F,Yes,1974-05-07,Russia,Open,67.4,95,105,112.5,112.5,,80,87.5,90,90,,130,145,-157.5,145,,347.5
DQ,Ekaterina Myasnikova,82.5,SBD,Wraps,F,Yes,1986-06-28,Russia,Open,79.3,120,125,130,130,,-75,-77.5,-77.5,,,,,,,,
1,Sergey Konovalov,52,SBD,Wraps,M,Yes,1997-07-03,Russia,13-15,46.9,60,70,80,80,,52.5,55,-60,55,,-100,110,125,125,,260
2,Ivan Naberezhnykh,52,SBD,Wraps,M,Yes,1996-08-08,Russia,13-15,49.8,70,75,80,80,,50,-55,55,55,,85,90,100,100,,235
3,Denis Golub,52,SBD,Wraps,M,Yes,1998-03-29,Russia,13-15,36.2,40,50,55,55,,35,-40,-40,35,,65,70,75,75,,165
1,Pavel Mironov,67.5,SBD,Wraps,M,Yes,1988-09-24,Russia,Juniors,67.49,-150,150,-157.5,150,,135,137.5,-140,137.5,,180,-190,190,190,,477.5
2,Aleksey Golovko,67.5,SBD,Wraps,M,Yes,1988-06-29,Russia,Juniors,66.4,100,115,-125,115,,80,90,95,95,,130,150,-165,150,,360
1,Igor Filatov,67.5,SBD,Wraps,M,Yes,1979-03-14,Russia,Open,64.2,130,135,-140,135,,105,110,-115,110,,165,170,-175,170,,415
1,Dmitriy Kharauzov,75,SBD,Wraps,M,Yes,1996-02-24,Russia,13-15,73,165,175,185,185,,80,85,-87.5,85,,180,195,-210,195,,465
2,Dmitriy Golub,75,SBD,Wraps,M,Yes,1997-09-11,Russia,13-15,68.1,-80,80,85,85,,-60,60,65,65,,95,100,105,105,,255
1,Konstantin Sidenkov,75,SBD,Wraps,M,Yes,1967-10-30,Russia,40-44,72.8,-125,125,130,130,,-115,115,120,120,,140,150,160,160,,410
1,Ilya Krasko,75,SBD,Wraps,M,Yes,1966-01-21,Russia,45-49,74.4,-180,180,200,200,,130,140,-147.5,140,,180,200,-215,200,,540
1,Sergey Zavalin,75,SBD,Wraps,M,Yes,1976-08-30,Russia,Open,72.9,140,145,-147.5,145,,115,125,130,130,,150,165,-175,165,,440
DQ,Sergey Krotov,82.5,SBD,Wraps,M,Yes,1997-06-27,Russia,13-15,77.4,-80,-80,-80,,,,,,,,,,,,,
1,Ruslan Olekhov,82.5,SBD,Wraps,M,Yes,1994-03-22,Russia,16-17,81.2,180,187.5,195,195,,125,132.5,135,135,,182.5,195,205,205,,535
1,Aleksey Kokukhin,82.5,SBD,Wraps,M,Yes,1984-11-22,Russia,Open,80.7,235,245,-250,245,,162.5,167.5,170,170,,285,295,-302.5,295,,710
1,Aleksandr Berezhnoy,90,SBD,Wraps,M,Yes,1994-05-18,Russia,16-17,87.7,170,180,192.5,192.5,,110,120,130,130,,185,195,207.5,207.5,215,530
2,Mikhail Sidenkov,90,SBD,Wraps,M,Yes,1994-05-05,Russia,16-17,86.2,130,140,145,145,,100,105,110,110,,135,145,155,155,,410
1,Rinat Zaripov,90,SBD,Wraps,M,Yes,1970-08-10,Ukraine,40-44,89.9,225,235,242.5,242.5,,155,162.5,170.5,170.5,,230,250,272.5,272.5,,685
2,Vyacheslav Myasnikov,90,SBD,Wraps,M,Yes,1970-12-07,Russia,40-44,88.9,-205,205,-220,205,,127.5,132.5,140,140,,192.5,202.5,212.5,212.5,,557.5
1,Stepan Babin,90,SBD,Wraps,M,Yes,1986-06-27,Russia,Open,87.3,130,145,-150,145,,90,-100,100,100,,170,185,200,200,,445
1,Sergey Materinskiy,100,SBD,Wraps,M,Yes,1992-08-13,Russia,18-19,95,150,160,165,165,,125,132.5,-137.5,132.5,,200,215,230,230,,527.5
1,Sergey Mavrenkov,100,SBD,Wraps,M,Yes,1966-11-05,Russia,40-44,97.7,165,175,182.5,182.5,,135,140,-142.5,140,,185,-202.5,-202.5,185,,507.5
1,Aleksey Grach,100,SBD,Wraps,M,Yes,1962-10-01,Russia,45-49,98.7,215,222.5,,222.5,,140,147.5,-150,147.5,,230,240,-250,240,,610
1,Vladimir Ukhach,100,SBD,Wraps,M,Yes,1960-10-21,Ukraine,50-54,97.5,240,255,,255,,170,182.5,188,188,,250,267.5,275,275,,717.5
1,Nikolay Phesanyuk,100,SBD,Wraps,M,Yes,1984-05-30,Russia,Open,99.9,-260,260,275,275,,170,180,-190,180,,300,315,-320,315,,770
2,Vladimir Ukhach,100,SBD,Wraps,M,Yes,1960-10-21,Ukraine,Open,97.5,240,255,,255,,170,182.5,188,188,,250,267.5,275,275,,718
DQ,Sergey Permyakov,100,SBD,Wraps,M,Yes,1981-12-19,Russia,Open,95.9,-195,-200,-200,,,,,,,,,,,,,
1,Sergey Lischuk,110,SBD,Wraps,M,Yes,1967-11-05,Russia,40-44,105,190,200,210,210,,135,142.5,-150,142.5,,220,-240,,220,,572.5
1,Sergey Lischuk,110,SBD,Wraps,M,Yes,1967-11-05,Russia,Open,105,190,200,210,210,,135,142.5,-150,142.5,,220,-240,,220,,572.5
1,Ilya Nalimov,125,SBD,Wraps,M,Yes,1988-07-18,Russia,Juniors,123.9,-245,245,262.5,262.5,,180,187.5,-192.5,187.5,,247.5,260,-265,260,,710
1,Ilya Nalimov,125,SBD,Wraps,M,Yes,1988-07-18,Russia,Open,123.9,-245,245,262.5,262.5,,180,187.5,-192.5,187.5,,247.5,260,-265,260,,710
1,Vasiliy Petrov,140,SBD,Wraps,M,Yes,1975-11-14,Russia,Open,127.4,270,285,300,300,,220,230,240,240,,220,250,270,270,,810
1,Vladislava Dluzhnevskaya,44,B,Raw,F,Yes,2000-06-10,Russia,13-15,43.9,,,,,,52.5,57.5,-60,57.5,,,,,,,57.5
1,Anna Gamayunova,44,B,Raw,F,Yes,1986-04-20,Russia,Open,40.9,,,,,,35,40,-45,40,,,,,,,40
1,Ekaterina Bener,52,B,Raw,F,Yes,1997-12-06,Russia,13-15,51.9,,,,,,32.5,37.5,-42.5,37.5,,,,,,,37.5
1,Anastasiya Mymrrina,52,B,Raw,F,Yes,1990-07-10,Russia,Open,51.1,,,,,,72.5,-77.5,-80,72.5,,,,,,,72.5
2,Roza Ovechkina,52,B,Raw,F,Yes,1980-06-24,Russia,Open,51.2,,,,,,50,55,60,60,,,,,,,60
1,Yuliya Biktasheva,56,B,Raw,F,Yes,1989-12-08,Russia,Juniors,55.9,,,,,,47.5,55,60,60,,,,,,,60
1,Natalya Konovalova,56,B,Raw,F,Yes,1974-04-14,Russia,Open,55.2,,,,,,100,105,-110,105,,,,,,,105
2,Oxana Vlasenko,56,B,Raw,F,Yes,1976-09-03,Ukraine,Open,55.9,,,,,,50,60,-67.5,60,,,,,,,60
1,Zhanna Dorokhina,60,B,Raw,F,Yes,1968-11-11,Russia,40-44,57.5,,,,,,60,62.5,65,65,,,,,,,65
1,Tatyana Maximenko,60,B,Raw,F,Yes,1986-01-30,Russia,Open,59.9,,,,,,-60,60,65,65,,,,,,,65
2,Natalya Sundukova,60,B,Raw,F,Yes,1978-11-04,Russia,Open,56.3,,,,,,47.5,52.5,-55,52.5,,,,,,,52.5
1,Svetlana Sinacheva,75,B,Raw,F,Yes,1966-12-15,Russia,Open,74.6,,,,,,97.5,102.5,105,105,,,,,,,105
1,Ekaterina Adiyak,82.5,B,Raw,F,Yes,1997-07-30,Russia,13-15,78.1,,,,,,30,35,-40,35,,,,,,,35
DD,Tatyana Kibalina,90,B,Raw,F,Yes,1974-07-30,Russia,Open,85.4,,,,,,95,102.5,-107.5,102.5,,,,,,,
1,Rustam Kudusov,52,B,Raw,M,Yes,1997-12-09,Russia,13-15,45.9,,,,,,37.5,42.5,47.5,47.5,,,,,,,47.5
2,Aleksandr Chertushkin,52,B,Raw,M,Yes,1997-09-21,Russia,13-15,46.8,,,,,,35,-40,45,45,,,,,,,45
1,Artem Zelenin,56,B,Raw,M,Yes,1996-09-08,Russia,13-15,55.1,,,,,,75,80,85,85,,,,,,,85
2,Andrey Burovtsov,56,B,Raw,M,Yes,1997-04-26,Russia,13-15,54.3,,,,,,60,-65,65,65,,,,,,,65
1,Aleksey Zaytsev,56,B,Raw,M,Yes,1987-10-17,Russia,Juniors,54.5,,,,,,80,85,90,90,,,,,,,90
1,Boris Anferov,56,B,Raw,M,Yes,1983-07-19,Russia,Open,54.7,,,,,,-85,-85,85,85,,,,,,,85
1,Yaroslav Yazovskikh,60,B,Raw,M,Yes,1997-01-06,Russia,13-15,59.7,,,,,,90,100,105,105,,,,,,,105
1,Aleksandr Pitukhin,60,B,Raw,M,Yes,1985-11-29,Russia,Open,58.5,,,,,,105,115,120,120,,,,,,,120
1,Konstantin Kurov,67.5,B,Raw,M,Yes,1994-08-17,Russia,16-17,66.8,,,,,,-105,115,120,120,,,,,,,120
1,Vladislav Trubin,67.5,B,Raw,M,Yes,1993-02-14,Russia,18-19,63.1,,,,,,80,90,100,100,,,,,,,100
1,Pavel Mironov,67.5,B,Raw,M,Yes,1988-09-24,Russia,Juniors,67.5,,,,,,135,-140,-140,135,,,,,,,135
2,Denis Troshkov,67.5,B,Raw,M,Yes,1988-06-14,Russia,Juniors,66.8,,,,,,120,125,-130,125,,,,,,,125
1,Vladimir Stegantsev,67.5,B,Raw,M,Yes,1985-07-21,Russia,Open,65.9,,,,,,150,155,157.5,157.5,,,,,,,157.5
2,Ruslan Korotkov,67.5,B,Raw,M,Yes,1974-01-01,Kazakhstan,Open,67.5,,,,,,140,152.5,157.5,157.5,,,,,,,157.5
3,Sergey Lysyakov,67.5,B,Raw,M,Yes,1980-04-17,Russia,Open,67.2,,,,,,115,125,-130,125,,,,,,,125
1,Eduard Nazaykinskiy,75,B,Raw,M,Yes,1967-09-01,Russia,40-44,73.4,,,,,,110,115,120,120,,,,,,,120
1,Aleksey Phedchenko,75,B,Raw,M,Yes,1988-04-11,Russia,Juniors,74.2,,,,,,-145,145,-147.5,145,,,,,,,145
2,Dmitriy Sidorov,75,B,Raw,M,Yes,1988-10-20,Russia,Juniors,73.9,,,,,,125,132.5,-140,132.5,,,,,,,132.5
1,Stanislav Milostnoy,75,B,Raw,M,Yes,1978-12-19,Russia,Open,73.9,,,,,,190,195.5,-200,195.5,,,,,,,195.5
2,Aleksey Lapin,75,B,Raw,M,Yes,1986-05-22,Russia,Open,74.8,,,,,,150,157.5,-162.5,157.5,,,,,,,157.5
3,Igor Amelin,75,B,Raw,M,Yes,1975-07-21,Russia,Open,74.4,,,,,,125,130,-140,130,,,,,,,130
1,Arkadiy Stremetskiy,75,B,Raw,M,Yes,1984-02-28,Russia,Open,74.6,,,,,,130,-140,,130,,,,,,,130
1,Eduard Melyaev,82.5,B,Raw,M,Yes,1970-01-01,Russia,40-44,82.3,,,,,,190,195,200,200,,,,,,,200
1,Aleksandr Runov,82.5,B,Raw,M,Yes,1990-11-15,Russia,Juniors,78.8,,,,,,155,165,172.5,172.5,,,,,,,172.5
2,Mikhail Shpagin,82.5,B,Raw,M,Yes,1988-10-25,Russia,Juniors,81.8,,,,,,140,150,-155,150,,,,,,,150
3,Aleksandr Schelkov,82.5,B,Raw,M,Yes,1988-11-05,Russia,Juniors,79.7,,,,,,137.5,145,-150,145,,,,,,,145
4,Evgeniy Ivantsov,82.5,B,Raw,M,Yes,1988-10-09,Russia,Juniors,82.5,,,,,,135,140,-147.5,140,,,,,,,140
1,Eduard Melyaev,82.5,B,Raw,M,Yes,1970-01-01,Russia,Open,82.3,,,,,,190,195,200.5,200.5,205,,,,,,200.5
2,Aleksandr Runov,82.5,B,Raw,M,Yes,1990-11-15,Russia,Open,78.8,,,,,,155,165,172.5,172.5,,,,,,,172.5
3,Mikhail Shpagin,82.5,B,Raw,M,Yes,1988-10-25,Russia,Open,81.8,,,,,,140,150,-155,150,,,,,,,150
4,Aleksandr Schelkov,82.5,B,Raw,M,Yes,1988-11-05,Russia,Open,79.7,,,,,,137.5,145,-150,145,,,,,,,145
5,Stanislav Dmitriev,82.5,B,Raw,M,Yes,1979-07-27,Russia,Open,82.4,,,,,,140,-150,-150,140,,,,,,,140
1,Igor Zhukov,90,B,Raw,M,Yes,1993-10-31,Russia,16-17,89.9,,,,,,120,127.5,-135,127.5,,,,,,,127.5
2,Vladislav Yachnik,90,B,Raw,M,Yes,1995-08-13,Russia,16-17,84.3,,,,,,100,105,-107.5,105,,,,,,,105
1,Sergey Nechaev,90,B,Raw,M,Yes,1971-07-20,Russia,40-44,88.8,,,,,,150,160,165,165,,,,,,,165
2,Aleksey Savosin,90,B,Raw,M,Yes,1969-03-21,Russia,40-44,84.5,,,,,,162.5,-172.5,-172.5,162.5,,,,,,,162.5
1,Nikolay Zverev,90,B,Raw,M,Yes,1956-07-18,Russia,55-59,87.9,,,,,,140,150,155,155,,,,,,,155
1,Aleksey Kharauzov,90,B,Raw,M,Yes,1972-10-25,Russia,Open,87,,,,,,190,197.5,203,203,,,,,,,203
2,Maxim Matveev,90,B,Raw,M,Yes,1981-08-10,Russia,Open,89.6,,,,,,185,195,-200,195,,,,,,,195
3,Yuriy Fedorov,90,B,Raw,M,Yes,1975-05-23,Russia,Open,84.1,,,,,,185,,-195,185,,,,,,,185
4,Vladimir Konchakov,90,B,Raw,M,Yes,1973-05-25,Russia,Open,87.4,,,,,,175,185,-192.5,185,,,,,,,185
5,Petr Borisov,90,B,Raw,M,Yes,1981-08-19,Russia,Open,87,,,,,,150,155,-160,155,,,,,,,155
6,Aleksey Babkin,90,B,Raw,M,Yes,1981-12-05,Russia,Open,87.5,,,,,,135,142.5,-150,142.5,,,,,,,142.5
7,Oleg Muslimov,90,B,Raw,M,Yes,1986-12-14,Russia,Open,87.6,,,,,,130,137.5,-150,137.5,,,,,,,137.5
8,Aleksandr Redikultsev,90,B,Raw,M,Yes,1973-11-03,Russia,Open,86.3,,,,,,130,-137.5,-137.5,130,,,,,,,130
1,Evgeniy Lemeschenko,100,B,Raw,M,Yes,1995-07-23,Russia,16-17,92,,,,,,130,135,140,140,,,,,,,140
1,Denis Zamesin,100,B,Raw,M,Yes,1992-09-26,Russia,18-19,94.7,,,,,,132.5,-142.5,-142.5,132.5,,,,,,,132.5
1,Dmitriy Karelin,100,B,Raw,M,Yes,1968-09-27,Russia,40-44,99.8,,,,,,170,175,180,180,,,,,,,180
2,Igor Tashirov,100,B,Raw,M,Yes,1970-10-15,Russia,40-44,96.1,,,,,,142.5,147.5,152.5,152.5,,,,,,,152.5
1,Vladimir Pleshakov,100,B,Raw,M,Yes,1965-09-03,Russia,45-49,93.6,,,,,,130,137.5,140,140,,,,,,,140
1,Vladimir Ukhach,100,B,Raw,M,Yes,1960-10-21,Ukraine,50-54,96.5,,,,,,175,180,188,188,,,,,,,188
2,Vladimir Shibaev,100,B,Raw,M,Yes,1960-02-05,Russia,50-54,99.1,,,,,,175,180,-187.5,180,,,,,,,180
DQ,Ilya Pakhomov,100,B,Raw,M,Yes,1988-08-21,Russia,Juniors,99.9,,,,,,-195,,-195,,,,,,,,
1,Vladimir Schukin,100,B,Raw,M,Yes,1980-03-15,Russia,Open,91.1,,,,,,165,170,175,175,,,,,,,175
2,Andrey Tagankin,100,B,Raw,M,Yes,1984-10-03,Russia,Open,99.1,,,,,,162.5,167.5,-172.5,167.5,,,,,,,167.5
3,Andrey Sorokin,100,B,Raw,M,Yes,1976-07-13,Russia,Open,98.1,,,,,,155,162.5,165,165,,,,,,,165
4,Aleksey Yakimov,100,B,Raw,M,Yes,1976-02-19,Russia,Open,94,,,,,,160,-165,-165,160,,,,,,,160
5,Yuriy Gorbunov,100,B,Raw,M,Yes,1986-08-16,Russia,Open,97.6,,,,,,150,-162.5,-162.5,150,,,,,,,150
DQ,Ilya Pakhomov,100,B,Raw,M,Yes,1988-08-21,Russia,Open,99.9,,,,,,-195,,-195,,,,,,,,
1,Dmitriy Penkin,110,B,Raw,M,Yes,1970-12-11,Russia,40-44,107.9,,,,,,170,180,-185,180,,,,,,,180
2,Aleksey Tereschenko,110,B,Raw,M,Yes,1968-02-12,Russia,40-44,106.9,,,,,,160,167.5,170,170,,,,,,,170
1,Aleksey Ivanov,110,B,Raw,M,Yes,1966-05-14,Russia,45-49,108.5,,,,,,170,180,-190,180,,,,,,,180
1,Pavel Cheredov,110,B,Raw,M,Yes,1984-10-02,Russia,Open,103.6,,,,,,210,215,220.5,220.5,,,,,,,220.5
2,Aleksandr Sapozhnikov,110,B,Raw,M,Yes,1974-12-11,Russia,Open,107.4,,,,,,185,-190,-195,185,,,,,,,185
3,Dmitriy Penkin,110,B,Raw,M,Yes,1970-12-11,Russia,Open,107.9,,,,,,170,180,-185,180,,,,,,,180
4,Vladimir Moshkovskiy,110,B,Raw,M,Yes,1973-02-01,Russia,Open,109.9,,,,,,175,180,-185,180,,,,,,,180
6,Aleksey Tereschenko,110,B,Raw,M,Yes,1968-02-12,Russia,Open,106.9,,,,,,160,167.5,170,170,,,,,,,170
1,Ramil Safarov,125,B,Raw,M,Yes,1968-04-08,Russia,40-44,122,,,,,,185,192.5,200,200,,,,,,,200
1,Ravil Duseev,125,B,Raw,M,Yes,1963-12-29,Russia,45-49,113.8,,,,,,160,178,190,190,,,,,,,190
2,Egor Kosov,125,B,Raw,M,Yes,1966-08-10,Russia,45-49,111.6,,,,,,110,125,135,135,,,,,,,135
1,Ramil Safarov,125,B,Raw,M,Yes,1968-04-08,Russia,Open,122,,,,,,185,192.5,200,200,,,,,,,200
2,Ravil Duseev,125,B,Raw,M,Yes,1963-12-29,Russia,Open,113.8,,,,,,160,177.5,190,190,,,,,,,190
3,Aleksey Shoromov,125,B,Raw,M,Yes,1974-08-11,Russia,Open,119.3,,,,,,170,175,-177.5,175,,,,,,,175
4,Vitaliy Ignatov,125,B,Raw,M,Yes,1979-03-20,Russia,Open,123.6,,,,,,165,175,-177.5,175,,,,,,,175
5,Aleksey Chermyaninov,125,B,Raw,M,Yes,1976-12-29,Russia,Open,118.3,,,,,,150,165,-175,165,,,,,,,165
1,Oleg Nasteka,140+,B,Raw,M,Yes,1964-08-09,Russia,45-49,143.9,,,,,,180,190.5,195,195,200,,,,,,195
1,Oleg Kozyrev,140+,B,Raw,M,Yes,1975-03-01,Russia,Open,207.5,,,,,,180,,,180,,,,,,,180
1,Anna Gamayanova,44,B,Single-ply,F,Yes,1986-04-20,Russia,Open,40.9,,,,,,35,40,-45,40,,,,,,,40
1,Agnessa Antipova,52,B,Single-ply,F,Yes,1981-03-09,Russia,Open,51.9,,,,,,105,110,,110,,,,,,,110
1,Valeriya Bukina,60,B,Single-ply,F,Yes,1990-05-07,Russia,Open,59.9,,,,,,70,75,-80,75,,,,,,,75
1,Boris Anferov,56,B,Single-ply,M,Yes,1983-07-19,Russia,Open,54.7,,,,,,105,110,115,115,,,,,,,115
1,Aleksandr Rubets,67.5,B,Single-ply,M,Yes,1996-05-11,Russia,13-15,67.4,,,,,,105,110,115,115,,,,,,,115
1,Artem Mikhaylov,67.5,B,Single-ply,M,Yes,1993-01-19,Russia,18-19,67.4,,,,,,125,-135,-135,125,,,,,,,125
1,Ruslan Korotkov,67.5,B,Single-ply,M,Yes,1981-01-20,Kazakhstan,Open,67.45,,,,,,170,,,170,,,,,,,170
2,Vyacheslav Laskov,67.5,B,Single-ply,M,Yes,1986-10-14,Russia,Open,67.3,,,,,,-125,125,140,140,,,,,,,140
3,Ravil Masalimov,67.5,B,Single-ply,M,Yes,1985-02-27,Russia,Open,61.95,,,,,,125,-130,135,135,,,,,,,135
4,Artem Mikhaylov,67.5,B,Single-ply,M,Yes,1993-01-19,Russia,Open,67.4,,,,,,125,-135,-135,125,,,,,,,125
1,Jaroslav Medvedev,75,B,Single-ply,M,Yes,1993-01-01,Russia,18-19,73.75,,,,,,155,165,170,170,,,,,,,170
1,Alik Ganeev,75,B,Single-ply,M,Yes,1970-10-29,Russia,40-44,70.55,,,,,,115,125,135,135,,,,,,,135
1,Stanislav Milostnoy,75,B,Single-ply,M,Yes,1978-12-19,Russia,Open,73.9,,,,,,200,210,-220,210,,,,,,,210
2,Nikolay Domnin,75,B,Single-ply,M,Yes,1986-05-07,Russia,Open,74.6,,,,,,-150,150,157.5,157.5,,,,,,,157.5
DQ,Aleksandr Pachevich,75,B,Single-ply,M,Yes,1986-06-19,Russia,Open,70.05,,,,,,-140,-140,-140,,,,,,,,
1,Valeriy Trubin,82.5,B,Single-ply,M,Yes,1968-06-22,Russia,40-44,82.4,,,,,,150,-195,-195,150,,,,,,,150
1,Konstantin Smirnov,82.5,B,Single-ply,M,Yes,1962-07-15,Russia,45-49,82.4,,,,,,130,135,140,140,,,,,,,140
1,Vladimir Kuvanov,82.5,B,Single-ply,M,Yes,1989-06-12,Russia,Juniors,81.9,,,,,,185,-195,195,195,,,,,,,195
2,Dmitriy Mayorov,82.5,B,Single-ply,M,Yes,1988-06-18,Russia,Juniors,81.1,,,,,,165,-180,-185,165,,,,,,,165
1,Denis Ryadenskiy,82.5,B,Single-ply,M,Yes,1985-07-06,Russia,Open,81.2,,,,,,150,160,-165,160,,,,,,,160
1,Sergey Boldin,90,B,Single-ply,M,Yes,1971-05-31,Russia,40-44,84.9,,,,,,135,145,150,150,,,,,,,150
1,Mikhail Kadochnikov,90,B,Single-ply,M,Yes,1980-10-18,Russia,Open,88.2,,,,,,215,225,237.5,237.5,,,,,,,237.5
2,Ilya Boyko,90,B,Single-ply,M,Yes,1994-07-31,Russia,Open,89.4,,,,,,-170,180,-190,180,,,,,,,180
1,Aleksandr Anokhin,100,B,Single-ply,M,Yes,1991-07-30,Russia,Juniors,95,,,,,,220,225,-232.5,225,,,,,,,225
2,Ruslan Kulebyakin,100,B,Single-ply,M,Yes,1991-02-26,Russia,Juniors,99.6,,,,,,200,215,-225,215,,,,,,,215
1,Vitaliy Petukhov,100,B,Single-ply,M,Yes,1980-10-30,Russia,Open,99.9,,,,,,260,270,-280,270,,,,,,,270
1,Sergey Vatolin,110,B,Single-ply,M,Yes,1985-02-26,Russia,Open,105.6,,,,,,170,185,190,190,,,,,,,190
DQ,Pavel Guzev,110,B,Single-ply,M,Yes,1966-05-29,Russia,Open,109.6,,,,,,-235,-235,-235,,,,,,,,
DQ,Pavel Guzev,110,B,Single-ply,M,Yes,1966-05-29,Russia,45-49,109.6,,,,,,-235,-235,-235,,,,,,,,
1,Evgeniy Formin,125,B,Single-ply,M,Yes,1968-01-01,Russia,40-44,122.7,,,,,,-250,-250,250,250,-260,,,,,,250
1,Vladimir Poletaev,125,B,Single-ply,M,Yes,1972-10-19,Russia,Open,112.1,,,,,,-275,275,-282.5,275,,,,,,,275
2,Aleksey Tarasov,125,B,Single-ply,M,Yes,1976-03-21,Russia,Open,119.8,,,,,,220,-230,230,230,,,,,,,230
3,Pavel Scheglov,125,B,Single-ply,M,Yes,1978-07-18,Russia,Open,124.6,,,,,,190,210,-232.5,210,,,,,,,210
DQ,Vasiliy Filatov,140,B,Single-ply,M,Yes,1986-09-29,Russia,Open,125.6,,,,,,-260,-260,-260,,,,,,,,
DQ,Agnessa Antipova,52,SBD,Single-ply,F,Yes,1981-03-09,Russia,Open,51.1,-170,-170,-170,,,,,,,,,,,,,
1,Rustam Kudusov,52,SBD,Single-ply,M,Yes,1997-12-09,Russia,13-15,46.3,70,-85,95,95,,37.5,42.5,50,50,,65,75,85,85,,230
1,Uulu Alymbek,56,SBD,Single-ply,M,Yes,1994-02-11,Kazakhstan,16-17,55.5,160,170,-180,170,,75,-85,85,85,,-150,150,165,165,,420
1,Ruslan Abdrakhmanov,60,SBD,Single-ply,M,Yes,1995-11-11,Russia,13-15,59.7,170,185,-195,185,,85,92.5,-97.5,92.5,,-180,195,202.5,202.5,205,480
1,Uuiu Alymbek,60,SBD,Single-ply,M,Yes,1992-04-27,Kazakhstan,16-17,58.5,170,185,192.5,192.5,200,90,-115,115,115,,180,202.5,210,210,,517.5
2,Uulu Kursan,60,SBD,Single-ply,M,Yes,1994-04-10,Kazakhstan,16-17,58,-145,150,165,165,,70,80,85,85,,140,155,165,165,,415
1,Artem Gorbachov,67.5,SBD,Single-ply,M,Yes,1996-11-15,Russia,13-15,61,135,150,162.5,162.5,,77.5,85,-90,85,,135,152.5,-157.5,152.5,,400
1,Andrey Kadochnikov,67.5,SBD,Single-ply,M,Yes,1988-10-14,Russia,Juniors,66.4,225,-235,235,235,245,135,145,150,150,,220,235,-245,235,,620
1,Aleksandr Zhurov,75,SBD,Single-ply,M,Yes,1995-10-29,Russia,13-15,73.4,200,215,230,230,240,90,100,-110,100,,140,155,170,170,180,500
1,Jaroslav Medvedev,75,SBD,Single-ply,M,Yes,1993-01-01,Russia,18-19,74.1,-230,230,237.5,237.5,,155,162.5,167.5,167.5,,-205,205,-215,205,,610
1,Saparbay Kurbanbekov,75,SBD,Single-ply,M,Yes,1989-09-17,Kazakhstan,Juniors,71.4,180,200,210,210,,100,120,130,130,,180,200,210,210,,550
1,Sergey Ayvazov,75,SBD,Single-ply,M,Yes,1977-07-19,Russia,Open,74.9,235,255,270,270,,-135,140,-150,140,,235,255,270,270,,680
1,Alumbek Rakhimov,82.5,SBD,Single-ply,M,Yes,1966-06-10,Kazakhstan,45-49,82,255,270,-280,270,,-170,-170,170,170,,-240,240,281,281,,721
1,Roman Tsarkov,90,SBD,Single-ply,M,Yes,1990-08-03,Russia,Juniors,88.3,220,235,250,250,,150,170.5,175,175,,220,240,-263,240,,665
1,Daniil Fomenko,100,SBD,Single-ply,M,Yes,1992-01-30,Russia,18-19,95.8,230,245,260,260,,155,165,172.5,172.5,,210,230,-245,230,,662.5
1,Valeriy Ignatyev,100,SBD,Single-ply,M,Yes,1969-11-17,Russia,40-44,97.9,280,290,300,300,,185,195,202.5,202.5,,245,260,-270,260,,762.5
1,Roman Demin,110,SBD,Single-ply,M,Yes,1980-04-24,Russia,Open,108.9,280,300,315.5,315.5,,190,202.5,207.5,207.5,,260,-290,290,290,,812.5
2,Sergey Vatolin,110,SBD,Single-ply,M,Yes,1985-02-26,Russia,Open,105.8,200,225,250,250,,100,170,,170,,200,225,245,245,,665
1,Pavel Scheglov,125,SBD,Single-ply,M,Yes,1978-07-18,Russia,Open,123.7,282.5,305,330,330,,205,215,222.5,222.5,,235,-255,-255,235,,787.5
DQ,Maryana Naumova,52,B,Raw,F,No,1999-04-22,Russia,13-15,50.4,,,,,,-65,,,,,,,,,,
1,Yuliya Tatyanina,56,B,Raw,F,No,1989-02-13,Russia,Open,55.7,,,,,,80,85,-92.5,85,,,,,,,85
1,Yuliya Tatyanina,56,B,Raw,F,No,1989-02-13,Russia,Juniors,55.7,,,,,,-80,85,90,90,,,,,,,90
1,Natalya Razlivkina,60,B,Raw,F,No,1981-06-02,Russia,Open,55.9,,,,,,87.5,95,-100,95,,,,,,,95
1,Elena Sheverdina,75,B,Raw,F,No,1974-02-14,Russia,Open,73,,,,,,125,130,135,135,140,,,,,,135
1,Anna Turaeva,82.5,B,Raw,F,No,1978-08-18,Russia,Open,81.8,,,,,,120,130,136,136,140,,,,,,136
1,Irina Nikulina,82.5,B,Raw,F,No,1988-03-29,Russia,Juniors,81.8,,,,,,105,115,-122.5,115,,,,,,,115
1,Oleg Grudinin,52,B,Raw,M,No,1986-10-06,Russia,Open,37.6,,,,,,65,-70,-70,65,,,,,,,65
1,Igor Artemyev,56,B,Raw,M,No,1971-12-22,Russia,Open,55.6,,,,,,120,125,-130,125,,,,,,,125
1,Oleg Artemyev,60,B,Raw,M,No,1971-12-22,Russia,Open,58.5,,,,,,127.5,135,137.5,137.5,-140,,,,,,137.5
1,Maxim Kuznetsov,60,B,Raw,M,No,1991-04-05,Russia,Juniors,59.05,,,,,,122.5,125,127.5,127.5,,,,,,,127.5
1,Yuriy Kiselyov,67.5,B,Raw,M,No,1937-11-12,Russia,70-74,66,,,,,,60,65,,65,,,,,,,65
1,Dmitriy Kukharenko,75,B,Raw,M,No,1969-01-22,Russia,40-44,74.9,,,,,,170,-180,,170,,,,,,,170
1,Aleksandr Maluda,75,B,Raw,M,No,1958-07-02,Russia,50-54,74.9,,,,,,105,115,125,125,,,,,,,125
1,Mikhail Gamayunov,75,B,Raw,M,No,1988-12-09,Russia,Juniors,70.9,,,,,,142.5,147.5,152.5,152.5,155,,,,,,152.5
2,Konstantin Zhigulin,75,B,Raw,M,No,1987-10-03,Russia,Juniors,74.75,,,,,,-140,140,150,150,,,,,,,150
1,Dmitriy Kukharenko,75,B,Raw,M,No,1969-01-22,Russia,Open,74.9,,,,,,150,160,162.5,162.5,,,,,,,162.5
2,Igor Peredriy,75,B,Raw,M,No,1977-07-16,Russia,Open,74,,,,,,150,-157.5,157.5,157.5,,,,,,,157.5
3,Ilya Ilenyukh,75,B,Raw,M,No,1977-03-29,Russia,Open,74.9,,,,,,-140,142.5,145,145,,,,,,,145
4,Mikhail Elphimov,75,B,Raw,M,No,1980-06-09,Russia,Open,73.8,,,,,,130,140,-150,140,,,,,,,140
5,Rinat Sultanov,75,B,Raw,M,No,1984-09-24,Russia,Open,74.8,,,,,,130,-140,-140,130,,,,,,,130
1,Nikolay Shekhonin,82.5,B,Raw,M,No,1992-05-12,Russia,18-19,81.9,,,,,,140,-147.5,-147.5,140,,,,,,,140
1,Aleksandr Turaev,82.5,B,Raw,M,No,1968-08-07,Russia,40-44,80.1,,,,,,150,160,-167.5,160,,,,,,,160
1,Yuriy Chepets,82.5,B,Raw,M,No,1943-04-19,Russia,65-69,80.2,,,,,,140,145,147.5,147.5,,,,,,,147.5
2,Vyacheslav Yakushov,82.5,B,Raw,M,No,1941-09-01,Russia,70-74,81.1,,,,,,85,90,92.5,92.5,,,,,,,92.5
1,Maxim Chirkov,82.5,B,Raw,M,No,1989-01-01,Russia,Juniors,81.6,,,,,,140,150,-155,150,,,,,,,150
2,Andrey Nozhkin,82.5,B,Raw,M,No,1987-12-01,Russia,Juniors,79.9,,,,,,130,140,-145,140,,,,,,,140
1,Andrey Zheltyshev,82.5,B,Raw,M,No,1984-04-05,Russia,Open,81.9,,,,,,180,190,197.5,197.5,,,,,,,197.5
2,Denis Shorokhov,82.5,B,Raw,M,No,1976-01-21,Russia,Open,82.5,,,,,,170,177.5,182.5,182.5,,,,,,,182.5
3,Grigoriy Serebrennikov,82.5,B,Raw,M,No,1973-07-25,Russia,Open,82.4,,,,,,170,177.5,-180,177.5,,,,,,,177.5
4,Aleksandr Tsvetov,82.5,B,Raw,M,No,1987-04-02,Russia,Open,79.5,,,,,,175,-180,-180,175,,,,,,,175
5,Pavel Dvoryadkin,82.5,B,Raw,M,No,1986-07-17,Russia,Open,81,,,,,,140,155,,155,,,,,,,155
6,Vyacheslav Gordeev,82.5,B,Raw,M,No,1977-04-11,Russia,Open,82,,,,,,150,-155,-155,150,,,,,,,150
DQ,Valeriy Kleshnya,82.5,B,Raw,M,No,1981-02-21,Russia,Open,81.7,,,,,,-145,-145,,,,,,,,,
1,Roman Koroglishvili,90,B,Raw,M,No,1992-07-17,Russia,18-19,89.9,,,,,,170,177.5,,177.5,,,,,,,177.5
1,Aleksey Sarkisyan,90,B,Raw,M,No,1971-03-16,Russia,40-44,89.4,,,,,,165,175,-185,175,,,,,,,175
1,Sergey Fedorov,90,B,Raw,M,No,1962-04-27,Russia,45-49,88.4,,,,,,150,162.5,-170,162.5,,,,,,,162.5
1,Evgeniy Basov,90,B,Raw,M,No,1955-02-24,Russia,55-59,88.3,,,,,,115,125,,125,,,,,,,125
2,Vladimir Potapov,90,B,Raw,M,No,1954-05-22,Russia,55-59,89.95,,,,,,100,107.5,110,110,,,,,,,110
DQ,Vladimir Soloboev,90,B,Raw,M,No,1950-05-19,Russia,55-59,83.5,,,,,,,,,,,,,,,,
1,Vadim Rezvykh,90,B,Raw,M,No,1987-10-09,Russia,Juniors,89.9,,,,,,207.5,215,-222.5,215,,,,,,,215
2,Vladislav Filipovich,90,B,Raw,M,No,1991-01-28,Russia,Juniors,87.6,,,,,,165,175,,175,,,,,,,175
3,Denis Akimov,90,B,Raw,M,No,1988-07-28,Russia,Juniors,89.9,,,,,,130,140,,140,,,,,,,140
1,Vadim Rezvykh,90,B,Raw,M,No,1987-10-09,Russia,Open,89.9,,,,,,207.5,215,-222.5,215,,,,,,,215
2,Ivan Stegaresku,90,B,Raw,M,No,1985-02-23,Russia,Open,88.9,,,,,,175,185,190,190,,,,,,,190
3,Pavel Belyy,90,B,Raw,M,No,1978-06-03,Russia,Open,86.9,,,,,,175,180,,180,,,,,,,180
4,Roman Lepyoshkin,90,B,Raw,M,No,1978-11-25,Russia,Open,89.9,,,,,,160,170,-180,170,,,,,,,170
5,Dmitriy Zhukov,90,B,Raw,M,No,1976-12-06,Russia,Open,90,,,,,,152.5,157.5,-162.5,157.5,,,,,,,157.5
1,Aslambek Abaev,100,B,Raw,M,No,1959-06-28,Russia,50-54,95.6,,,,,,190,200,205,205,,,,,,,205
1,Stanislav Struk,100,B,Raw,M,No,1956-01-09,Russia,55-59,98,,,,,,-155,-160,160,160,,,,,,,160
1,Vadim Kakhuta,100,B,Raw,M,No,1981-08-15,Russia,Open,98,,,,,,240,250,255,255,,,,,,,255
2,Konstantin Apushnikov,100,B,Raw,M,No,1989-09-25,Russia,Open,99.9,,,,,,200,210,-220,210,,,,,,,210
3,Mirza Sephikhanov,100,B,Raw,M,No,1978-06-04,Russia,Open,94.3,,,,,,200,-210,-210,200,,,,,,,200
4,Dmitriy Rudnev,100,B,Raw,M,No,1979-03-10,Russia,Open,92.2,,,,,,190,-197.5,-197.5,190,,,,,,,190
5,Nikita Khramov,100,B,Raw,M,No,1992-04-04,Russia,Open,99,,,,,,150,157.5,172.5,172.5,,,,,,,172.5
1,Oleg Korotkov,110,B,Raw,M,No,1965-08-21,Russia,45-49,109.1,,,,,,-190,190,-205,190,,,,,,,190
2,Andrey Radin,110,B,Raw,M,No,1965-04-09,Russia,45-49,108.7,,,,,,140,-150,-150,140,,,,,,,140
1,Evgeniy Stuchkov,110,B,Raw,M,No,1961-06-09,Russia,50-54,105.9,,,,,,155,160,165,165,,,,,,,165
1,Anatoliy Lukyanov,110,B,Raw,M,No,1949-11-21,Russia,60-64,107.5,,,,,,120,130,135,135,,,,,,,135
1,Ivan Minkov,110,B,Raw,M,No,1988-06-15,Russia,Juniors,101.9,,,,,,180,185,190,190,,,,,,,190
2,Aleksey Belosludtsev,110,B,Raw,M,No,1988-10-19,Russia,Juniors,104.95,,,,,,170,180,-187.5,180,,,,,,,180
1,Stanislav Dmitruk,110,B,Raw,M,No,1975-04-19,Russia,Open,104.1,,,,,,220,-230,232.5,232.5,,,,,,,232.5
2,Ivan Vasyunin,110,B,Raw,M,No,1989-08-01,Russia,Open,100.3,,,,,,-220,220,-232.5,220,,,,,,,220
3,Sergey Didovyk,110,B,Raw,M,No,1981-11-24,Ukraine,Open,100.2,,,,,,210,-225,-225,210,,,,,,,210
4,Dmitriy Bal,110,B,Raw,M,No,1974-11-19,Russia,Open,109.5,,,,,,185,195,202.5,202.5,,,,,,,202.5
5,Yuriy Romanov,110,B,Raw,M,No,1984-01-24,Russia,Open,109.2,,,,,,202.5,-210,-210,202.5,,,,,,,202.5
6,Vitaliy Yakovykh,110,B,Raw,M,No,1983-02-09,Russia,Open,109,,,,,,180,185,-195,185,,,,,,,185
1,Nikolay Boykov,125,B,Raw,M,No,1969-12-17,Russia,40-44,123.6,,,,,,190,-197.5,-200,190,,,,,,,190
1,Sergey Kirilov,125,B,Raw,M,No,1964-04-21,Russia,45-49,115.75,,,,,,200,-205,-205,200,,,,,,,200
1,Evgeniy Zheltenko,125,B,Raw,M,No,1982-04-21,Russia,Open,118.5,,,,,,260,-272.5,-272.5,260,,,,,,,260
2,Mikhail Algash,125,B,Raw,M,No,1988-11-22,Russia,Open,123.2,,,,,,260,-270,-270,260,,,,,,,260
3,Stanislav Kolachev,125,B,Raw,M,No,1987-03-20,Russia,Open,117.5,,,,,,220,227.5,-235,227.5,,,,,,,227.5
3,Denis Ivannikov,125,B,Raw,M,No,1982-09-27,Russia,Open,117.8,,,,,,220,227.5,-237.5,227.5,,,,,,,227.5
4,Denis Chebaev,125,B,Raw,M,No,1979-10-30,Russia,Open,111.8,,,,,,220,-230,-230,220,,,,,,,220
5,Jakov Bermav,125,B,Raw,M,No,1972-06-22,Russia,Open,110.9,,,,,,200,210,215,215,,,,,,,215
6,Pavel Redkin,125,B,Raw,M,No,1985-07-11,Russia,Open,111.7,,,,,,200,207.5,212.5,212.5,,,,,,,212.5
7,Yuriy Polyakov,125,B,Raw,M,No,1982-04-27,Russia,Open,119.5,,,,,,175,185,-200,185,,,,,,,185
DQ,Mikhail Zinets,125,B,Raw,M,No,1974-09-26,Russia,Open,123.5,,,,,,200,205,210,210,,,,,,,
1,Vladimir Maksimov,140,B,Raw,M,No,1966-06-07,Russia,Open,134.8,,,,,,250,270,-280,270,,,,,,,270
2,Artem Dolinyan,140,B,Raw,M,No,1974-01-01,Russia,Open,125.5,,,,,,-230,230,-240,230,,,,,,,230
DQ,Vladimir Maksimov,140,B,Raw,M,No,1966-06-07,Russia,45-49,134.8,,,,,,-260,-272.5,-272.5,,,,,,,,
1,Sergey Kolesnichenko,140+,B,Raw,M,No,1979-11-19,Russia,Open,140.4,,,,,,210,-220,222.5,222.5,,,,,,,222.5
1,Tatyana Dzhanpoladova,52,B,Single-ply,F,No,1984-09-15,Russia,Open,51.9,,,,,,82.5,-87.5,-87.5,82.5,,,,,,,82.5
2,Ekaterina Turkina,52,B,Single-ply,F,No,1987-04-13,Russia,Open,49.8,,,,,,-67.5,-75,75,75,,,,,,,75
1,Yulia Medvedeva,82.5,B,Single-ply,F,No,1979-07-08,Russia,Open,80.4,,,,,,175,190.5,-200,190.5,,,,,,,190.5
1,Pavel Mikheev,67.5,B,Single-ply,M,No,1979-02-19,Russia,Open,63,,,,,,-132.5,132.5,-135,132.5,,,,,,,132.5
1,Yuriy Kiselev,67.5,B,Single-ply,M,No,1937-11-12,Russia,70-74,66.2,,,,,,60,65,,65,,,,,,,65
1,Ivan Semenikhin,75,B,Single-ply,M,No,1991-03-30,Russia,Juniors,74.9,,,,,,150,160,170,170,,,,,,,170
1,Vyacheslsv Yakushov,82.5,B,Single-ply,M,No,1941-09-01,Russia,70-74,81.2,,,,,,100,,,100,,,,,,,100
DQ,Igor Kuimov,82.5,B,Single-ply,M,No,1962-07-28,Russia,45-49,80.7,,,,,,-220,-225,-225,,,,,,,,
1,Sergey Kalinin,82.5,B,Single-ply,M,No,1989-07-20,Russia,Juniors,80.4,,,,,,165,180,-200,180,,,,,,,180
1,Pavel Dvoryadkin,82.5,B,Single-ply,M,No,1986-07-17,Russia,Open,82,,,,,,170,182.5,190,190,,,,,,,190
DQ,Aleksandr Abramov,82.5,B,Single-ply,M,No,1987-07-30,Russia,Open,81.9,,,,,,-250,-250,-250,,,,,,,,
1,Roman Koroglishvili,90,B,Single-ply,M,No,1992-07-17,Russia,18-19,90,,,,,,-245,245,-255,245,,,,,,,245
2,Gleb Tutunin,90,B,Single-ply,M,No,1992-10-04,Russia,18-19,88.6,,,,,,182.5,-187.5,-187.5,182.5,,,,,,,182.5
DQ,Andrey Belykh,90,B,Single-ply,M,No,1969-07-19,Russia,40-44,89.7,,,,,,-246,-246,-246,,,,,,,,
1,Yuriy Korikov,90,B,Single-ply,M,No,1962-04-24,Russia,45-49,88.8,,,,,,215,-225,225,225,,,,,,,225
1,Vladimir Potapov,90,B,Single-ply,M,No,1954-05-22,Russia,55-59,89.9,,,,,,145,155,,155,,,,,,,155
2,Evgeniy Basov,90,B,Single-ply,M,No,1955-02-24,Russia,55-59,87.9,,,,,,-135,135,150,150,,,,,,,150
1,Valeriy Nugumanov,90,B,Single-ply,M,No,1939-06-25,Russia,70-74,88.4,,,,,,110,115,-120,115,,,,,,,115
1,Evgeniy Kuchin,90,B,Single-ply,M,No,1987-02-20,Russia,Open,86.9,,,,,,-220,-230,230,230,,,,,,,230
DQ,Evgeniy Kataev,90,B,Single-ply,M,No,1983-08-08,Russia,Open,87.9,,,,,,-210,,,,,,,,,,
DQ,Aleksandr Kuznetsov,90,B,Single-ply,M,No,1981-12-09,Russia,Open,89.9,,,,,,-215,-215,-215,,,,,,,,
DQ,Sergey Konovalov,90,B,Single-ply,M,No,1987-02-20,Russia,Open,89.9,,,,,,-290,,,,,,,,,,
1,Bakhteyar Mukhametov,100,B,Single-ply,M,No,1970-02-18,Russia,40-44,97.9,,,,,,-200,-200,200,200,,,,,,,200
DQ,Valeriy Nefedov,100,B,Single-ply,M,No,1967-06-11,Russia,40-44,99.9,,,,,,-230,,-230,,,,,,,,
DQ,Valeriy Snigerev,100,B,Single-ply,M,No,1969-05-07,Russia,40-44,95.8,,,,,,-210,,-225,,,,,,,,
1,Alexey Merkulov,100,B,Single-ply,M,No,1983-07-24,Russia,Open,99.5,,,,,,282.5,292.5,-307.5,292.5,,,,,,,292.5
2,Roman Anpilogov,100,B,Single-ply,M,No,1980-07-14,Russia,Open,98.3,,,,,,-270,270,-292.5,270,,,,,,,270
3,Valeriy Snigirev,100,B,Single-ply,M,No,1969-05-07,Russia,Open,95.9,,,,,,210,-225,-225,210,,,,,,,210
4,Aleksey Tarasov,100,B,Single-ply,M,No,1981-05-24,Russia,Open,96.2,,,,,,-190,200,210,210,,,,,,,210
DQ,Sergey Didovyk,100,B,Single-ply,M,No,1978-01-20,Ukraine,Open,99.2,,,,,,-290,-297.5,-302.5,,,,,,,,
1,Roman Brekhov,110,B,Single-ply,M,No,1990-02-24,Russia,Juniors,109.9,,,,,,-247.5,250,-260,250,,,,,,,250
1,Aleksandr Tretyakov,110,B,Single-ply,M,No,1967-06-14,Russia,Open,108.8,,,,,,320,330,345,345,,,,,,,345
2,Denis Knyazev,110,B,Single-ply,M,No,1987-09-11,Russia,Open,109.6,,,,,,-330,330,-345,330,,,,,,,330
3,Sergey Permyakov,110,B,Single-ply,M,No,1983-09-09,Russia,Open,105.4,,,,,,260,277.5,285,285,,,,,,,285
1,Vitaliy Yakovykh,110,B,Single-ply,M,No,1975-02-25,Russia,Open,109,,,,,,-235,235,-250,235,,,,,,,235
DQ,Eduard Khaliullin,110,B,Single-ply,M,No,1973-05-22,Russia,Open,107,,,,,,-290,-300,,,,,,,,,
DQ,Vüsal Mardanov,110,B,Single-ply,M,No,1974-01-01,Azerbaijan,Open,108.9,,,,,,-320,-330,-330,,,,,,,,
1,Georgiy Lopatskiy,125,B,Single-ply,M,No,1962-05-16,Russia,45-49,123.1,,,,,,270,-285,-285,270,,,,,,,270
1,Pavel Yagovkin,125,B,Single-ply,M,No,1959-07-27,Russia,50-54,115.3,,,,,,220,230,255,255,,,,,,,255
1,Viktor Naydenov,125,B,Single-ply,M,No,1987-01-25,Russia,Open,121.1,,,,,,355,370.5,-390.5,370.5,,,,,,,370.5
2,Aleksey Shlukov,125,B,Single-ply,M,No,1984-08-13,Russia,Open,119,,,,,,300,-310,-310,300,,,,,,,300
1,Nikolay Pushmintsev,140,B,Single-ply,M,No,1981-01-04,Russia,Open,125.2,,,,,,-300,300,310,310,,,,,,,310
2,Dmitriy Permyakov,140,B,Single-ply,M,No,1975-04-28,Russia,Open,129.6,,,,,,285,300,310,310,,,,,,,310
1,Yuliya Moiseeva,52,SBD,Wraps,F,No,1991-02-20,Russia,Open,43.9,50,57.5,62.5,62.5,,47.5,55,-60,55,,90,102.5,110,110,,227.5
1,Irina Petrovich,67.5,SBD,Wraps,F,No,1984-04-04,Belarus,Open,66.5,130,145,152.5,152.5,,105,117.5,122.5,122.5,,170,190,200,200,,475
1,Dmitriy Maslov,60,SBD,Wraps,M,No,1981-06-19,Russia,Open,60,130,-135,-135,130,,100,105,110,110,,-145,150,160,160,,400
1,Pavel Yevtushenko,67.5,SBD,Wraps,M,No,1992-01-06,Russia,18-19,67.3,-165,165,-170,165,,85,90,95,95,,200,216,-227.5,216,,476
1,Denis Maslennikov,75,SBD,Wraps,M,No,1985-11-07,Russia,Open,73.5,180,190,195,195,,-125,-125,125,125,,190,200,-210,200,,520
2,Aleksandr Koryavko,75,SBD,Wraps,M,No,1982-09-01,Russia,Open,72.5,150,165,175,175,,130,140,145,145,,160,,,160,,480
1,Andrey Shelepov,82.5,SBD,Wraps,M,No,1970-05-04,Russia,40-44,81.95,170,175,182.5,182.5,,140,-147.5,147.5,147.5,,210,-222.5,222.5,222.5,,552.5
1,Mikhail Losev,82.5,SBD,Wraps,M,No,1953-08-01,Russia,55-59,81.9,150,-160,-160,150,,90,95,-100,95,,160,170,180,180,,425
1,Yuriy Chepets,82.5,SBD,Wraps,M,No,1943-04-19,Russia,65-69,80.2,205,215,222.5,222.5,-231,140,147.5,150,150,,195,205,212.5,212.5,215,585
1,Vyacheslav Yakushov,82.5,SBD,Wraps,M,No,1941-09-13,Russia,70-74,81.2,155,162.5,165,165,,85,90,92.5,92.5,,180,190,195,195,,452.5
1,Aleksey Brovkin,90,SBD,Wraps,M,No,1993-12-08,Russia,16-17,84.8,150,160,-170,160,,105,112.5,115,115,,190,205,-210,205,,480
1,Vladimir Potapov,90,SBD,Wraps,M,No,1954-05-22,Russia,55-59,89.9,175,180,,180,,107.5,110,-112.5,110,,-170,-170,170,170,,460
1,Valeriy Nugumanov,90,SBD,Wraps,M,No,1939-06-25,Russia,70-74,88.4,-185,185,192.5,192.5,,110,-115,115,115,,180,190,195,195,,502.5
1,Aleksey Bazhenov,90,SBD,Wraps,M,No,1977-11-01,Russia,Open,87.8,-240,-240,240,240,,160,170,180,180,,255,-267.5,-267.5,255,,675
2,Denis Krasnov,90,SBD,Wraps,M,No,1971-11-08,Russia,Open,89,-180,180,-200,180,,160,170,-180,170,,210,232.5,-240,232.5,,582.5
1,Anton Terentyev,100,SBD,Wraps,M,No,1994-08-05,Russia,16-17,99.1,160,170,180,180,,110,115,120,120,,205,215,222.5,222.5,,522.5
1,Vladimir Minin,100,SBD,Wraps,M,No,1967-08-29,Russia,40-44,96.9,280,292.5,300,300,,155,160,-165,160,,280,292.5,,292.5,,752.5
1,Aslambek Abaev,100,SBD,Wraps,M,No,1959-06-28,Russia,50-54,95.7,-250,250,270,270,,200,-210,210,210,,250,270,-275,270,,750
1,Aleksandr Babkin,100,SBD,Wraps,M,No,1955-02-23,Russia,55-59,94.8,160,170,180,180,,120,-130,,120,,180,200,210,210,,510
1,Valeriy Bystrov,100,SBD,Wraps,M,No,1941-06-14,Russia,70-74,95.5,-165,165,175,175,,110,-112.5,-115,110,,180,190,195,195,,480
1,Andrey Belyaev #1,100,SBD,Wraps,M,No,1983-03-16,Russia,Open,95.8,210,240,,240,,190,210,,210,,300,320,,320,,770
2,Aleksandr Merkuryev,100,SBD,Wraps,M,No,1985-12-01,Russia,Open,99.9,212.5,215,222.5,222.5,,152.5,160,165,165,,-252.5,252.5,257.5,257.5,,645
1,Vadim Kulikov,110,SBD,Wraps,M,No,1967-02-18,Russia,40-44,105,260,270,275,275,,150,155,162.5,162.5,,270,285,295,295,,732.5
1,Ruslan Akhmetov,110,SBD,Wraps,M,No,1960-04-11,Russia,50-54,108.8,250,265,275,275,,165,175,180,180,,220,250,260,260,,715
2,Evgeniy Stuchkov,110,SBD,Wraps,M,No,1961-06-04,Russia,50-54,105.8,120,130,140,140,,150,,,150,,140,150,160,160,,450
1,Denis Poddubnyy,110,SBD,Wraps,M,No,1978-07-30,Russia,Open,104.3,220,240,-260,240,,170,182.5,187.5,187.5,,260,280,-300,280,,707.5
2,Maxim Pyatnitskiy,110,SBD,Wraps,M,No,1984-08-31,Russia,Open,107,-230,230,-245,230,,170,180,-182.5,180,,250,-275,-275,250,,660
3,Sergey Martyanov,110,SBD,Wraps,M,No,1975-02-25,Russia,Open,101.9,190,205,220,220,,170,185,190,190,,200,220,230,230,,640
1,Aleksey Brednev,125,SBD,Wraps,M,No,1969-05-01,Russia,40-44,120.4,240,252.5,-255,252.5,,172.5,177.5,182.5,182.5,,250,262.5,-265,262.5,,697.5
1,Yakov Berman,125,SBD,Wraps,M,No,1973-01-01,Russia,Open,110.9,230,240,250,250,,200,210,215,215,,270,280,290,290,,755
1,Valeriy Afanasyev,140+,SBD,Wraps,M,No,1983-03-08,Russia,Open,160,220,240,-250,240,,140,150,160,160,,260,280,-302.5,280,,680
1,Anastasiya Noskova,56,SBD,Single-ply,F,No,1984-02-14,Russia,Open,54.2,110,120,130,130,,55,62.5,-67.5,62.5,,125,-135,-135,125,,317.5
1,Tatyana Razumak,60,SBD,Single-ply,F,No,1989-12-24,Russia,Juniors,57.4,140,-150,-150,140,,75,80,85,85,,135,145,-150,145,,370
1,Yulia Medvedeva,82.5,SBD,Single-ply,F,No,1979-07-08,Russia,Open,80.4,-250,250,,250,,175,190,-200,190,,200,220,240,240,,680
1,Denis Kachesov,67.5,SBD,Single-ply,M,No,1995-02-16,Russia,16-17,65.3,170,-185,195,195,,110,117.5,122.5,122.5,,160,-170,170,170,,487.5
1,Aleksandr Petukhov,75,SBD,Single-ply,M,No,1995-04-01,Russia,16-17,68,200,212.5,220,220,,125,130,-142.5,130,,215,230,240,240,,590
1,Maxim Shvarts,75,SBD,Single-ply,M,No,1989-11-29,Russia,Juniors,73.5,-290,290,300,300,,150,160,165,165,,250,270,-282.5,270,,735
2,Mikhail Maznyak,75,SBD,Single-ply,M,No,1988-12-01,Russia,Juniors,72.6,165,175,185,185,,100,140,-145,140,,180,200,210,210,,535
1,Anatoliy Glazunov,75,SBD,Single-ply,M,No,1972-02-09,Russia,Open,75,280,-310,310,310,,170,185,195,195,,230,250,260,260,,765
2,Vasiliy Tsvetkov,75,SBD,Single-ply,M,No,1981-07-05,Russia,Open,74.7,290,300,-310,300,,185,190,195,195,,240,245,-272.5,245,,740
DQ,Vyacheslav Yakushov,82.5,SBD,Single-ply,M,No,1941-04-01,Russia,70-74,81.2,-175,,180,180,,100,,,100,,-190,,,,,
1,Aleksandr Druzhinin,82.5,SBD,Single-ply,M,No,1989-05-27,Russia,Juniors,81.6,295,-315,315,315,,190,200,210,210,,270,-295,-295,270,,795
1,Dmitriy Osipov,82.5,SBD,Single-ply,M,No,1987-05-31,Russia,Open,82.49,-260,275,290,290,,175,-190,190,190,,250,270,-290,270,,750
DQ,Zaurbek Bagulov,82.5,SBD,Single-ply,M,No,1990-03-01,Russia,Open,79.8,,,250,250,,-185,-185,-185,,,,,,,,
1,Ivan Ivakin,90,SBD,Single-ply,M,No,1994-04-11,Russia,16-17,89,170,180,-195,180,,120,127.5,-135,127.5,,180,190,-202.5,190,,497.5
1,Eduard Isakov,90,SBD,Single-ply,M,No,1966-07-18,Russia,45-49,86.6,205,210,,210,,180,-195,195,195,,220,240,250,250,,655
1,Aleksandr Tsvetkov,90,SBD,Single-ply,M,No,1957-04-10,Russia,50-54,90,220,240,-250,240,,115,122.5,,122.5,,-215,215,230,230,,592.5
1,Vladimir Nagalyuk,90,SBD,Single-ply,M,No,1951-09-21,Ukraine,60-64,86.1,140,150,160,160,,80,85,90,90,,180,190,200,200,,450
1,Maxim Piskunov,90,SBD,Single-ply,M,No,1982-07-24,Russia,Open,89.9,360,380,-400,380,,225,-235,235,235,,-290,-290,290,290,,905
2,Vladimir Potapov,90,SBD,Single-ply,M,No,1954-05-22,Russia,Open,89.9,,,180,180,,110,,,110,,,,150,150,,440
1,Denis Mosharov,100,SBD,Single-ply,M,No,1992-01-31,Russia,18-19,100,-300,300,-320,300,,180,195,200,200,,-255,255,275,275,,775
1,Bahteyar Muhametov,100,SBD,Single-ply,M,No,1970-02-18,Kyrgyzstan,40-44,97.9,100,,,100,,100,,,100,,100,,125,125,,325
1,Andrey Belyaev #1,100,SBD,Single-ply,M,No,1983-03-16,Russia,Open,95.3,360,385,405,405,,290,310,-320,310,,330,-350,-350,330,,1045
2,Evgeniy Popov,100,SBD,Single-ply,M,No,1985-11-07,Russia,Open,100,315,330,340,340,,-225,225,240,240,,240,250,260,260,,840
3,Yuriy Ustinov,100,SBD,Single-ply,M,No,1975-05-10,Russia,Open,94.6,260,,,260,,180,190,-200,190,,250,270,,270,,720
1,Vadim Kulikov,110,SBD,Single-ply,M,No,1967-02-18,Russia,40-44,104.9,265,275,280,280,,140,160,170,170,,260,270,285,285,,735
1,Ivan Vasyunin,110,SBD,Single-ply,M,No,1983-08-01,Russia,Open,100.3,-355,355,370,370,,275,287.5,300,300,,300,-310,310,310,,980
2,Vüsal Mardanov,110,SBD,Single-ply,M,No,1985-02-18,Azerbaijan,Open,108.9,320,-340,-350,320,,300,-315,,300,,360,-375,-382.5,360,,980
3,Andrey Ayvazov,110,SBD,Single-ply,M,No,1982-11-07,Russia,Open,106.9,-370,370,-390,370,,-225,225,-325,225,,350,-370,,350,,945
1,Mikhail Glazunov,125,SBD,Single-ply,M,No,1974-02-09,Russia,Open,122.2,380,410,-430,410,,-260,260,290,290,,350,380,402.5,402.5,,1102.5
