Name,Country,Division,Sex,BodyweightKg,WeightClassKg,Squat1Kg,Squat2Kg,Squat3Kg,Best3SquatKg,Bench1Kg,Bench2Kg,Bench3Kg,Best3BenchKg,Deadlift1Kg,Deadlift2Kg,Deadlift3Kg,Best3DeadliftKg,TotalKg,Place,Event,Equipment
Lee-Anne Dwarte,Australia,Open,F,48.2,52,102.5,110,112.5,112.5,52.5,55,-57.5,55,130,137.5,-140,137.5,305,1,SBD,Single-ply
Jeannette Gevers,Australia,Open,F,59.4,60,152.5,157.5,162.5,162.5,87.5,92.5,-95,92.5,147.5,152.5,160,160,415,1,SBD,Single-ply
Patricia Buckman,New Zealand,Masters 2,F,66.9,67.5,85,95,102.5,102.5,65,70,75,75,110,120,-125,120,297.5,1,SBD,Single-ply
Tania Green,New Zealand,Open,F,60.1,67.5,130,135,142.5,142.5,90,95,100,100,120,127.5,-130,127.5,370,1,SBD,Single-ply
Leigh Matheson,New Zealand,Open,F,72.5,75,127.5,135,140,140,-85,-85,-85,,142.5,150,160,160,,DQ,SBD,Single-ply
Eliane Sanford,Tahiti,Open,F,117.9,90+,-190,190,-200,190,120,125,130,130,130,150,160,160,480,1,SBD,Single-ply
Theo Lagis,Australia,Open,M,60,60,187.5,195,-200,195,-120,-120,-120,,230,-240,-240,230,,DQ,SBD,Single-ply
Jean-Paul Soenerman,Tahiti,Masters 2,M,59.1,60,175,185,-195,185,90,100,-107.5,100,170,180,-185,180,465,1,SBD,Single-ply
La Philippe,New Caledonia,Open,M,59.4,60,190,205,-210,205,140,-150,-155,140,190,-207.5,-207.5,190,535,1,SBD,Single-ply
Baien Bres,Tahiti,Juniors,M,66.2,67.5,-120,-125,130,130,130,-135,-135,130,180,-195,-195,180,440,1,SBD,Single-ply
Adrian Zalcman,Australia,Open,M,66.2,67.5,-200,-200,-200,,-137.5,142.5,-147.5,142.5,140,180,-212.5,180,,DQ,SBD,Single-ply
Tony Feltham,Australia,Masters 3,M,66.3,67.5,85,95,102.5,102.5,67.5,72.5,-75,72.5,85,95,100,100,275,1,SBD,Single-ply
Bruce Park,New Zealand,Masters 4,M,65.6,67.5,112.5,122.5,127.5,127.5,65,72.5,-77.5,72.5,140,155,-165,155,355,1,SBD,Single-ply
Thomas Dominique,New Caledonia,Open,M,67.2,67.5,170,185,-192.5,185,100,115,-125,115,180,205,215,215,515,1,SBD,Single-ply
Raphael Maruae,Tahiti,Open,M,75,75,180,-200,,180,-150,150,-160,150,150,,,150,480,1,SBD,Single-ply
Gary Colombani,New Caledonia,Open,M,74.2,75,210,-215,,210,-170,-170,-170,,200,-210,,200,,DQ,SBD,Single-ply
John Whiteman,Australia,Masters 2,M,77.6,82.5,160,170,180,180,60,75,82.5,82.5,160,180,200,200,462.5,1,SBD,Single-ply
Chriophe Malaval,New Caledonia,Open,M,79.9,82.5,165,-175,180,180,110,115,120,120,160,180,190,190,490,4,SBD,Single-ply
Chris Seville,Australia,Open,M,81.9,82.5,217.5,230,-237.5,230,135,-137.5,-137.5,135,237.5,-245,-245,237.5,602.5,3,SBD,Single-ply
Stephen King,New Zealand,Masters 1,M,82.1,82.5,235,-252.5,-252.5,235,125,135,140,140,215,232.5,-245,232.5,607.5,1,SBD,Single-ply
Raboe Roland,Nauru,Open,M,81.1,82.5,230,-260,260,260,190,200,-207.5,200,210,220,-230,220,680,2,SBD,Single-ply
Stephan Matke,Tahiti,Open,M,81.1,82.5,250,-260,-260,250,-180,180,-190,180,242.5,252.5,-255,252.5,682.5,1,SBD,Single-ply
David Vaughan #1,Australia,Masters 2,M,89.7,90,190,205,-215,205,145,155,-160,155,210,225,230,230,590,1,SBD,Single-ply
Steve Fox,Australia,Masters 1,M,89.6,90,155,165,172.5,172.5,120,-127.5,-127.5,120,170,187.5,200,200,492.5,1,SBD,Single-ply
Darren Neves,New Zealand,Open,M,89.6,90,220,235,-240,235,160,172.5,-180,172.5,210,235,245,245,652.5,4,SBD,Single-ply
Jesse Bright,New Zealand,Juniors,M,88.3,90,235,252.5,265,265,120,135,-147.5,135,230,-255,-255,230,630,1,SBD,Single-ply
Anatupu Afano,Samoa,Open,M,89.2,90,235,250,-260,250,-155,155,165,165,-260,260,-275,260,675,2,SBD,Single-ply
Elton John Scotty,Nauru,Open,M,89.3,90,230,-250,250,250,150,165,180,180,240,-265,-265,240,670,3,SBD,Single-ply
David Jame,Australia,Open,M,89.4,90,-295,302.5,310,310,150,-155,155,155,292.5,305,-310,305,770,1,SBD,Single-ply
Edward Anderson,New Zealand,Masters 1,M,95.3,100,260,-280,280,280,160,170,-180,170,235,245,-252.5,245,695,1,SBD,Single-ply
Dave Mwaredaga,Nauru,Juniors,M,97.7,100,-270,270,300,300,-165,175,190,190,260,275,-285,275,765,1,SBD,Single-ply
Kenny Wendt,New Caledonia,Open,M,97.9,100,-250,250,-260,250,-190,-190,-190,,,,,,,DQ,SBD,Single-ply
Ofisa Ofisa,Samoa,Open,M,97.6,100,-275,-275,280,280,180,190,200,200,280,-290,-295,280,760,4,SBD,Single-ply
Mataira Teriipaia,Tahiti,Open,M,97.9,100,285,-292.5,-292.5,285,205,212.5,215,215,265,-272.5,-272.5,265,765,3,SBD,Single-ply
Tim Germanchis,Australia,Open,M,99.3,100,277.5,292.5,300,300,190,-200,-200,190,285,292.5,300,300,790,2,SBD,Single-ply
Richard Hozjan,Australia,Open,M,98.8,100,310,-317.5,-322.5,310,-215,215,-225,215,280,-300,-305,280,805,1,SBD,Single-ply
Damien Giles,Australia,Juniors,M,105.9,110,232.5,247.5,252.5,252.5,170,-180,-185,170,270,-292.5,-297.5,270,692.5,1,SBD,Single-ply
Ryan Mitchell,Australia,Open,M,102.2,110,275,285,-290,285,-200,-205,-205,,270,290,300,300,,DQ,SBD,Single-ply
Paul MacManus,Australia,Open,M,108.9,110,270,280,-285,280,-170,-175,175,175,220,245,-260,245,700,3,SBD,Single-ply
Starsky Engar,Nauru,Open,M,103.3,110,-280,285,300,300,200,210,-215,210,240,260,-270,260,770,2,SBD,Single-ply
Tavita Lipine,Samoa,Open,M,103.3,110,-320,-320,320,320,-190,190,-200,190,300,-320,-320,300,810,1,SBD,Single-ply
Matthew Scott,Australia,Juniors,M,115.5,125,-250,260,-270,260,-155,-160,160,160,220,240,-250,240,660,1,SBD,Single-ply
Alexis Sandford,Tahiti,Masters 2,M,121.2,125,-180,180,-210,180,-120,120,-150,120,160,-180,-200,160,460,1,SBD,Single-ply
Steve Lousich,New Zealand,Masters 1,M,114.6,125,260,280,292.5,292.5,-235,240,250,250,220,-230,-235,220,762.5,1,SBD,Single-ply
Con Barbakos,Australia,Open,M,121.1,125,-282.5,-282.5,282.5,282.5,-210,-210,210,210,250,260,265,265,757.5,3,SBD,Single-ply
Jezza Uepa,Nauru,Open,M,123.4,125,270,-295,-295,270,200,215,225,225,260,272.5,285,285,780,2,SBD,Single-ply
Andy Faremiro,Tahiti,Open,M,121.3,125,300,-310,310,310,225,-235,235,235,280,290,-300,290,835,1,SBD,Single-ply
Sinbad Fruean,Samoa,Open,M,172.4,125+,260,280,-300,280,-225,-230,-230,,230,-250,-260,230,,DQ,SBD,Single-ply
David Ronald,Nauru,Open,M,185.3,125+,350,375,385,385,200,210,-230,210,260,-275,-275,260,855,2,SBD,Single-ply
Edwin Tauhiro,Tahiti,Open,M,153.9,125+,290,297.5,320,320,230,-250,-250,230,280,-295,305,305,855,1,SBD,Single-ply
