Division,WeightClassKg,Place,Name,Team,BodyweightKg,Best3SquatKg,Best3BenchKg,Best3DeadliftKg,TotalKg,Equipment,Event,Sex
Junior Varsity,51.71,1,Derion Salter,Jasper,47.17,72.57,43.09,83.91,199.58,Single-ply,SBD,M
Junior Varsity,51.71,2,Jacob Couey,Newton,44,74.84,22.68,79.38,176.9,Single-ply,SBD,M
Junior Varsity,59.87,1,Dakota Jordan,Kirbyville,59.87,102.06,68.04,124.74,294.84,Single-ply,SBD,M
Junior Varsity,59.87,2,Omar Richards,Jasper,59.42,99.79,54.43,124.74,278.96,Single-ply,SBD,M
Junior Varsity,59.87,3,Cody Gillard,Newton,58.97,68.04,43.09,90.72,201.85,Single-ply,SBD,M
Junior Varsity,67.13,1,Bo Woods,Newton,63.5,147.42,81.65,167.83,396.89,Single-ply,SBD,M
Junior Varsity,67.13,2,Jaron Hanks,Newton,64.86,158.76,81.65,149.69,390.09,Single-ply,SBD,M
Junior Varsity,67.13,3,Lawrence Mays,Jasper,65.32,133.81,88.45,149.69,371.95,Single-ply,SBD,M
Junior Varsity,67.13,4,Bobby Bass,Newton,62.6,138.35,83.91,140.61,362.87,Single-ply,SBD,M
Junior Varsity,67.13,5,Dustin Willett,Kirbyville,66.68,133.81,83.91,145.15,362.87,Single-ply,SBD,M
Junior Varsity,67.13,6,Ledale White,Jasper,63.5,136.08,83.91,131.54,351.53,Single-ply,SBD,M
Junior Varsity,67.13,7,Tre Thompson,Jasper,64.86,120.2,83.91,145.15,349.27,Single-ply,SBD,M
Junior Varsity,67.13,8,Dekendrick Houston,Jasper,67.13,120.2,83.91,145.15,349.27,Single-ply,SBD,M
Junior Varsity,67.13,9,Jarvis Horton,Jasper,67.13,115.67,79.38,151.95,347,Single-ply,SBD,M
Junior Varsity,67.13,10,Cadelro Frank,Kirbyville,63.05,127.01,65.77,136.08,328.85,Single-ply,SBD,M
Junior Varsity,67.13,11,Kendale Sidney,Jasper,66.22,92.99,83.91,122.47,299.37,Single-ply,SBD,M
Junior Varsity,67.13,DQ,Daniel Wade #4,Kirbyville,65.32,,,,,Single-ply,SBD,M
Junior Varsity,74.84,1,Doughton Reeves,Buna,69.85,149.69,102.06,172.37,424.11,Single-ply,SBD,M
Junior Varsity,74.84,2,Quinton Williams,Jasper,69.4,145.15,83.91,170.1,399.16,Single-ply,SBD,M
Junior Varsity,74.84,3,Calvin Thomas,Jasper,74.39,149.69,83.91,165.56,399.16,Single-ply,SBD,M
Junior Varsity,74.84,4,Alonzo Simmons,Jasper,72.57,136.08,99.79,156.49,392.36,Single-ply,SBD,M
Junior Varsity,74.84,5,Daniel Adams,Jasper,72.57,113.4,95.25,163.29,371.95,Single-ply,SBD,M
Junior Varsity,74.84,6,Hayden Frederick,Kirbyville,72.12,120.2,77.11,136.08,333.39,Single-ply,SBD,M
Junior Varsity,74.84,7,Cameron Brewster,Kirbyville,72.12,108.86,54.43,117.93,281.23,Single-ply,SBD,M
Junior Varsity,82.1,1,Dalton Phillips,Kirbyville,77.56,161.03,90.72,179.17,430.91,Single-ply,SBD,M
Junior Varsity,82.1,2,Dillon Kroner,Kirbyville,82.1,156.49,95.25,179.17,430.91,Single-ply,SBD,M
Junior Varsity,82.1,3,Deadrian Rawls,Kirbyville,78.93,142.88,97.52,165.56,405.97,Single-ply,SBD,M
Junior Varsity,82.1,4,Devon Brumely,Jasper,81.65,129.27,81.65,136.08,347,Single-ply,SBD,M
Junior Varsity,89.81,1,Blaine Rhodes,Kirbyville,85.73,174.63,99.79,192.78,467.2,Single-ply,SBD,M
Junior Varsity,89.81,2,Cody Mitchell,Jasper,87.09,138.35,102.06,188.24,428.64,Single-ply,SBD,M
Junior Varsity,89.81,3,Keith Long,Kirbyville,89.81,142.88,104.33,161.03,408.23,Single-ply,SBD,M
Junior Varsity,89.81,4,Nethaniel Martinez,Jasper,84.82,142.88,92.99,165.56,401.43,Single-ply,SBD,M
Junior Varsity,99.79,1,Robert Woods,Newton,94.8,174.63,92.99,167.83,435.45,Single-ply,SBD,M
Junior Varsity,99.79,2,Keenan Myers,Newton,92.99,161.03,97.52,131.54,390.09,Single-ply,SBD,M
Junior Varsity,99.79,3,Leonard Wysingle,Jasper,90.72,102.06,58.97,124.74,285.76,Single-ply,SBD,M
Junior Varsity,99.79,4,Bradley Hardin,Jasper,96.62,90.72,68.04,108.86,267.62,Single-ply,SBD,M
Junior Varsity,109.77,1,Jarrod Brooks,Kirbyville,105.69,183.7,99.79,192.78,476.27,Single-ply,SBD,M
Junior Varsity,109.77,2,Zach Fairchild,Kirbyville,104.78,161.03,81.65,145.15,387.82,Single-ply,SBD,M
Junior Varsity,109.77,3,Bobby Rhodes,Kirbyville,109.77,127.01,97.52,149.69,374.21,Single-ply,SBD,M
Junior Varsity,109.77,4,Joshua London,Jasper,109.77,102.06,63.5,124.74,290.3,Single-ply,SBD,M
Junior Varsity,109.77,DQ,Tyler Martin,Kirbyville,100.7,147.42,,,,Single-ply,SBD,M
Junior Varsity,124.74,1,Jason Cochran,Newton,120.2,181.44,81.65,176.9,439.98,Single-ply,SBD,M
Junior Varsity,124.74,2,Emmanuel Hadnot,Jasper,122.47,145.15,92.99,172.37,410.5,Single-ply,SBD,M
Junior Varsity,124.74,3,Cody Cook,Kirbyville,112.49,154.22,90.72,154.22,399.16,Single-ply,SBD,M
Junior Varsity,124.74,4,Michael Matthews,Newton,114.31,151.95,104.33,142.88,399.16,Single-ply,SBD,M
Junior Varsity,124.74,DQ,Caleb Smith,Newton,119.75,147.42,,,,Single-ply,SBD,M
Junior Varsity,124.74+,1,Tyandre Cooper,Kirbyville,131.09,195.04,133.81,192.78,521.63,Single-ply,SBD,M
Junior Varsity,124.74+,2,Trent Smith,Kirbyville,126.1,149.69,113.4,158.76,421.84,Single-ply,SBD,M
Junior Varsity,124.74+,3,Zach Quick,Jasper,138.35,158.76,86.18,163.29,408.23,Single-ply,SBD,M
Boys,51.71,1,Corey Frazier,Jasper,51.71,92.99,61.23,136.08,290.3,Single-ply,SBD,M
Boys,51.71,2,Nahuel Lizardia,Jasper,50.8,97.52,58.97,120.2,276.69,Single-ply,SBD,M
Boys,51.71,3,Alan Cripps,Buna,44.45,81.65,65.77,106.59,254.01,Single-ply,SBD,M
Boys,59.87,1,Gerard Rhodes,Newton,59.42,149.69,68.04,149.69,367.41,Single-ply,SBD,M
Boys,59.87,2,Shannon Davis,Kirbyville,56.7,122.47,77.11,149.69,349.27,Single-ply,SBD,M
Boys,67.13,1,Deroddrick Hadnot,Jasper,64.86,208.65,117.93,208.65,535.24,Single-ply,SBD,M
Boys,67.13,2,Raylin Davis,Newton,66.68,176.9,81.65,170.1,428.64,Single-ply,SBD,M
Boys,67.13,3,Tavioun Fillyaw,Jasper,66.22,151.95,97.52,170.1,419.57,Single-ply,SBD,M
Boys,74.84,1,Jace Thomas,Newton,74.84,210.92,133.81,235.87,580.6,Single-ply,SBD,M
Boys,74.84,2,Matthew Peveto,Newton,74.84,145.15,70.31,185.97,401.43,Single-ply,SBD,M
Boys,74.84,3,Jordan Holsonback,Kirbyville,70.31,136.08,86.18,151.95,374.21,Single-ply,SBD,M
Boys,74.84,DQ,Tyler Ebner,Kirbyville,70.31,138.35,,,,Single-ply,SBD,M
Boys,82.1,1,Bradley Arnold,Buna,81.65,167.83,136.08,219.99,523.9,Single-ply,SBD,M
Boys,82.1,2,John Kirbow,Kirbyville,82.1,174.63,99.79,185.97,460.4,Single-ply,SBD,M
Boys,89.81,1,Chedrick Hanks,Newton,88.45,204.12,131.54,217.72,553.38,Single-ply,SBD,M
Boys,99.79,1,Terrence Cuney,Jasper,97.98,254.01,163.29,240.4,657.71,Single-ply,SBD,M
Boys,99.79,2,DeAnthony Cuney,Jasper,99.79,226.8,158.76,226.8,612.35,Single-ply,SBD,M
Boys,99.79,3,Nick Rhame,Buna,99.34,217.72,140.61,199.58,557.92,Single-ply,SBD,M
Boys,99.79,4,Trea'Von Davis,Newton,93.44,204.12,127.01,183.7,514.83,Single-ply,SBD,M
Boys,99.79,5,Isiah Myers,Newton,93.44,158.76,113.4,204.12,476.27,Single-ply,SBD,M
Boys,99.79,6,Daylen Nichols,Kirbyville,98.88,190.51,106.59,158.76,455.86,Single-ply,SBD,M
Boys,109.77,1,Shawn Jones,Jasper,102.06,251.74,136.08,247.21,635.03,Single-ply,SBD,M
Boys,109.77,2,Kevin Houston,Jasper,103.42,217.72,136.08,204.12,557.92,Single-ply,SBD,M
Boys,109.77,3,Anthony Orr-Wade,Jasper,107.95,201.85,138.35,208.65,548.85,Single-ply,SBD,M
Boys,109.77,4,William Simmons,Newton,101.15,183.7,92.99,192.78,469.47,Single-ply,SBD,M
Boys,124.74,1,Dave Lewis,Newton,115.67,238.14,145.15,195.04,578.33,Single-ply,SBD,M
Boys,124.74,2,Terrell Cuney,Jasper,117.93,199.58,113.4,231.33,544.31,Single-ply,SBD,M
Boys,124.74,3,Brent Simmons,Newton,124.74,190.51,86.18,192.78,469.47,Single-ply,SBD,M
Boys,124.74,4,Jordan Garms,Buna,111.58,170.1,79.38,170.1,419.57,Single-ply,SBD,M
Boys,124.74+,1,Lincoln Herrington,Newton,132,190.51,102.06,158.76,451.32,Single-ply,SBD,M
Boys,124.74+,DQ,Ryan Ford,Kirbyville,125.19,158.76,95.25,,,Single-ply,SBD,M
Boys,124.74+,DQ,Ethan Cole,Kirbyville,137.89,142.88,79.38,,,Single-ply,SBD,M
Boys,124.74+,DQ,Ashton Limbrick,Jasper,129.27,258.55,,,,Single-ply,SBD,M
