Sex,WeightClassKg,BodyweightKg,Name,Age,Division,Equipment,Squat1Kg,Squat2Kg,Squat3Kg,Best3SquatKg,Bench1Kg,Bench2Kg,Bench3Kg,Best3BenchKg,Deadlift1Kg,Deadlift2Kg,Deadlift3Kg,Best3DeadliftKg,TotalKg,Event,Place
F,48,46.2,Kristi Polizzano,16,FR-O,Raw,60,72.5,-77.5,72.5,45,-52.5,-52.5,45,92.5,102.5,-117.5,102.5,220,SBD,1
F,48,46.2,Kristi Polizzano,16,FR-V,Raw,60,72.5,-77.5,72.5,45,-52.5,-52.5,45,92.5,102.5,-117.5,102.5,220,SBD,1
F,48,46.9,Diana Solash,38,FR-O,Raw,77.5,-80,-80,77.5,45,47.5,-50,47.5,85,-87.5,-87.5,85,210,SBD,2
F,52,51,Tammy Cutrona,43,F-O,Single-ply,80,92.5,97.5,97.5,-65,65,70,70,112.5,120,127.5,127.5,295,SBD,1
F,52,51,Tammy Cutrona,43,F-M1,Single-ply,80,92.5,97.5,97.5,-65,65,70,70,112.5,120,127.5,127.5,295,SBD,1
F,52,50.6,Shelbie Jones,18,F-V,Single-ply,-62.5,67.5,-72.5,67.5,35,37.5,-40,37.5,85,92.5,-97.5,92.5,197.5,SBD,1
F,52,50.6,Theresa Jesinger,28,FR-O,Raw,62.5,67.5,-72.5,67.5,45,52.5,57.5,57.5,70,82.5,92.5,92.5,217.5,SBD,1
F,56,52.6,Jenna Hardy,15,F-JV,Single-ply,65,67.5,-72.5,67.5,42.5,47.5,-50,47.5,87.5,92.5,97.5,97.5,212.5,SBD,1
F,56,55.2,Natalie Gulla,19,F-C,Single-ply,-67.5,70,-72.5,70,37.5,40,-42.5,40,82.5,92.5,-102.5,92.5,202.5,SBD,1
F,60,58.2,Jacqueline Teman,24,F-O,Single-ply,112.5,-120,-140,112.5,-55,57.5,-62.5,57.5,125,140,147.5,147.5,317.5,SBD,1
F,60,57.4,Tiffany Hammond,17,F-V,Single-ply,82.5,92.5,97.5,97.5,50,-52.5,-52.5,50,107.5,110,117.5,117.5,265,SBD,1
F,60,58.8,Anne Marie Kammerer,55,F-M2,Single-ply,60,67.5,-75,67.5,50,-52.5,-52.5,50,100,105,110,110,227.5,SBD,1
F,60,57.4,Kori Harris,33,FR-O,Raw,60,65,-70,65,52.5,-57.5,-57.5,52.5,95,105,112.5,112.5,230,SBD,1
F,67.5,67,Gail Moore,62,F-O,Single-ply,120,132.5,-140,132.5,75,80,-85,80,127.5,135,142.5,142.5,355,SBD,1
F,67.5,65.9,Nicole Eick,24,F-O,Single-ply,67.5,-75,77.5,77.5,37.5,42.5,45,45,102.5,112.5,117.5,117.5,240,SBD,2
F,67.5,66.6,Elizabeth Leon,29,F-O,Single-ply,75,-82.5,85,85,45,47.5,-52.5,47.5,95,102.5,107.5,107.5,240,SBD,3
F,67.5,65.2,Tina Crawford,44,F-M1,Single-ply,75,80,82.5,82.5,47.5,50,52.5,52.5,115,122.5,127.5,127.5,262.5,SBD,1
F,67.5,62.7,Christine Keisling,53,F-M2,Single-ply,-30,-30,30,30,30,35,-40,35,35,45,55,55,120,SBD,1
F,67.5,62.8,Marjorie Conte,72,F-M4,Single-ply,57.5,62.5,67.5,67.5,52.5,-60,-60,52.5,80,92.5,-95,92.5,212.5,SBD,1
F,67.5,61.8,Jessica Kratz,36,FR-O,Raw,100,110,117.5,117.5,55,65,-72.5,65,130,140,145,145,327.5,SBD,1
F,75,74.9,Cydney Smith,38,F-O,Single-ply,167.5,177.5,-185,177.5,112.5,120,-125,120,170,182.5,185,185,482.5,SBD,1
F,75,74.8,Maureen Tierney,43,FR-O,Raw,62.5,70,75,75,35,40,-42.5,40,90,105,-110,105,220,SBD,1
F,82.5,79.8,Barbara Chaszczewicz,44,FR-O,Raw,82.5,87.5,97.5,97.5,42.5,45,47.5,47.5,127.5,135,-142.5,135,280,SBD,1
F,90+,118.4,Jessica Marhsall,58,F-M2,Single-ply,-45,-45,45,45,-45,-45,-45,,82.5,87.5,95,95,,SBD,DQ
M,56,55.8,Dillon Walker,16,M-O,Single-ply,95,100,-107.5,100,57.5,62.5,-65,62.5,142.5,152.5,-165,152.5,315,SBD,1
M,56,55.8,Dillon Walker,16,M-T2,Single-ply,95,100,-107.5,100,57.5,62.5,-65,62.5,142.5,152.5,-165,152.5,315,SBD,1
M,56,54.7,Zane Swanger,17,M-T2,Single-ply,92.5,97.5,-102.5,97.5,52.5,55,57.5,57.5,140,145,-147.5,145,300,SBD,2
M,56,54.7,Zane Swanger,17,M-T2,Single-ply,92.5,97.5,-102.5,97.5,52.5,55,57.5,57.5,140,145,-147.5,145,300,SBD,1
M,60,59.8,Michael Kuhns,23,M-O,Single-ply,260,275,,275,195,205,-207.5,205,160,175,182.5,182.5,662.5,SBD,1
M,60,59.3,Tim Borgia,47,M-O,Single-ply,155,165,172.5,172.5,112.5,-120,-120,112.5,182.5,-200,-200,182.5,467.5,SBD,2
M,67.5,66.5,Mark Turner,20,M-O,Single-ply,200,217.5,230,230,140,-150,150,150,192.5,207.5,220,220,600,SBD,1
M,67.5,66.8,Michael Santiago,36,M-O,Single-ply,152.5,165,177.5,177.5,142.5,-152.5,-152.5,142.5,207.5,215,-225,215,535,SBD,2
M,67.5,67.4,Michael Stencler,17,M-T2,Single-ply,132.5,-140,-140,132.5,110,115,117.5,117.5,185,190,-195,190,440,SBD,1
M,67.5,66.5,Mark Turner,20,M-Jr,Single-ply,200,217.5,230,230,140,-150,150,150,192.5,207.5,220,220,600,SBD,1
M,67.5,62.5,Lee Fredericks,23,MR-Jr,Raw,125,137.5,-147.5,137.5,102.5,110,-115,110,160,175,182.5,182.5,430,SBD,2
M,67.5,66.2,Robert Polizzano,50,MR-M2,Raw,102.5,115,-122.5,115,110,-120,-120,110,125,140,150,150,375,SBD,1
M,67.5,65.8,Jack Wolff,71,M-M4,Single-ply,115,130,140,140,72.5,77.5,,77.5,175,187.5,-192.5,187.5,405,SBD,1
M,67.5,67,Richard Nolan,83,M-M5,Single-ply,60,67.5,70,70,55,60,62.5,62.5,110,117.5,122.5,122.5,255,SBD,1
M,67.5,62.5,Lee Fredericks,23,MR-O,Raw,125,137.5,-147.5,137.5,102.5,110,-115,110,160,175,182.5,182.5,430,SBD,1
M,67.5,66.2,Robert Polizzano,50,MR-O,Raw,102.5,115,-122.5,115,110,-120,-120,110,125,140,150,150,375,SBD,2
M,67.5,66.8,Michael Santiago,36,M-PFM,Single-ply,152.5,165,177.5,177.5,142.5,-152.5,-152.5,142.5,207.5,215,-225,215,535,SBD,1
F,48,,Emily Moon,19,F-O,Single-ply,,,,,,,,,,,,,,SBD,NS
F,56,,Judy Greener,55,F-M2,Single-ply,,,,,,,,,,,,,,SBD,NS
M,75,74.1,Daniel Gkelbretzadick,26,M-O,Single-ply,-200,-200,200,200,142.5,150,-155,150,185,202.5,210,210,560,SBD,1
M,75,74.5,Frank Caine,55,M-O,Single-ply,190,205,215,215,107.5,137.5,-142.5,137.5,195,-205,-210,195,547.5,SBD,2
M,75,72,Joshua Stender,15,M-JV,Single-ply,102.5,110,115,115,80,82.5,-85,82.5,127.5,142.5,147.5,147.5,345,SBD,1
M,75,71,Evan Swanger,14,M-JV,Single-ply,97.5,105,110,110,52.5,55,57.5,57.5,102.5,107.5,110,110,277.5,SBD,2
M,75,71,Evan Swanger,14,M-T1,Single-ply,97.5,105,110,110,52.5,55,57.5,57.5,102.5,107.5,110,110,277.5,SBD,1
M,75,74.9,Tim Corcoran,21,M-Jr,Single-ply,-192.5,207.5,217.5,217.5,100,-115,115,115,200,-217.5,-227.5,200,532.5,SBD,1
M,75,74.6,Nick Theodorou,58,MR-M2,Raw,160,172.5,-185,172.5,50,62.5,,62.5,217.5,237.5,-252.5,237.5,472.5,SBD,1
M,75,74.9,John Dalessio,41,MR-O,Raw,170,182.5,190,190,130,140,145,145,190,210,230,230,565,SBD,1
M,75,73.5,Michael Cagliola,39,MR-O,Raw,180,190,-200,190,137.5,145,-155,145,195,205,215,215,550,SBD,2
M,75,74.6,Nick Theodorou,58,MR-O,Raw,160,172.5,-185,172.5,50,62.5,,62.5,217.5,237.5,-252.5,237.5,472.5,SBD,3
M,75,73.9,Ian Wylie,26,MR-O,Raw,-175,-182.5,-182.5,,,,,,,,,,,SBD,DQ
M,75,74.9,Jason Sookhoo,21,M-C,Single-ply,157.5,167.5,180,180,110,122.5,130,130,202.5,217.5,-230,217.5,527.5,SBD,1
M,82.5,82.5,Darren Nemow,35,M-O,Single-ply,255,280,-282.5,280,175,-182.5,182.5,182.5,275,295,-297.5,295,757.5,SBD,1
M,82.5,82.2,Bobby DeMeck,21,M-O,Single-ply,237.5,257.5,-260,257.5,150,155,157.5,157.5,237.5,250,257.5,257.5,672.5,SBD,2
M,82.5,81.4,John Powell,26,M-O,Single-ply,-160,160,-182.5,160,115,125,132.5,132.5,182.5,192.5,-200,192.5,485,SBD,3
M,82.5,82.3,Claudio Lora,56,M-O,Single-ply,137.5,155,182.5,182.5,137.5,145,147.5,147.5,137.5,150,155,155,485,SBD,4
M,82.5,78.9,Martin Arters,31,M-O,Single-ply,-227.5,-227.5,-227.5,,,,,,,,,,,SBD,DQ
M,82.5,79.2,David Doyle,16,M-JV,Single-ply,120,130,142.5,142.5,90,92.5,95,95,142.5,152.5,160,160,397.5,SBD,1
M,82.5,78.6,David Steeley,17,M-V,Single-ply,102.5,110,115,115,92.5,97.5,-102.5,97.5,147.5,175,185,185,397.5,SBD,1
M,82.5,80.5,Michael Giaquinto,19,M-T3,Single-ply,227.5,237.5,-247.4,237.5,132.5,-140,-140,132.5,237.5,-265,-265,237.5,607.5,SBD,1
M,82.5,81.1,Shane Avender,18,M-T3,Single-ply,135,140,145,145,125,-127.5,,125,182.5,190,-197.5,190,460,SBD,2
M,82.5,82.2,Bobby DeMeck,21,M-Jr,Single-ply,237.5,257.5,-260,257.5,150,155,157.5,157.5,237.5,250,257.5,257.5,672.5,SBD,1
M,82.5,82.2,David Jensen,20,M-Jr,Single-ply,125,142.5,-152.5,142.5,77.5,82.5,87.5,87.5,142.5,157.5,167.5,167.5,397.5,SBD,2
M,82.5,82.3,Claudio Lora,56,M-M2,Single-ply,137.5,155,182.5,182.5,137.5,145,147.5,147.5,137.5,150,155,155,485,SBD,1
M,82.5,76,Jack Weiss,82,M-M5,Single-ply,60,65,-70,65,45,52.5,-57.5,52.5,120,130,137.5,137.5,255,SBD,1
M,82.5,80.7,Joe Braca,46,MR-O,Raw,202.5,220,,220,127.5,137.5,-145,137.5,275,-300,-300,275,632.5,SBD,1
M,82.5,77.3,Steven Nonemake,20,MR-O,Raw,175,-187.5,187.5,187.5,110,122.5,125,125,-175,175,187.5,187.5,500,SBD,2
M,82.5,77.7,Ameya Joshi,21,MR-O,Raw,-125,142.5,-155,142.5,85,-97.5,-97.5,85,185,-207.5,207.5,207.5,435,SBD,3
M,82.5,81.8,Siraaj Khandkar,29,MR-O,Raw,-185,-185,-185,,,,,,,,,,,SBD,DQ
M,90,89.4,Anthony Parrella,26,M-O,Single-ply,-277.5,277.5,295,295,205,-215,215,215,272.5,307.5,-310,307.5,817.5,SBD,1
M,90,89.8,Anthony Scolaro,28,M-O,Single-ply,300,-312.5,-312.5,300,202.5,-212.5,-212.5,202.5,287.5,305,-317.5,305,807.5,SBD,2
M,90,89.9,Ty Wagerle,33,M-O,Single-ply,235,252.5,-260,252.5,170,177.5,-185,177.5,242.5,260,-267.5,260,690,SBD,3
M,90,89.2,Dan Heaney,36,M-O,Single-ply,192.5,202.5,215,215,147.5,-155,155,155,235,252.5,262.5,262.5,632.5,SBD,4
M,90,89.6,Scott Davenport,36,M-O,Single-ply,202.5,207.5,210,210,-175,-177.5,177.5,177.5,232.5,242.5,-250,242.5,630,SBD,5
M,90,86.3,Adrian Ward,33,M-O,Single-ply,-170,170,187.5,187.5,-185,-185,-185,,192.5,210,-220,210,,SBD,DQ
M,90,89.8,Michael Stillitano,17,M-T2,Single-ply,142.5,162.5,-175,162.5,132.5,-142.5,-142.5,132.5,190,205,227.5,227.5,522.5,SBD,1
M,90,87.5,Joshua Rammel,16,M-T2,Single-ply,150,-167.5,-167.5,150,102.5,117.5,-125,117.5,150,175,-187.5,175,442.5,SBD,2
M,90,88.5,John Rocco,16,M-T2,Single-ply,142.5,-157.5,-157.5,142.5,107.5,115,-117.5,115,165,170,175,175,432.5,SBD,3
M,90,89,John Schalkham,19,M-T3,Single-ply,162.5,177.5,185,185,115,122.5,125,125,170,185,200,200,510,SBD,1
M,90,90,Joe Tagliarino,22,M-Jr,Single-ply,142.5,160,-175,160,-150,160,162.5,162.5,192.5,217.5,227.5,227.5,550,SBD,1
M,90,85.4,Dave Burke,21,M-Jr,Single-ply,152.5,170,-182.5,170,25,47.5,-65,47.5,197.5,-217.5,-217.5,197.5,415,SBD,2
M,90,89,Ron Falcone,47,M-M1,Single-ply,227.5,242.5,250,250,175,185,-190,185,182.5,200,207.5,207.5,642.5,SBD,1
M,90,88.8,Dave Ernst,53,M-M2,Single-ply,227.5,-240,240,240,130,137.5,-145,137.5,250,262.5,-272.5,262.5,640,SBD,2
M,90,88.1,Joseph Knespler,55,M-M2,Single-ply,-185,-185,-185,,,,,,,,,,,SBD,DQ
M,90,89.5,Kris Semon,29,MR-O,Raw,205,-212.5,217.5,217.5,155,165,-170,165,232.5,245,-255,245,627.5,SBD,1
M,90,89,Brian Dimattia,28,MR-O,Raw,110,127.5,137.5,137.5,110,117.5,122.5,122.5,170,195,-200,195,455,SBD,2
M,90,89.6,Scott Davenport,36,M-PFM,Single-ply,202.5,207.5,210,210,-175,-177.5,177.5,177.5,232.5,242.5,-250,242.5,630,SBD,1
M,90,85.1,Ed Figelow,25,M-PL,Single-ply,42.5,62.5,80,80,42.5,45,-47.5,45,85,115,-135,115,240,SBD,1
M,75,,Robert Barreca,54,M-M2,Single-ply,,,,,,,,,,,,,,SBD,NS
M,75,,Charlie Giercyk,20,MR-O,Raw,,,,,,,,,,,,,,SBD,NS
M,100,98.2,Greg Jones,48,M-O,Single-ply,290,300,-320.5,300,147.5,-212.5,228,228,272.5,-292.5,-292.5,272.5,800.5,SBD,1
M,100,99.6,Tom Getzinger,36,M-O,Single-ply,-237.5,247.5,-252.5,247.5,205,-210,-210,205,250,272.5,282.5,282.5,735,SBD,2
M,100,98.5,Jere Hess,26,M-O,Single-ply,255,272.5,277.5,277.5,180,187.5,192.5,192.5,245,-257.5,-257.5,245,715,SBD,3
M,100,97.1,Erick Aguilar,23,M-O,Single-ply,245,262.5,-272.5,262.5,162.5,-175,-175,162.5,-245,260,-272.5,260,685,SBD,4
M,100,96.9,Evan Aguilar,17,M-O,Single-ply,-227.5,-237.5,237.5,237.5,152.5,-162.5,-162.5,152.5,200,207.5,-215,207.5,597.5,SBD,5
M,100,94,Joseph Harris,24,M-O,Single-ply,-165,177.5,-185,177.5,122.5,132.5,137.5,137.5,202.5,215,225,225,540,SBD,6
M,100,91.6,Dennis Cieri,40,M-O,Single-ply,65,,,65,272.5,-293,-293,272.5,100,150,-200,150,487.5,SBD,7
M,100,94.2,Stefan Krause,15,M-T1,Single-ply,142.5,147.5,152.5,152.5,72.5,77.5,-82.5,77.5,170,180,187.5,187.5,417.5,SBD,1
M,100,93.4,Andy Feldman,14,M-T1,Single-ply,-147.5,147.5,162.5,162.5,-77.5,77.5,80,80,147.5,165,-175,165,407.5,SBD,2
M,100,96.9,Evan Aguilar,17,M-T2,Single-ply,-227.5,-237.5,237.5,237.5,152.5,-162.5,-162.5,152.5,200,207.5,-215,207.5,597.5,SBD,1
M,100,97.1,Erick Aguilar,23,M-Jr,Single-ply,245,262.5,-272.5,262.5,162.5,-175,-175,162.5,-245,260,-272.5,260,685,SBD,4
M,100,95,Ben Esgro,23,MR-Jr,Raw,175,192.5,207.5,207.5,110,120,-127.5,120,227.5,-255,255,255,582.5,SBD,2
M,100,98.3,Mike Barcelone,43,M-M1,Single-ply,235,245,255,255,195,-202.5,202.5,202.5,235,245,-255,245,702.5,SBD,1
M,100,98.3,Frank Ocasio,41,M-M1,Single-ply,190,205,-215,205,145,150,157.5,157.5,182.5,205,232.5,232.5,595,SBD,2
M,100,91.6,Dennis Cieri,40,M-M1,Single-ply,65,,,65,272.5,-293,-293,272.5,100,150,-200,150,487.5,SBD,3
M,100,90.3,Kent Jensen,49,M-M1,Single-ply,100,110,-125,110,100,-112.5,-112.5,100,130,150,-160,150,360,SBD,4
M,100,97.4,Anthony Cortino,63,MR-M3,Raw,-102.5,-102.5,-102.5,,-102.5,-102.5,102.5,102.5,175,185,-192.5,185,,SBD,DQ
M,100,97.7,Stan Chatis,72,M-M4,Single-ply,147.5,-167.5,167.5,167.5,-135,-135,-135,,195,212.5,-222.5,212.5,,SBD,DQ
M,100,99.9,John Lawrence,26,MR-O,Raw,185,195,215,215,137.5,145,150,150,227.5,242.5,257.5,257.5,622.5,SBD,1
M,100,95,Ben Esgro,23,MR-O,Raw,175,192.5,207.5,207.5,110,120,-127.5,120,227.5,-255,255,255,582.5,SBD,2
M,100,97.4,Anthony Cortino,63,MR-O,Raw,-102.5,-102.5,-102.5,,-102.5,-102.5,102.5,102.5,175,185,-192.5,185,,SBD,DQ
M,100,99.6,Tom Getzinger,36,M-PFM,Single-ply,-237.5,247.5,-252.5,247.5,205,-210,-210,205,250,272.5,282.5,282.5,735,SBD,1
M,110,108.2,Randy Bocaowski,28,M-O,Single-ply,250,-270,-270,250,200,-210,-210,200,227.5,240,-250,240,690,SBD,1
M,110,108.3,Dennis Chervenak,60,M-O,Single-ply,135,150,160,160,75,85,92.5,92.5,165,182.5,202.5,202.5,455,SBD,2
M,110,102.9,Sterling Kammerer,17,M-T2,Single-ply,142.5,150,157.5,157.5,105,110,115,115,185,190,192.5,192.5,465,SBD,1
M,110,105.1,Patrick Lynch,21,MR-Jr,Raw,190,207.5,215,215,140,150,-157.5,150,250,265,270,270,635,SBD,1
M,110,107.6,Seth Peters,21,M-Jr,Single-ply,162.5,175,185,185,100,105,-112.5,105,205,220,227.5,227.5,517.5,SBD,2
M,110,103.4,Adam Gerbert,28,M-C,Single-ply,180,192.5,212.5,212.5,-127.5,-137.5,147.5,147.5,182.5,205,-230,205,565,SBD,1
M,110,106.4,Paul Dilberto,48,MR-M1,Raw,185,205,210,210,160,175,-180,175,197.5,215,222.5,222.5,607.5,SBD,1
M,110,100.5,Michael Hickey,58,M-M2,Single-ply,-127.5,127.5,137.5,137.5,97.5,-102.5,-102.5,97.5,155,162.5,-175,162.5,397.5,SBD,1
M,110,108.3,Dennis Chervenak,60,M-M3,Single-ply,135,150,160,160,75,85,92.5,92.5,165,182.5,202.5,202.5,455,SBD,1
M,110,108.9,Tyrone Roper,35,MR-O,Raw,227.5,-242.5,-242.5,227.5,185,190,-192.5,190,227.5,252.5,272.5,272.5,690,SBD,1
M,110,107.2,Ed Kutin,47,MR-O,Raw,192.5,207.5,-215,207.5,152.5,162.5,-167.5,162.5,247.5,270,,270,640,SBD,2
M,110,105.1,Patrick Lynch,21,MR-O,Raw,190,207.5,215,215,140,150,-157.5,150,250,265,270,270,635,SBD,3
M,110,106.4,Paul Dilberto,48,MR-O,Raw,185,205,210,210,160,175,-180,175,197.5,215,222.5,222.5,607.5,SBD,4
M,110,103.5,Jared Keisling,24,MR-O,Raw,182.5,192.5,205,205,137.5,147.5,-155,147.5,182.5,197.5,212.5,212.5,565,SBD,5
M,125,110.5,Steve Mann,34,M-O,Single-ply,327.5,360,367.5,367.5,240,255,262.5,262.5,282.5,297.5,302.5,302.5,932.5,SBD,1
M,125,115.8,David Balsdon,23,M-O,Single-ply,302.5,312.5,320,320,-215,220,-227.5,220,265,285,-292.5,285,825,SBD,2
M,125,112.8,Pat Johnson,38,M-O,Single-ply,-295,295,320,320,207.5,227.5,-237.5,227.5,265,275,-285,275,822.5,SBD,3
M,125,114.2,Matthew Clark,43,M-O,Single-ply,285,295,305,305,220,230,-237.5,230,227.5,255,-262.5,255,790,SBD,4
M,125,113.3,Carlos Rocco,29,M-O,Single-ply,-160,160,175,175,142.5,147.5,150,150,205,222.5,230,230,555,SBD,5
M,125,119.1,Levi Perillo,19,M-T3,Single-ply,-245,-250,260,260,237.5,-240,-240,237.5,245,252.5,-260,252.5,750,SBD,1
M,125,114.2,Matthew Clark,43,M-M1,Single-ply,285,295,305,305,220,230,-237.5,230,227.5,255,-262.5,255,790,SBD,1
M,125,118,Domenick Fonio,47,M-M1,Single-ply,-227.5,-227.5,-227.5,,,,,,,,,,,SBD,DQ
M,125,110.6,Melvin Cochran,66,M-M3,Single-ply,-137.5,137.5,142.5,142.5,-105,105,-107.5,105,165,175,-182.5,175,422.5,SBD,1
M,125,117.2,Ray Ebner,45,MR-O,Raw,250,265.5,-272.5,265.5,167.5,177.5,-182.5,177.5,250,267.5,,267.5,710.5,SBD,1
M,125,112.5,Brad Harris,32,MR-O,Raw,192.5,205,217.5,217.5,137.5,150,155,155,215,230,240,240,612.5,SBD,2
M,125,111.6,Kevin Mosley,25,MR-O,Raw,142.5,182.5,-197.5,182.5,-112.5,125,-130,125,142.5,217.5,227.5,227.5,535,SBD,3
M,125+,143.1,Dennis Hulslander,38,M-O,Single-ply,320,325,327.5,327.5,-277.5,277.5,-282.5,277.5,300,320,-322.5,320,925,SBD,1
M,125+,133.8,Jim Weiss,47,M-O,Single-ply,282.5,320,-342.5,320,165,-172.5,-172.5,165,272.5,297.5,-307.5,297.5,782.5,SBD,2
M,125+,133.8,Jim Weiss,47,M-M1,Single-ply,282.5,320,-342.5,320,165,-172.5,-172.5,165,272.5,297.5,-307.5,297.5,782.5,SBD,2
M,,,Travis Decker,21,M-Jr,Single-ply,,,,,,,,,,,,,,SBD,NS
F,48,46.2,Kristi Polizzano,16,FR-O,Raw,,,,,45,-52.5,-52.5,45,,,,,45,B,1
M,52,51.8,Jay White,17,MR-O,Raw,,,,,60,70,-77.5,70,,,,,70,B,1
M,56,54,Tyler Whipple,16,M-T2,Single-ply,,,,,102.5,112.5,120,120,,,,,120,B,1
M,56,54,Tyler Whipple,16,M-O,Single-ply,,,,,102.5,112.5,120,120,,,,,120,B,1
M,60,59.3,Tim Borgia,47,M-O,Single-ply,,,,,112.5,-120,-120,112.5,,,,,112.5,B,1
M,60,59.7,Ryan Erfer,17,MR-O,Raw,,,,,95,-102.5,-102.5,95,,,,,95,B,1
M,60,59.7,Ryan Erfer,17,MR-V,Raw,,,,,95,-102.5,-102.5,95,,,,,95,B,1
M,60,59.7,Ryan Erfer,17,MR-T2,Raw,,,,,95,-102.5,-102.5,95,,,,,95,B,1
M,60,59.3,John Oliver,18,M-T3,Single-ply,,,,,50,60,62.5,62.5,,,,,62.5,B,1
M,60,59.5,Victor Aybar,45,M-M1,Single-ply,,,,,90,95,-100,95,,,,,95,B,1
M,67.5,66.8,Michael Santiago,36,M-O,Single-ply,,,,,142.5,-152.5,-152.5,142.5,,,,,142.5,B,1
M,67.5,67.2,Corey Snow,16,M-T2,Single-ply,,,,,80,90,-92.5,90,,,,,90,B,1
M,67.5,66.2,Robert Polizzano,50,M-M2,Single-ply,,,,,110,-120,-120,110,,,,,110,B,1
M,75,74.2,Mark Salandra,47,MR-O,Raw,,,,,97.5,102.5,107.5,107.5,,,,,107.5,B,1
M,75,71,Nick DeAnne,17,M-T2,Single-ply,,,,,117.5,130,132.5,132.5,,,,,132.5,B,1
M,75,71.6,Derek Stocker,18,M-T3,Single-ply,,,,,80,90,97.5,97.5,,,,,97.5,B,1
M,75,74.2,Mark Salandra,47,MR-M1,Raw,,,,,97.5,102.5,107.5,107.5,,,,,107.5,B,1
M,82.5,82.1,Adam Mamola,31,M-O,Single-ply,,,,,-267.5,270,-272.5,270,,,,,270,B,1
M,82.5,81.8,David Macey,16,M-T2,Single-ply,,,,,102.5,115,122.5,122.5,,,,,122.5,B,1
M,82.5,76.2,Alan Smith,60,M-M3,Single-ply,,,,,100,105,,105,,,,,105,B,1
M,82.5,81.1,Ronald Hill,71,M-M4,Single-ply,,,,,112.5,-125,-125,112.5,,,,,112.5,B,1
M,90,89.4,Pete Grohoski,39,M-O,Single-ply,,,,,-232.5,-232.5,232.5,232.5,,,,,232.5,B,1
M,90,89.9,Ty Wagerle,33,M-O,Single-ply,,,,,170,177.5,-185,177.5,,,,,177.5,B,2
M,90,86.3,Adrian Ward,33,M-O,Single-ply,,,,,-185,-185,-185,,,,,,,B,DQ
M,90,89.3,Michael Stillitano,17,M-T2,Single-ply,,,,,132.5,-142.5,-142.5,132.5,,,,,132.5,B,1
M,90,88.1,Jeffrey McDaniel,28,MR-O,Raw,,,,,170,182.5,-192.5,182.5,,,,,182.5,B,1
M,90,85.5,Andrew Halko,31,MR-O,Raw,,,,,165,172.5,-182.5,172.5,,,,,172.5,B,2
M,90,88.2,Adam Wright,33,MR-O,Raw,,,,,102.5,-125,135,135,,,,,135,B,3
M,100,91.6,Dennis Cieri,40,M-M1,Single-ply,,,,,272.5,-293,-293,272.5,,,,,272.5,B,1
M,100,94.3,Mike Williams,19,MR-O,Raw,,,,,162.5,175,-180,175,,,,,175,B,1
M,100,96.9,Evan Aguilar,17,M-T2,Single-ply,,,,,152.5,-162.5,-162.5,152.5,,,,,152.5,B,1
M,100,94.3,Mike Williams,19,MR-T3,Raw,,,,,162.5,175,-180,175,,,,,175,B,1
M,100,97.1,Erick Aguilar,23,M-Jr,Single-ply,,,,,162.5,-175,-175,162.5,,,,,162.5,B,1
M,100,94.3,Mike Williams,19,MR-C,Raw,,,,,162.5,175,-180,175,,,,,175,B,1
M,100,99.9,Joe Hirsch,45,M-M1,Single-ply,,,,,-195,-195,195,195,,,,,195,B,1
M,100,93.3,Warren Petrucci,60,M-M3,Single-ply,,,,,142.5,147.5,150,150,,,,,150,B,1
M,100,97.4,Anthony Cortino,63,M-M3,Single-ply,,,,,-102.5,-102.5,102.5,102.5,,,,,102.5,B,2
M,110,106.1,Robert Eckhart,36,M-O,Single-ply,,,,,-215,-215,215,215,,,,,215,B,1
M,110,107.3,John Franks,33,MR-O,Raw,,,,,200,205,207.5,207.5,,,,,207.5,B,1
M,110,100.7,Charles King,58,M-PL,Single-ply,,,,,107.5,115,122.5,122.5,,,,,122.5,B,1
M,125,123.8,John Bogart,38,M-O,Single-ply,,,,,320,-330,-330,320,,,,,320,B,1
M,125,124.1,Wayne Droesser,37,M-O,Single-ply,,,,,-215,227.5,240,240,,,,,240,B,2
M,125,115.1,Kevin Scott,38,M-O,Single-ply,,,,,175,-182.5,-182.5,175,,,,,175,B,3
M,125,119.1,Levi Perillo,19,M-T3,Single-ply,,,,,237.5,-240,-240,237.5,,,,,237.5,B,1
M,125,115.1,Kevin Scott,38,M-C,Single-ply,,,,,175,-182.5,-182.5,175,,,,,175,B,1
M,125,119.7,Michael Traub,27,MR-O,Raw,,,,,202.5,210,-220,210,,,,,210,B,1
M,125,119.6,Michael Briehler,25,MR-O,Raw,,,,,190,200,-205,200,,,,,200,B,2
M,125+,136.5,Kevin Johnson,54,M-M2,Single-ply,,,,,252.5,262.5,-272.5,262.5,,,,,262.5,B,1
M,125+,132.5,Bill Igoe,52,M-M2,Single-ply,,,,,-155,-165,-165,,,,,,,B,DQ
M,110,100.7,Charles King,59,M-PL,Single-ply,,,,,107.5,115,122.5,122.5,125,135,140,140,262.5,BD,1
M,75,,James Whetherill,17,M-T2,Single-ply,,,,,,,,,,,,,,B,NS
M,75,,Scott Rosen,18,M-T3,Single-ply,,,,,,,,,,,,,,B,NS
