Division,WeightClassKg,Place,Name,Team,BodyweightKg,Best3SquatKg,Best3BenchKg,Best3DeadliftKg,TotalKg,Equipment,Event,Sex
Boys,51.71,1,Alex Barrones,Brownsville Lopez,51.35,117.93,74.84,163.29,356.07,Single-ply,SBD,M
Boys,55.79,2,Jose Quintero,Brownsville Lopez,51.85,120.2,79.38,140.61,340.19,Single-ply,SBD,M
Boys,51.71,3,Alex Aguilar,Brownsville Pace,51.71,124.74,70.31,142.88,337.93,Single-ply,SBD,M
Boys,51.71,4,Leo Alanis,Brownsville Lopez,51.3,111.13,74.84,133.81,319.78,Single-ply,SBD,M
Boys,59.87,1,Ovideo Garza,Brownsville Lopez,55.84,151.95,79.38,147.42,378.75,Single-ply,SBD,M
Boys,59.87,2,Jose Alvarado #3,Brownsville Lopez,55.93,115.67,97.52,147.42,360.61,Single-ply,SBD,M
Boys,59.87,3,Jose Sanchez,Brownsville Lopez,55.88,142.88,70.31,133.81,347,Single-ply,SBD,M
Boys,59.87,1,Mario Garcia,Brownsville Pace,59.65,120.2,88.45,136.08,344.73,Single-ply,SBD,M
Boys,59.87,2,Ricky Cuellar,Brownsville Pace,58.69,127.01,79.38,102.06,308.44,Single-ply,SBD,M
Boys,59.87,3,Michael Chavez,Brownsville Hanna,56.97,102.06,65.77,129.27,297.1,Single-ply,SBD,M
Boys,67.13,1,Rogelio Pulido,Brownsville Lopez,67.13,204.12,111.13,247.21,562.45,Single-ply,SBD,M
Boys,74.84,2,Yayo Segura,Brownsville Pace,67.27,183.7,108.86,204.12,496.68,Single-ply,SBD,M
Boys,74.84,3,Hugo Salas,Brownsville Lopez,67.22,188.24,104.33,197.31,489.88,Single-ply,SBD,M
Boys,67.13,4,JJ Camacho,Brownsville Pace,66.86,165.56,106.59,165.56,437.72,Single-ply,SBD,M
Boys,67.13,5,Jesus Sandoval,Brownsville Pace,64.91,151.95,90.72,142.88,385.55,Single-ply,SBD,M
Boys,82.1,1,Ricky Sauceda,Brownsville Lopez,74.93,192.78,124.74,208.65,526.17,Single-ply,SBD,M
Boys,74.84,2,Nacho Guevarra,Brownsville Pace,70.31,172.37,108.86,174.63,455.86,Single-ply,SBD,M
Boys,74.84,3,Randy Delgado,Brownsville Hanna,71.08,170.1,88.45,174.63,433.18,Single-ply,SBD,M
Boys,74.84,4,Heriberto Duque,Brownsville Hanna,72.3,138.35,79.38,147.42,365.14,Single-ply,SBD,M
Boys,89.81,1,Pablo Garza,Brownsville Pace,82.28,183.7,106.59,217.72,508.02,Single-ply,SBD,M
Boys,82.1,2,Ernesto Benavidez,Brownsville Hanna,80.92,183.7,111.13,183.7,478.54,Single-ply,SBD,M
Boys,82.1,3,Albert Zurita,Brownsville Pace,77.88,179.17,77.11,190.51,446.79,Single-ply,SBD,M
Boys,82.1,4,Ruben Balboa,Brownsville Pace,81.51,156.49,99.79,174.63,430.91,Single-ply,SBD,M
Boys,82.1,5,Justin Mcmanus,Brownsville Hanna,77.93,145.15,70.31,163.29,378.75,Single-ply,SBD,M
Boys,82.1,DQ,Adrian Diaz,Brownsville Hanna,80.83,117.93,,,,Single-ply,SBD,M
Boys,89.81,1,Daniel Ramos,Brownsville Lopez,89.36,210.92,138.35,215.46,564.72,Single-ply,SBD,M
Boys,89.81,2,Chris Walker,Brownsville Pace,86.91,190.51,111.13,192.78,494.42,Single-ply,SBD,M
Boys,99.79,3,Julio Medina,Brownsville Pace,89.9,192.78,113.4,188.24,494.42,Single-ply,SBD,M
Boys,89.81,4,David Cardenas,Brownsville Pace,89.09,183.7,99.79,201.85,485.34,Single-ply,SBD,M
Boys,89.81,5,Nathan Silva,Brownsville Hanna,87.23,185.97,92.99,195.04,474,Single-ply,SBD,M
Boys,89.81,6,Rafa Pena,Brownsville Hanna,89.81,183.7,97.52,174.63,455.86,Single-ply,SBD,M
Boys,99.79,7,Juan Rodriguez,Brownsville Pace,89.95,176.9,113.4,154.22,444.52,Single-ply,SBD,M
Boys,89.81,8,Sebastian Diaz,Brownsville Hanna,86.77,133.81,92.99,156.49,383.29,Single-ply,SBD,M
Boys,99.79,1,Leo Gonzalez,Brownsville Hanna,93.12,188.24,106.59,204.12,498.95,Single-ply,SBD,M
Boys,99.79,2,Miguel Teran,Brownsville Pace,98.2,185.97,124.74,183.7,494.42,Single-ply,SBD,M
Boys,99.79,3,Ricky Arreola,Brownsville Hanna,97.93,179.17,124.74,156.49,460.4,Single-ply,SBD,M
Boys,99.79,4,Eddie Galvan,Brownsville Hanna,98.79,174.63,90.72,183.7,449.06,Single-ply,SBD,M
Boys,99.79,5,Jose Ramirez,Brownsville Hanna,98.66,142.88,97.52,179.17,419.57,Single-ply,SBD,M
Boys,109.77,1,Michael Alvarez,Brownsville Pace,104.78,249.48,136.08,195.04,580.6,Single-ply,SBD,M
Boys,109.77,2,Danny Gonzalez,Brownsville Pace,109,233.6,120.2,149.69,503.49,Single-ply,SBD,M
Boys,109.77,3,Jonathan Ojeda,Brownsville Pace,105.41,183.7,106.59,192.78,483.08,Single-ply,SBD,M
Boys,124.74,1,Austin Sulewski,Brownsville Pace,119.39,224.53,147.42,183.7,555.65,Single-ply,SBD,M
Boys,124.74,2,Adrian Arredondo,Brownsville Hanna,113.67,201.85,111.13,192.78,505.76,Single-ply,SBD,M
Boys,124.74+,1,Josh Trevino,Brownsville Lopez,139.34,229.06,142.88,242.67,614.62,Single-ply,SBD,M
Boys,124.74+,2,Christian Castro,Brownsville Pace,132.59,249.48,124.74,233.6,607.81,Single-ply,SBD,M
Boys,124.74+,3,Luis Ortiz,Brownsville Hanna,128.41,129.27,79.38,163.29,371.95,Single-ply,SBD,M
