Division,WeightClassKg,Place,Name,Team,BodyweightKg,Best3SquatKg,Best3BenchKg,Best3DeadliftKg,TotalKg,Equipment,Event,Sex
Boys,51.71,1,Junior Chavez,Waxahachie,49.44,113.4,72.57,142.88,328.85,Single-ply,SBD,M
Boys,51.71,2,Emilio Carrillo,Waxahachie,51.26,117.93,65.77,127.01,310.71,Single-ply,SBD,M
Boys,51.71,3,Jason Botkin,Corsicana,48.81,106.59,58.97,129.27,294.84,Single-ply,SBD,M
Boys,51.71,4,Jesse Corvin,West,48.9,88.45,52.16,90.72,231.33,Single-ply,SBD,M
Boys,51.71,5,Jacob Jankowski,Dawson,49.26,79.38,40.82,102.06,222.26,Single-ply,SBD,M
Boys,51.71,6,Nick Turner,Mexia,47.63,68.04,52.16,92.99,213.19,Single-ply,SBD,M
Boys,55.79,1,Diego Rivera,Mexia,54.52,185.97,104.33,185.97,476.27,Single-ply,SBD,M
Boys,55.79,2,Noah Vasquez,Palmer,55.52,167.83,97.52,151.95,417.3,Single-ply,SBD,M
Boys,55.79,3,Tony Delacruz,Waxahachie,55.61,149.69,86.18,158.76,394.63,Single-ply,SBD,M
Boys,55.79,4,Trevor Uptmor,West,54.16,147.42,81.65,149.69,378.75,Single-ply,SBD,M
Boys,55.79,5,Michael Hill,Normangee,52.8,122.47,77.11,136.08,335.66,Single-ply,SBD,M
Boys,55.79,6,Max Cervantes,Mexia,55.61,113.4,72.57,115.67,301.64,Single-ply,SBD,M
Boys,55.79,7,Brandon Renteria,Buffalo,54.52,99.79,70.31,129.27,299.37,Single-ply,SBD,M
Boys,55.79,8,Justin Johnson,Hubbard,54.52,104.33,70.31,115.67,290.3,Single-ply,SBD,M
Boys,55.79,9,Daniel Gutierrez,Palmer,53.34,106.59,68.04,108.86,283.5,Single-ply,SBD,M
Boys,55.79,10,Lucas Walker,Dawson,54.52,97.52,61.23,122.47,281.23,Single-ply,SBD,M
Boys,55.79,11,Carson Sifford,Teague,52.71,102.06,54.43,120.2,276.69,Single-ply,SBD,M
Boys,55.79,12,Andrew Silva,Rice,54.88,92.99,56.7,120.2,269.89,Single-ply,SBD,M
Boys,55.79,DQ,Nathan Jones,Corsicana Mildred,55.79,102.06,70.31,,,Single-ply,SBD,M
Boys,59.87,1,Fausto Rodriguez,West,59.69,192.78,111.13,185.97,489.88,Single-ply,SBD,M
Boys,59.87,2,Ricardo Garcia,Mexia,59.69,136.08,79.38,167.83,383.29,Single-ply,SBD,M
Boys,59.87,3,Haydon Isbell,Teague,58.88,142.88,83.91,154.22,381.02,Single-ply,SBD,M
Boys,59.87,4,Jaden Basham,Waxahachie,59.69,142.88,81.65,142.88,367.41,Single-ply,SBD,M
Boys,59.87,5,Jaydon Clemons,Italy,56.25,131.54,97.52,136.08,365.14,Single-ply,SBD,M
Boys,59.87,6,Bj Sunday,Mexia,59.51,142.88,74.84,138.35,356.07,Single-ply,SBD,M
Boys,59.87,7,Misial Mendoza,Rice,57.61,106.59,74.84,127.01,308.44,Single-ply,SBD,M
Boys,59.87,8,Chad Collup,Scurry-Rosser,55.88,106.59,61.23,127.01,294.84,Single-ply,SBD,M
Boys,59.87,9,David Rodriguez,Inspired Vision,59.06,111.13,56.7,120.2,288.03,Single-ply,SBD,M
Boys,59.87,10,Jaxon Emerton,Maypearl,58.88,102.06,47.63,102.06,251.74,Single-ply,SBD,M
Boys,59.87,DQ,Nick Lopez,Palmer,56.88,106.59,52.16,,,Single-ply,SBD,M
Boys,67.13,1,Triston Castillo,Eustace,63.59,179.17,102.06,181.44,462.66,Single-ply,SBD,M
Boys,67.13,2,Deondre Brown,Corsicana,64.05,174.63,99.79,185.97,460.4,Single-ply,SBD,M
Boys,67.13,3,Jacob Lynch,Scurry-Rosser,67.13,174.63,92.99,172.37,439.98,Single-ply,SBD,M
Boys,67.13,4,Corbin Donoho,Corsicana Mildred,61.87,154.22,88.45,170.1,412.77,Single-ply,SBD,M
Boys,67.13,5,Adam Elkins,Dawson,61.6,154.22,79.38,149.69,383.29,Single-ply,SBD,M
Boys,67.13,6,Zackary Sanders,Red Oak,67.04,129.27,83.91,165.56,378.75,Single-ply,SBD,M
Boys,67.13,7,Ralen Clark,Red Oak,61.51,133.81,74.84,161.03,369.68,Single-ply,SBD,M
Boys,67.13,8,John Davis #6,Eustace,65.77,129.27,79.38,161.03,369.68,Single-ply,SBD,M
Boys,67.13,9,Levi Elkins,Dawson,65.68,140.61,77.11,129.27,347,Single-ply,SBD,M
Boys,67.13,10,Jason Oliver,Hubbard,66.04,127.01,90.72,129.27,347,Single-ply,SBD,M
Boys,67.13,11,Tommy Bernal,Rice,65.14,129.27,77.11,136.08,342.46,Single-ply,SBD,M
Boys,67.13,12,Jacob Shuler,Normangee,63.78,120.2,77.11,142.88,340.19,Single-ply,SBD,M
Boys,67.13,13,Leonel Molina,Mexia,62.6,124.74,61.23,140.61,326.59,Single-ply,SBD,M
Boys,67.13,14,Tristan Ross,Normangee,62.05,122.47,68.04,127.01,317.51,Single-ply,SBD,M
Boys,67.13,15,Josh Withers,West,64.41,111.13,70.31,113.4,294.84,Single-ply,SBD,M
Boys,74.84,1,Kolby Pederson,Hubbard,73.94,204.12,129.27,190.51,523.9,Single-ply,SBD,M
Boys,74.84,2,Eric Dickson,Corsicana,73.57,183.7,102.06,226.8,512.56,Single-ply,SBD,M
Boys,74.84,3,Isaac Canalas,Rice,74.03,183.7,113.4,170.1,467.2,Single-ply,SBD,M
Boys,74.84,4,Joshua Beachum,Mexia,69.22,170.1,102.06,192.78,464.93,Single-ply,SBD,M
Boys,74.84,5,Gilbert Smith,West,74.57,181.44,113.4,167.83,462.66,Single-ply,SBD,M
Boys,74.84,6,Danniel Fernandez,Kerens,72.3,170.1,99.79,147.42,417.3,Single-ply,SBD,M
Boys,74.84,7,Anthony Bonilla,Rice,74.84,156.49,92.99,163.29,412.77,Single-ply,SBD,M
Boys,74.84,8,Jose Dominguez,Inspired Vision,74.66,142.88,102.06,156.49,401.43,Single-ply,SBD,M
Boys,74.84,9,Trey Atkeinson,Corsicana Mildred,69.4,151.95,90.72,147.42,390.09,Single-ply,SBD,M
Boys,74.84,10,Brycen Clark,Rice,70.94,106.59,74.84,147.42,328.85,Single-ply,SBD,M
Boys,74.84,DQ,Jhonny Arreola,Palmer,73.48,,,,,Single-ply,SBD,M
Boys,74.84,DQ,Colby Skarpa,West,72.3,190.51,122.47,,,Single-ply,SBD,M
Boys,74.84,DQ,John Vaughn,Buffalo,71.49,,,,,Single-ply,SBD,M
Boys,74.84,DQ,Brian Stroud,Hubbard,69.49,,,,,Single-ply,SBD,M
Boys,74.84,DQ,DeMarcus McQurter,Mexia,69.58,165.56,,,,Single-ply,SBD,M
Boys,82.1,1,Nathan Gerik,West,81.47,233.6,138.35,231.33,603.28,Single-ply,SBD,M
Boys,82.1,2,Azaya Patrick,Teague,81.65,210.92,120.2,206.38,537.51,Single-ply,SBD,M
Boys,82.1,3,Bryan Mendez,Waxahachie,79.74,192.78,113.4,206.38,512.56,Single-ply,SBD,M
Boys,82.1,4,Dee Johnson,Red Oak,77.56,197.31,111.13,174.63,483.08,Single-ply,SBD,M
Boys,82.1,5,Aaron Watson,Red Oak,81.28,179.17,106.59,188.24,474,Single-ply,SBD,M
Boys,82.1,6,David Lopez,West,81.28,163.29,90.72,131.54,385.55,Single-ply,SBD,M
Boys,82.1,7,Rj Courmier,Hubbard,76.29,147.42,97.52,136.08,381.02,Single-ply,SBD,M
Boys,82.1,8,Koby Phelps,Kerens,79.74,142.88,92.99,142.88,378.75,Single-ply,SBD,M
Boys,82.1,9,Jordan DeShaume,Dawson,76.2,97.52,65.77,111.13,274.42,Single-ply,SBD,M
Boys,82.1,DQ,Jose Contreras,Inspired Vision,77.2,,,,,Single-ply,SBD,M
Boys,89.81,1,Aaron Harralson,West,87.54,229.06,156.49,235.87,621.42,Single-ply,SBD,M
Boys,89.81,2,Da'Michael Harvey,Kerens,88.63,226.8,136.08,235.87,598.74,Single-ply,SBD,M
Boys,89.81,3,Elder Arellano,Rice,86.09,204.12,151.95,233.6,589.67,Single-ply,SBD,M
Boys,89.81,4,Hector Dominguez,Buffalo,82.28,238.14,117.93,219.99,576.06,Single-ply,SBD,M
Boys,89.81,5,Brian Black,Palmer,89.09,215.46,147.42,206.38,569.26,Single-ply,SBD,M
Boys,89.81,6,Anthony Perales,Red Oak,87.54,219.99,124.74,219.99,564.72,Single-ply,SBD,M
Boys,89.81,7,Dre'Vaun Cooper,Mexia,88.9,226.8,120.2,195.04,542.04,Single-ply,SBD,M
Boys,89.81,8,Waltis Harry,Corsicana,88.81,197.31,95.25,215.46,508.02,Single-ply,SBD,M
Boys,89.81,9,Andrew Acosta,Scurry-Rosser,86.27,190.51,120.2,185.97,496.68,Single-ply,SBD,M
Boys,89.81,10,Alex Dupree,Eustace,84.91,188.24,104.33,181.44,474,Single-ply,SBD,M
Boys,89.81,11,Kyle Kelly,Scurry-Rosser,88.27,156.49,92.99,190.51,439.98,Single-ply,SBD,M
Boys,89.81,12,Ameer Muhammad,Red Oak,88.09,165.56,102.06,165.56,433.18,Single-ply,SBD,M
Boys,89.81,13,Mark Zagala,Palmer,83.64,151.95,102.06,170.1,424.11,Single-ply,SBD,M
Boys,89.81,14,Chris Galvan,Corsicana,83.73,156.49,79.38,170.1,405.97,Single-ply,SBD,M
Boys,89.81,DQ,Angel Villa,Scurry-Rosser,88.36,163.29,99.79,,,Single-ply,SBD,M
Boys,99.79,1,Caleb High,Waxahachie,94.71,260.82,158.76,272.16,691.73,Single-ply,SBD,M
Boys,99.79,2,Micah Wafer,Corsicana,99.06,215.46,133.81,233.6,582.87,Single-ply,SBD,M
Boys,99.79,3,Melvin Martin,Corsicana,96.25,231.33,124.74,215.46,571.53,Single-ply,SBD,M
Boys,99.79,4,Alton Harris,Rice,92.44,219.99,117.93,226.8,564.72,Single-ply,SBD,M
Boys,99.79,5,River Drone,Eustace,96.62,199.58,140.61,192.78,532.97,Single-ply,SBD,M
Boys,99.79,6,Preston Young,Red Oak,97.61,206.38,117.93,197.31,521.63,Single-ply,SBD,M
Boys,99.79,7,Francisco Gomez,Eustace,95.25,188.24,122.47,195.04,505.76,Single-ply,SBD,M
Boys,99.79,8,Austin Scott,Rice,96.43,170.1,124.74,204.12,498.95,Single-ply,SBD,M
Boys,99.79,DQ,Jonas Rickman,Palmer,97.89,226.8,156.49,,,Single-ply,SBD,M
Boys,99.79,DQ,Joseph Chavez,Waxahachie,99.06,222.26,124.74,,,Single-ply,SBD,M
Boys,99.79,DQ,Dj Williams,Rice,94.62,,,,,Single-ply,SBD,M
Boys,99.79,DQ,Erik Varela,Inspired Vision,97.34,,,,,Single-ply,SBD,M
Boys,99.79,DQ,Justin Horn #1,Corsicana Mildred,98.7,,,,,Single-ply,SBD,M
Boys,99.79,DQ,Jaden Kistler,Corsicana Mildred,89.9,,,,,Single-ply,SBD,M
Boys,99.79,DQ,Caydon Ramsey,Mexia,89.99,183.7,,,,Single-ply,SBD,M
Boys,109.77,1,Daniel Fraire,West,107.77,299.37,174.63,222.26,696.26,Single-ply,SBD,M
Boys,109.77,2,Anfernee Bookout,Corsicana,108.23,249.48,129.27,204.12,582.87,Single-ply,SBD,M
Boys,109.77,3,Saul Diaz,Rice,103.96,204.12,138.35,215.46,557.92,Single-ply,SBD,M
Boys,109.77,4,Jordan Rios,Mexia,104.6,226.8,124.74,199.58,551.11,Single-ply,SBD,M
Boys,109.77,5,Alejandro Moreno,Waxahachie,106.96,192.78,133.81,219.99,546.58,Single-ply,SBD,M
Boys,109.77,6,Zane Guerra,Dawson,100.88,181.44,127.01,206.38,514.83,Single-ply,SBD,M
Boys,109.77,7,Tristan Williams,Corsicana,102.06,188.24,115.67,208.65,512.56,Single-ply,SBD,M
Boys,109.77,8,Shamar Richardson,Dawson,108.68,176.9,124.74,195.04,496.68,Single-ply,SBD,M
Boys,109.77,9,Brandon Butzky,Maypearl,104.78,174.63,111.13,188.24,474,Single-ply,SBD,M
Boys,109.77,10,Zyaun Jones,Red Oak,106.32,165.56,124.74,179.17,469.47,Single-ply,SBD,M
Boys,109.77,11,Asa Henson,Buffalo,106.14,163.29,111.13,167.83,442.25,Single-ply,SBD,M
Boys,109.77,12,Garrett Poehls,Palmer,109.77,149.69,117.93,151.95,419.57,Single-ply,SBD,M
Boys,109.77,13,Carson Reneau,Scurry-Rosser,105.6,170.1,108.86,129.27,408.23,Single-ply,SBD,M
Boys,109.77,14,Zion Barnes,Hubbard,107.41,147.42,102.06,142.88,392.36,Single-ply,SBD,M
Boys,109.77,15,Ben Perkins,Eustace,107.59,142.88,99.79,147.42,390.09,Single-ply,SBD,M
Boys,109.77,16,Justin Winchester,Dawson,101.88,138.35,81.65,165.56,385.55,Single-ply,SBD,M
Boys,109.77,17,Terry Reel,Teague,106.96,154.22,70.31,156.49,381.02,Single-ply,SBD,M
Boys,124.74,1,Eli Crawford,Kerens,119.39,267.62,140.61,249.48,657.71,Single-ply,SBD,M
Boys,124.74,2,Travis Lemons,Teague,117.84,213.19,136.08,215.46,564.72,Single-ply,SBD,M
Boys,124.74,3,Marcus Staggs,Eustace,122.11,219.99,136.08,206.38,562.45,Single-ply,SBD,M
Boys,124.74,4,Chad Fancher,Eustace,122.83,199.58,136.08,192.78,528.44,Single-ply,SBD,M
Boys,124.74,5,Denton Ross,Waxahachie,119.2,199.58,129.27,190.51,519.36,Single-ply,SBD,M
Boys,124.74,6,Kieth Gomer,Eustace,112.04,192.78,129.27,190.51,512.56,Single-ply,SBD,M
Boys,124.74,7,Seth Eastwook,Maypearl,122.29,201.85,122.47,174.63,498.95,Single-ply,SBD,M
Boys,124.74,8,Luis Garcia,Eustace,113.22,201.85,108.86,179.17,489.88,Single-ply,SBD,M
Boys,124.74,9,Noah Wynn,Corsicana,123.01,183.7,106.59,192.78,483.08,Single-ply,SBD,M
Boys,124.74,10,Clayton Johnson,Scurry-Rosser,120.75,190.51,111.13,163.29,464.93,Single-ply,SBD,M
Boys,124.74,11,Bradley Miligan,Corsicana,117.03,167.83,106.59,188.24,462.66,Single-ply,SBD,M
Boys,124.74,12,Ethan Patterson,Buffalo,123.65,129.27,124.74,163.29,417.3,Single-ply,SBD,M
Boys,124.74,13,Kain Cooper,Red Oak,117.39,156.49,92.99,156.49,405.97,Single-ply,SBD,M
Boys,124.74,14,Landon Routh,Maypearl,116.57,154.22,83.91,151.95,390.09,Single-ply,SBD,M
Boys,124.74,DQ,Terry Dixon,Italy,119.02,217.72,,,,Single-ply,SBD,M
Boys,124.74,DQ,Brandon Laird,Scurry-Rosser,119.39,,,,,Single-ply,SBD,M
Boys,124.74+,1,Deontae Martin,Corsicana,133.63,233.6,138.35,242.67,614.62,Single-ply,SBD,M
Boys,124.74+,2,Benito Rivas,Buffalo,126.92,222.26,158.76,204.12,585.13,Single-ply,SBD,M
Boys,124.74+,3,Damien Mantooth,Red Oak,134.81,217.72,129.27,188.24,535.24,Single-ply,SBD,M
Boys,124.74+,4,Xzavier Augustus,Red Oak,143.15,206.38,115.67,183.7,505.76,Single-ply,SBD,M
Boys,124.74+,5,Adam McClellan,Waxahachie,137.35,188.24,113.4,165.56,467.2,Single-ply,SBD,M
Boys,124.74+,6,Ben Barlow,Rice,143.61,181.44,115.67,136.08,433.18,Single-ply,SBD,M
Boys,124.74+,7,Josh Encinia,Dawson,135.26,181.44,102.06,147.42,430.91,Single-ply,SBD,M
Boys,124.74+,DQ,Payton McClain,Red Oak,141.16,188.24,129.27,,,Single-ply,SBD,M
Boys,124.74+,DQ,Caleb Hernandez,Palmer,125.37,192.78,,,,Single-ply,SBD,M
