Place,Name,Sex,Event,Division,Equipment,BirthYear,Team,State,BodyweightKg,Squat1Kg,Squat2Kg,Squat3Kg,Best3SquatKg,Bench1Kg,Bench2Kg,Bench3Kg,Best3BenchKg,Deadlift1Kg,Deadlift2Kg,Deadlift3Kg,Best3DeadliftKg,TotalKg,Age,BirthDate
1,Terry Wells,M,SBD,M-M1,Single-ply,1970,,WI,108.45,220,232.5,,232.5,-170,170,180,180,280,300,-305,300,712.5,,
1,Dean Johnson,M,SBD,MR-M1,Raw,1975,,MN,90.5,240,250,260,260,130,140,145,145,232.5,242.5,250,250,655,,
2,Tanya Snell,F,SBD,FR-M1,Raw,1974,,WI,87.45,130,142.5,145,145,72.5,77.5,-82.5,77.5,160,170,-175,170,392.5,,
3,Norman Alston,M,SBD,MR-M1,Raw,1971,,MN,92.15,202.5,212.5,-217.5,212.5,140,142.5,-147.5,142.5,235,242.5,-247.5,242.5,597.5,,
4,Jennifer Steele,F,SBD,FR-M1,Raw,1975,,MN,94.95,125,140,145,145,50,55,-65,55,135,145,155,155,355,,
5,Kim Sellner,F,SBD,FR-M1,Raw,1977,,MN,108.35,130,-140,140,140,65,70,-75,70,140,147.5,155,155,365,,
6,Keith Emerson,M,SBD,MR-M1,Raw,1970,American Strength,MN,90.6,157.5,167.5,175,175,115,125,135,135,205,217.5,227.5,227.5,537.5,,
7,Gregory Kuczynski,M,SBD,MR-M1,Raw,1979,,MN,87,-192.5,195,-202.5,195,112.5,117.5,122.5,122.5,175,-182.5,,175,492.5,,
8,Robert Fuller,M,SBD,MR-M1,Raw,1970,Northern White Lights,ND,152,215,235,247.5,247.5,150,162.5,175,175,205,225,-242.5,225,647.5,,
9,Eric Simmons,M,SBD,MR-M1,Raw,1979,,MN,100.95,170,180,187.5,187.5,120,127.5,-130,127.5,192.5,202.5,210,210,525,,
10,Tonya Mages,F,SBD,FR-M1,Raw,1976,,MN,96.7,102.5,-107.5,107.5,107.5,57.5,60,-62.5,60,125,130,137.5,137.5,305,,
11,Elizabeth Carpenter,F,SBD,FR-M1,Raw,1974,,MN,154.15,92.5,-102.5,107.5,107.5,82.5,87.5,-92.5,87.5,132.5,145,-152.5,145,340,,
12,Tracey Westegaard-Gunlogson,F,SBD,FR-M1,Raw,1976,,MN,68.05,70,80,87.5,87.5,47.5,52.5,55,55,102.5,110,-115,110,252.5,,
13,Connie Bleess,F,SBD,FR-M1,Raw,1977,,MN,90.35,-57.5,67.5,77.5,77.5,42.5,45,-50,45,-115,122.5,130,130,252.5,,
14,Shaynen Schmidt,F,SBD,FR-M1,Raw,1977,,MN,81.45,125,150,-155,150,80,-92.5,92.5,92.5,150,155,157.5,157.5,400,,
15,Randon Johnson,F,SBD,FR-M1,Raw,1977,,IL,101.8,122.5,130,137.5,137.5,95,100,105,105,155,165,-177.5,165,407.5,,
DQ,Kristi Gross,F,SBD,FR-M1,Raw,1978,AFLC Powerlifting,MN,118.3,-117.5,-117.5,-117.5,,47.5,52.5,-57.5,52.5,105,-107.5,107.5,107.5,,,
1,Trevor Keller,M,SBD,MR-M2,Raw,1969,,MN,119.2,230,240,250,250,160,-172.5,-172.5,160,232.5,245,255,255,665,,
2,James Hebbe,M,SBD,MR-M2,Raw,1960,,WI,82.5,155,167.5,175,175,107.5,115,120,120,195,207.5,215,215,510,,
3,Pat Beaumaster,M,SBD,MR-M2,Raw,1962,,MN,82.3,170,185,195,195,120,125,130,130,150,175,-200,175,500,,
4,Traci Slane,F,SBD,FR-M2,Raw,1969,,MN,99.5,97.5,105,110,110,60,65,67.5,67.5,135,145,152.5,152.5,330,,
5,Denay Kelly,F,SBD,FR-M2,Raw,1966,,MN,94.3,-102.5,107.5,-120,107.5,-60,70,-77.5,70,115,-137.5,145,145,322.5,,
6,Tim Teragawa,M,SBD,MR-M2,Raw,1967,,MN,84.55,140,152.5,160,160,115,122.5,127.5,127.5,185,197.5,205,205,492.5,,
7,Joe Hays,M,SBD,MR-M2,Raw,1960,American Strength,MN,73.65,130,142.5,-145,142.5,85,95,100,100,180,190,197.5,197.5,440,,
8,Roger Rineck,M,SBD,MR-M2,Raw,1960,,MN,78,140,155,-165,155,95,-102.5,-102.5,95,165,-177.5,-177.5,165,415,,
9,Whitney Hanson,F,SBD,FR-M2,Raw,1965,,MN,59.25,72.5,77.5,80,80,37.5,40,42.5,42.5,85,92.5,97.5,97.5,220,,
10,Scott Asperheim,M,SBD,MR-M2,Raw,1969,Aeriel Assault,MN,85.8,130,135,140,140,97.5,-100,100,100,155,162.5,172.5,172.5,412.5,,
11,Mike Burns,M,SBD,MR-M2,Raw,1966,Northern White Lights,MN,91.8,60,70,75,75,165,-187.5,-187.5,165,92.5,100,115,115,355,,
DQ,Laurie Aaronson,F,SBD,FR-M2,Raw,1968,,MN,72.55,-85,85,-90,85,-47.5,-47.5,-50,,87.5,97.5,-107.5,97.5,,,
1,Greg Lamansky,M,SBD,MR-M3,Raw,1956,,WI,72.8,140,152.5,162.5,162.5,110,117.5,125,125,175,187.5,200,200,487.5,,
2,Robert Lawson,M,SBD,MR-M3,Raw,1957,,WI,88.1,175,182.5,187.5,187.5,-102.5,-105,105,105,-215,-215,215,215,507.5,,
3,Jon Govin,M,SBD,MR-M3,Raw,1956,,MN,101.65,180,190,195,195,85,95,-102.5,95,197.5,205,215,215,505,,
4,Ed Krall,M,SBD,MR-M3,Raw,1946,,WI,81,140,-142.5,142.5,142.5,85,87.5,-90,87.5,167.5,172.5,177.5,177.5,407.5,,
5,Yvonne Hanley,F,SBD,FR-M3,Raw,1950,,MN,73.7,75,-85,-85,75,45,47.5,-52.5,47.5,97.5,105,-115,105,227.5,,
6,Gary Grahn,M,SBD,MR-M3,Raw,1955,,MN,92.25,120,130,140,140,97.5,102.5,105,105,125,140,155,155,400,,
7,John Milnes,M,SBD,MR-M3,Raw,1947,,MN,98.85,125,132.5,140,140,70,80,85,85,160,172.5,-182.5,172.5,397.5,,
8,Sid Reid,M,SBD,MR-M3,Raw,1948,,MN,81.95,122.5,127.5,130,130,62.5,67.5,-70,67.5,147.5,-155,155,155,352.5,,
9,Michael Jamison,M,SBD,MR-M3,Raw,1952,,MN,83.95,87.5,90,92.5,92.5,65,67.5,70,70,125,127.5,130,130,292.5,,
DQ,John Bonner III,M,SBD,MR-M3,Raw,1945,,MN,92.9,-97.5,-102.5,-102.5,,-72.5,75,-77.5,75,-162.5,162.5,165,165,,,
