Place,Sex,Name,Event,Division,WeightClassKg,Equipment,BirthYear,Team,State,BodyweightKg,Squat1Kg,Squat2Kg,Squat3Kg,Best3SquatKg,Bench1Kg,Bench2Kg,Bench3Kg,Best3BenchKg,Deadlift1Kg,Deadlift2Kg,Deadlift3Kg,Best3DeadliftKg,TotalKg
1,M,Kevin Johnson,B,M-M3,120,Single-ply,1954,,NY,119.5,,,,,215,-225,-225,215,,,,,215
DQ,M,Brad Klinger,B,M-M3,120+,Single-ply,1956,,NY,132.85,,,,,-305,-320,-320,,,,,,
1,M,Adam Zehr,B,MR-O,66,Raw,1979,,NY,65.75,,,,,162.5,167.5,170,170,,,,,170
1,M,Kelvin Melton II,B,MR-O,74,Raw,1990,,NY,73.75,,,,,150,160,-165,160,,,,,160
1,M,Keith O'Dell,B,MR-O,83,Raw,1982,,NY,81.05,,,,,-145,-152.5,152.5,152.5,,,,,152.5
1,M,Jack Gardy,B,MR-O,120+,Raw,1983,,NY,150.6,,,,,192.5,202.5,-207.5,202.5,,,,,202.5
2,M,Christopher Medlar,B,MR-O,120+,Raw,1978,,NY,123.95,,,,,160,167.5,-175,167.5,,,,,167.5
1,F,Donna Schulz,B,FR-O,52,Raw,1958,,NY,51.1,,,,,30,32.5,-35,32.5,,,,,32.5
1,F,Amanda Gard,D,FR-O,63,Raw,1980,,NY,61.95,,,,,,,,,65,67.5,70,70,70
1,M,Keith Nautel,SBD,M-M2,83,Single-ply,1965,,NY,81.35,232.5,240,,240,162.5,-167.5,-175,162.5,247.5,-272.5,-272.5,247.5,650
1,M,Paul M Stephens,SBD,M-M2,93,Single-ply,1961,,NY,88.3,-182.5,190,200,200,160,167.5,170,170,160,175,182.5,182.5,552.5
1,M,Paul Mears,SBD,M-M3,66,Single-ply,1953,,MA,65.8,147.5,160,170,170,-80,80,-90,80,172.5,182.5,-187.5,182.5,432.5
1,M,Cody Giampa,SBD,M-O,120,Single-ply,1991,,MA,120,365,-382.5,-400,365,280,-290,,280,302.5,320,327.5,327.5,972.5
1,M,Mohammad Ahead,SBD,MR-Jr,59,Raw,1995,,NY,58.4,145,155,157.5,157.5,80,85,-92.5,85,190,197.5,205,205,447.5
2,M,Akif Rahman,SBD,MR-Jr,59,Raw,1996,,NY,57.7,130,137.5,147.5,147.5,-82.5,87.5,-92.5,87.5,175,182.5,-192.5,182.5,417.5
3,M,Timothy Sweeney,SBD,MR-Jr,59,Raw,1997,,NY,56.15,100,105,110,110,82.5,87.5,-90,87.5,130,140,150,150,347.5
1,M,Jonathan Linden,SBD,MR-Jr,66,Raw,1997,,NY,65.2,125,132.5,142.5,142.5,80,85,90,90,165,185,215,215,447.5
2,M,Brandon Roseborough,SBD,MR-Jr,66,Raw,1997,,NY,65.1,140,-150,150,150,100,110,-120,110,165,180,-185,180,440
1,M,Brian DeGori,SBD,MR-Jr,74,Raw,1995,,NY,72.55,160,170,182.5,182.5,110,117.5,-125,117.5,185,200,215,215,515
2,M,Denny Chung,SBD,MR-Jr,74,Raw,1996,,NY,73.25,142.5,155,165,165,97.5,105,110,110,162.5,175,200,200,475
DQ,M,Caleb Smith,SBD,MR-Jr,74,Raw,1993,,NY,72.6,-152.5,152.5,,152.5,-140,-140,-140,,-200,,,,
1,M,Dave White,SBD,MR-Jr,83,Raw,1993,,NY,82.5,-207.5,215,-217.5,215,-152.5,152.5,-157.5,152.5,250,260,-265,260,627.5
2,M,Kelly Zhang,SBD,MR-Jr,83,Raw,1995,,NY,81.2,200,212.5,-227.5,212.5,137.5,-142.5,-142.5,137.5,235,245,-255,245,595
3,M,Kwong Leung,SBD,MR-Jr,83,Raw,1995,,NY,77.75,175,182.5,-187.5,182.5,130,-135,-135,130,225,235,-240,235,547.5
4,M,George Kratz,SBD,MR-Jr,83,Raw,1995,,NY,80.85,180,195,200,200,107.5,115,125,125,187.5,202.5,-220,202.5,527.5
5,M,Brendan Brown,SBD,MR-Jr,83,Raw,1998,,NY,81.8,145,167.5,-190,167.5,110,122.5,-130,122.5,185,212.5,227.5,227.5,517.5
6,M,Sai Rahul Kumar,SBD,MR-Jr,83,Raw,1996,,NY,78.9,155,165,170,170,102.5,107.5,112.5,112.5,185,195,200,200,482.5
1,M,Thomas P Kelly,SBD,MR-Jr,93,Raw,1996,,NY,88.95,205,225,-230,225,102.5,-120,-120,102.5,237.5,-245,245,245,572.5
2,M,John Roll,SBD,MR-Jr,93,Raw,1996,,NY,89.6,165,175,185,185,120,127.5,-137.5,127.5,227.5,235,240,240,552.5
3,M,Chase Israel,SBD,MR-Jr,93,Raw,1995,,NY,90.6,-177.5,185,192.5,192.5,97.5,105,112.5,112.5,212.5,227.5,240,240,545
4,M,Andrew Newton,SBD,MR-Jr,93,Raw,1996,,NY,87.6,170,180,185,185,125,132.5,140,140,195,-210,210,210,535
1,M,Matthew McDonough,SBD,MR-Jr,105,Raw,1997,,NY,99.25,210,222.5,230,230,140,150,-155,150,227.5,240,250,250,630
2,M,Tad Kilbury,SBD,MR-Jr,105,Raw,1995,,VT,94.85,165,175,187.5,187.5,115,130,-145,130,210,225,235,235,552.5
3,M,Connor Trombly,SBD,MR-Jr,105,Raw,1996,,NY,103.05,182.5,195,202.5,202.5,102.5,107.5,-112.5,107.5,217.5,232.5,237.5,237.5,547.5
1,M,Matt Sohmer,SBD,MR-Jr,120,Raw,1993,,NY,116.2,350,367.5,372.5,372.5,130,145,152.5,152.5,322.5,347.5,365,365,890
2,M,Justin Bush,SBD,MR-Jr,120,Raw,1993,,NY,115.05,195,207.5,215,215,160,170,175,175,242.5,257.5,267.5,267.5,657.5
1,M,Thomas Gianni,SBD,MR-Jr,120+,Raw,1993,,NY,123.8,135,-150,170,170,100,122.5,-135,122.5,185,215,235,235,527.5
1,M,Donald Stringham Jr,SBD,MR-M1,74,Raw,1967,,NY,73,102.5,112.5,115,115,72.5,77.5,-80,77.5,142.5,145,150,150,342.5
1,M,Charles Rose,SBD,MR-M1,83,Raw,1974,,NY,81.8,130,135,140,140,125,-132.5,-132.5,125,142.5,160,172.5,172.5,437.5
2,M,Hugo M. Zambrano,SBD,MR-M1,83,Raw,1967,,NY,79.6,112.5,-120,120,120,-72.5,77.5,-80,77.5,137.5,147.5,155,155,352.5
1,M,Jan Daurio,SBD,MR-M1,120+,Raw,1970,Bent Bar,NY,134.25,200,210,215,215,180,187.5,-192.5,187.5,220,232.5,245,245,647.5
1,M,Michael Walrath,SBD,MR-M2,93,Raw,1954,,NY,92.6,175,-182.5,182.5,182.5,130,137.5,-142.5,137.5,187.5,197.5,202.5,202.5,522.5
1,M,Mohammad Ahead,SBD,MR-O,59,Raw,1995,,NY,58.4,145,155,157.5,157.5,80,85,-92.5,85,190,197.5,205,205,447.5
2,M,Akif Rahman,SBD,MR-O,59,Raw,1996,,NY,57.7,130,137.5,147.5,147.5,-82.5,87.5,-92.5,87.5,175,182.5,-192.5,182.5,417.5
1,M,Sean Queller,SBD,MR-O,74,Raw,1978,,NY,69.8,150,160,167.5,167.5,75,-80,-80,75,205,220,-232.5,220,462.5
2,M,Kevin Warkala,SBD,MR-O,74,Raw,1992,,NY,72.15,165,-167.5,-167.5,165,115,-117.5,,115,170,175,182.5,182.5,462.5
3,M,Michael Marinello,SBD,MR-O,74,Raw,1992,,NY,73.25,145,147.5,-182.5,147.5,92.5,100,-107.5,100,172.5,195,215,215,462.5
4,M,William Weaver,SBD,MR-O,74,Raw,1993,,NY,72.4,115,130,142.5,142.5,65,70,-80,70,167.5,182.5,192.5,192.5,405
DQ,M,Thaddeus R Wallace,SBD,MR-O,74,Raw,1991,,DE,71.1,192.5,-202.5,-217.5,192.5,-127.5,-127.5,-127.5,,-232.5,-232.5,-232.5,,
DQ,M,Eric Schatzel,SBD,MR-O,74,Raw,1990,,NY,73,-127.5,132.5,-137.5,132.5,-82.5,-82.5,-82.5,,172.5,177.5,-180,177.5,
1,M,Dave White,SBD,MR-O,83,Raw,1993,,NY,82.5,-207.5,215,-217.5,215,-152.5,152.5,-157.5,152.5,250,260,-265,260,627.5
2,M,Kelly Zhang,SBD,MR-O,83,Raw,1995,,NY,81.2,200,212.5,-227.5,212.5,137.5,-142.5,-142.5,137.5,235,245,-255,245,595
3,M,Anthony Kite,SBD,MR-O,83,Raw,1991,,NY,82.15,192.5,202.5,-212.5,202.5,-147.5,147.5,-152.5,147.5,220,227.5,237.5,237.5,587.5
4,M,Nicholas Niosi,SBD,MR-O,83,Raw,1987,,NY,81.75,187.5,195,200,200,125,130,132.5,132.5,215,225,232.5,232.5,565
5,M,Kwong Leung,SBD,MR-O,83,Raw,1995,,NY,77.75,175,182.5,-187.5,182.5,130,-135,-135,130,225,235,-240,235,547.5
6,M,Bradley Gregg,SBD,MR-O,83,Raw,1987,Bent Bar,NY,80.7,172.5,182.5,192.5,192.5,125,130,135,135,187.5,197.5,207.5,207.5,535
7,M,Jeremiah Powell,SBD,MR-O,83,Raw,1985,,VT,80.15,157.5,172.5,180,180,97.5,105,-110,105,207.5,217.5,230,230,515
8,M,Charles Rose,SBD,MR-O,83,Raw,1974,,NY,81.8,130,135,140,140,125,-132.5,-132.5,125,142.5,160,172.5,172.5,437.5
9,M,James Piscitelli,SBD,MR-O,83,Raw,1966,,NY,77.3,80,90,-102.5,90,75,82.5,85,85,112.5,130,137.5,137.5,312.5
DQ,M,John E Hughes,SBD,MR-O,83,Raw,1990,East Ave Barbell,NY,80.9,215,230,235,235,137.5,-142.5,-142.5,137.5,-237.5,,,,
DD,M,Nicholas Murphy #2,SBD,MR-O,93,Raw,1991,,NY,91.15,235,247.5,257.5,257.5,170,177.5,185,185,240,252.5,-262.5,252.5,
1,M,Chris Kelly,SBD,MR-O,93,Raw,1991,,NY,91.5,-242.5,247.5,255,255,162.5,167.5,,167.5,252.5,-260,-260,252.5,675
2,M,Hamid Lekic,SBD,MR-O,93,Raw,1980,,NY,92,222.5,230,237.5,237.5,127.5,137.5,142.5,142.5,262.5,275,282.5,282.5,662.5
3,M,Adam Stewart,SBD,MR-O,93,Raw,1992,,NY,91.25,-217.5,220,-227.5,220,137.5,142.5,-150,142.5,275,287.5,-295,287.5,650
4,M,Alexander Niosi,SBD,MR-O,93,Raw,1984,,NY,89.9,225,232.5,240,240,137.5,145,-147.5,145,227.5,237.5,245,245,630
5,M,Michael Lickwar,SBD,MR-O,93,Raw,1983,,NY,90.55,192.5,202.5,210,210,140,147.5,-152.5,147.5,220,230,240,240,597.5
6,M,Matthew Smith #8,SBD,MR-O,93,Raw,1988,,PA,92.2,185,200,-207.5,200,125,-135,-135,125,255,-275,-275,255,580
7,M,David Bell,SBD,MR-O,93,Raw,1987,,GA,91.2,190,205,212.5,212.5,125,132.5,-137.5,132.5,200,212.5,-217.5,212.5,557.5
8,M,William Hartshorne,SBD,MR-O,93,Raw,1987,,NY,89.75,112.5,142.5,-150,142.5,92.5,102.5,-112.5,102.5,160,185,197.5,197.5,442.5
DQ,M,Brandon Ragoonath,SBD,MR-O,93,Raw,1998,,NY,86.75,-210,-222.5,-240,,142.5,152.5,165,165,255,275,297.5,297.5,
1,M,Frank Salvaggio,SBD,MR-O,105,Raw,1985,Bent Bar,NY,98.2,227.5,237.5,-242.5,237.5,145,152.5,160,160,230,250,262.5,262.5,660
2,M,Daniel J Decker,SBD,MR-O,105,Raw,1990,,NY,102.95,225,235,245,245,142.5,155,162.5,162.5,237.5,247.5,252.5,252.5,660
3,M,Richard Frank,SBD,MR-O,105,Raw,1992,,NY,104.35,220,225,-240,225,152.5,162.5,-165,162.5,230,245,-265,245,632.5
4,M,Vincent Mangione,SBD,MR-O,105,Raw,1991,,NY,101.55,187.5,197.5,205,205,125,132.5,137.5,137.5,225,237.5,242.5,242.5,585
5,M,Michael Runyan,SBD,MR-O,105,Raw,1991,,NY,104.35,195,200,-210,200,112.5,117.5,-120,117.5,220,227.5,-235,227.5,545
6,M,Nahid Carter,SBD,MR-O,105,Raw,1987,East Ave Barbell,NY,99.6,177.5,187.5,192.5,192.5,107.5,-115,,107.5,215,225,230,230,530
7,M,Sylvester Joosten,SBD,MR-O,105,Raw,1985,,PA,97.9,167.5,177.5,187.5,187.5,100,105,-110,105,210,225,-230,225,517.5
1,M,Matt Sohmer,SBD,MR-O,120,Raw,1993,,NY,116.2,350,367.5,372.5,372.5,130,145,152.5,152.5,322.5,347.5,365,365,890
2,M,Justin DeMara,SBD,MR-O,120,Raw,1988,,NY,118.4,247.5,255,-265,255,180,-190,-190,180,280,302.5,,302.5,737.5
3,M,Jeremy Degreenia,SBD,MR-O,120,Raw,1986,,VT,107.65,190,200,-205,200,125,-132.5,-132.5,125,237.5,250,-265,250,575
4,M,Jesse Murray,SBD,MR-O,120,Raw,1988,,VT,116.7,190,-200,200,200,122.5,125,-132.5,125,237.5,250,-262.5,250,575
5,M,Sean Galley,SBD,MR-O,120,Raw,1991,,NY,118.55,167.5,177.5,185,185,105,112.5,-117.5,112.5,192.5,205,212.5,212.5,510
1,M,Carley Skarupinski,SBD,MR-O,120+,Raw,1990,,NY,139.7,265,282.5,300,300,152.5,160,165,165,265,287.5,-302.5,287.5,752.5
2,M,Tim Donoghue,SBD,MR-O,120+,Raw,1991,,NY,145.4,227.5,240,252.5,252.5,162.5,182.5,-195,182.5,260,275,285,285,720
3,M,Jan Daurio,SBD,MR-O,120+,Raw,1970,Bent Bar,NY,134.25,200,210,215,215,180,187.5,-192.5,187.5,220,232.5,245,245,647.5
4,M,Thomas Gianni,SBD,MR-O,120+,Raw,1993,,NY,123.8,135,-150,170,170,100,122.5,-135,122.5,185,215,235,235,527.5
1,M,Alex Jessee,SBD,MR-T2,83,Raw,1999,,NH,81.4,100,105,110,110,72.5,77.5,-87.5,77.5,122.5,127.5,142.5,142.5,330
1,M,Brodyn Courter,SBD,MR-T2,120,Raw,1999,,NY,116.25,60,65,72.5,72.5,60,67.5,-72.5,67.5,137.5,147.5,155,155,295
1,M,Tate Fox,SBD,MR-T3,83,Raw,1997,,NY,76.1,127.5,135,140,140,92.5,-100,-100,92.5,147.5,155,160,160,392.5
1,F,Karen Blessington,SBD,F-M2,57,Single-ply,1960,,MA,56.3,92.5,-110,110,110,70,75,80,80,120,142.5,-147.5,142.5,332.5
1,F,Karen Blessington,SBD,F-O,57,Single-ply,1960,,MA,56.3,92.5,-110,110,110,70,75,80,80,120,142.5,-147.5,142.5,332.5
1,F,Annette Yoon,SBD,FR-Jr,57,Raw,1996,,NY,56.4,80,87.5,92.5,92.5,57.5,62.5,-67.5,62.5,95,107.5,-115,107.5,262.5
1,F,Julia Hsu,SBD,FR-Jr,63,Raw,1996,,NY,59.6,62.5,70,-72.5,70,55,-62.5,-62.5,55,85,90,95,95,220
1,F,Allison Voll,SBD,FR-Jr,72,Raw,1995,,NY,70.45,-92.5,95,102.5,102.5,65,-67.5,-67.5,65,120,127.5,132.5,132.5,300
2,F,Lucy O'Shaughnessy,SBD,FR-Jr,72,Raw,1993,,NY,66.95,100,-107.5,-107.5,100,52.5,55,-57.5,55,125,130,137.5,137.5,292.5
1,F,Olivia Hicks,SBD,FR-Jr,84,Raw,1993,,NY,83.35,105,112.5,120,120,45,47.5,50,50,122.5,130,140,140,310
2,F,Alexsandria Amell,SBD,FR-Jr,84,Raw,1994,Bent Bar,NY,74.9,92.5,100,105,105,50,55,-60,55,110,117.5,130,130,290
1,F,Dominique Castro,SBD,FR-Jr,84+,Raw,1993,,NY,103.7,80,90,-110,90,40,45,-52.5,45,90,100,110,110,245
1,F,Kimberly L Vibbard,SBD,FR-M1,57,Raw,1964,,NY,56.35,60,62.5,65,65,32.5,35,-37.5,35,90,92.5,95,95,195
1,F,Fernanda Rodrigues,SBD,FR-M1,72,Raw,1977,,CT,69.85,87.5,97.5,-102.5,97.5,-42.5,47.5,-50,47.5,90,95,100,100,245
1,M,Nathaniel Margolis,SBD,MR-M2,59,Raw,1992,,NY,51.15,72.5,85,-90,85,37.5,42.5,-45,42.5,110,122.5,130,130,257.5
1,F,Carol Lowry,SBD,FR-M2,72,Raw,1966,,NY,68,65,72.5,75,75,47.5,-50,-50,47.5,107.5,115,122.5,122.5,245
1,F,Melinda Spencer,SBD,FR-O,57,Raw,1987,,NH,56.6,112.5,115,120,120,60,65,-67.5,65,147.5,152.5,160,160,345
2,F,Courtney Tedesco,SBD,FR-O,57,Raw,1991,,NY,56.75,112.5,117.5,125,125,72.5,77.5,-80,77.5,127.5,135,142.5,142.5,345
1,F,Shannon Lagasse,SBD,FR-O,63,Raw,1992,,NY,62.95,117.5,130,-135,130,65,67.5,-72.5,67.5,147.5,157.5,162.5,162.5,360
2,F,Vanessa Gale,SBD,FR-O,63,Raw,1988,,GA,61.25,105,115,122.5,122.5,55,60,-62.5,60,122.5,132.5,142.5,142.5,325
3,F,Andrea Andhor,SBD,FR-O,63,Raw,1989,,NY,60.4,102.5,105,112.5,112.5,62.5,65,-67.5,65,-117.5,122.5,130,130,307.5
4,F,Janine Gelato,SBD,FR-O,63,Raw,1987,,NY,62.3,115,120,-125,120,-62.5,62.5,-67.5,62.5,112.5,120,125,125,307.5
5,F,Leigh Theirfelder,SBD,FR-O,63,Raw,1982,,NY,59.35,90,-95,-100,90,72.5,75,80,80,115,125,127.5,127.5,297.5
1,F,Brianna Diaz,SBD,FR-O,72,Raw,1998,,NY,70.9,110,125,130,130,47.5,60,-67.5,60,132.5,145,152.5,152.5,342.5
2,F,Vanessa Marrufo,SBD,FR-O,72,Raw,1989,,NY,72,97.5,107.5,-117.5,107.5,47.5,-57.5,-57.5,47.5,112.5,127.5,140,140,295
3,F,Fernanda Rodrigues,SBD,FR-O,72,Raw,1977,,CT,69.85,87.5,97.5,-102.5,97.5,-42.5,47.5,-50,47.5,90,95,100,100,245
4,F,Sarah Preston,SBD,FR-O,72,Raw,1981,,NY,66.8,60,67.5,-72.5,67.5,40,42.5,-45,42.5,102.5,112.5,120,120,230
5,F,Katie Moskal,SBD,FR-O,72,Raw,1982,,NY,65.95,67.5,75,80,80,37.5,40,-42.5,40,92.5,100,-105,100,220
DQ,F,Rachel Karam,SBD,FR-O,72,Raw,1988,,NY,71.85,-125,-125,-125,,62.5,-65,65,65,125,145,182.5,182.5,
1,F,Samantha Mello,SBD,FR-O,84,Raw,1991,,NY,80.55,-130,130,-140,130,65,-72.5,-72.5,65,147.5,155,160,160,355
2,F,Olivia Hicks,SBD,FR-O,84,Raw,1993,,NY,83.35,105,112.5,120,120,45,47.5,50,50,122.5,130,140,140,310
3,F,Casey Johnston,SBD,FR-O,84,Raw,1987,,NY,74.85,97.5,-105,-110,97.5,52.5,-57.5,-57.5,52.5,112.5,115,-122.5,115,265
1,F,Riki Napiorkowski,SBD,FR-O,84+,Raw,1987,,NY,87.25,135,140,145,145,92.5,97.5,-102.5,97.5,170,182.5,190,190,432.5
2,F,Heather Osswald,SBD,FR-O,84+,Raw,1985,,NY,124.3,157.5,167.5,-177.5,167.5,80,90,92.5,92.5,165,-175,-175,165,425
3,F,Amy Henges,SBD,FR-O,84+,Raw,1981,,NY,124.95,140,145,-147.5,145,62.5,67.5,70,70,-155,167.5,182.5,182.5,397.5
4,F,Jennifer Freytag,SBD,FR-O,84+,Raw,1980,,NY,115.55,130,140,-147.5,140,65,-70,-70,65,145,155,165,165,370
5,F,Hannah Frigon,SBD,FR-O,84+,Raw,1990,,VT,95.6,117.5,-122.5,127.5,127.5,65,70,-75,70,135,145,155,155,352.5
6,F,Jennifer Clark,SBD,FR-O,84+,Raw,1978,,NY,99.2,122.5,130,135,135,57.5,62.5,67.5,67.5,132.5,142.5,147.5,147.5,350
1,F,Sophie Valente,SBD,FR-T2,57,Raw,2000,,NY,55.65,77.5,87.5,-92.5,87.5,47.5,52.5,-55,52.5,97.5,100,-105,100,240
1,F,Brianna Diaz,SBD,FR-T3,72,Raw,1998,,NY,70.9,110,125,130,130,47.5,60,-67.5,60,132.5,145,152.5,152.5,342.5
1,M,Dexter W Floyd,BD,MR-O,105,Raw,1980,,NY,103.55,,,,,-125,135,142.5,142.5,205,227.5,242.5,242.5,385
1,F,Danielle Raynard,BD,FR-Jr,84,Raw,1994,,NY,73.7,,,,,57.5,67.5,-72.5,67.5,135,147.5,157.5,157.5,225
DQ,F,Jayne Marzello,BD,FR-O,57,Raw,1983,,NY,54.85,,,,,-50,-52.5,-52.5,,77.5,-82.5,82.5,82.5,
