Division,WeightClassKg,Place,Name,Team,BodyweightKg,Best3SquatKg,Best3BenchKg,Best3DeadliftKg,TotalKg,Equipment,Event,Sex
Boys,51.71,1,Parker Redman,Alvord,51.62,120.2,72.57,113.4,306.17,Single-ply,SBD,M
Boys,51.71,2,Raiden Brezina,Bowie,47.85,102.06,49.9,102.06,254.01,Single-ply,SBD,M
Boys,51.71,3,Jesse Butler,Alvord,50.53,77.11,49.9,99.79,226.8,Single-ply,SBD,M
Boys,51.71,4,Trenton Cottrell,Paradise,47.9,90.72,49.9,83.91,224.53,Single-ply,SBD,M
Boys,51.71,5,Hunter Bowen,Boyd,44.72,86.18,40.82,86.18,213.19,Single-ply,SBD,M
Boys,55.79,1,Justin Christensen,Alvord,54.88,170.1,88.45,165.56,424.11,Single-ply,SBD,M
Boys,55.79,2,Jacob Crawford,Bowie,55.75,108.86,61.23,115.67,285.76,Single-ply,SBD,M
Boys,55.79,3,Colten Adler,Ponder,53.8,95.25,56.7,102.06,254.01,Single-ply,SBD,M
Boys,59.87,1,Payton Miller,Alvord,59.78,204.12,111.13,183.7,498.95,Single-ply,SBD,M
Boys,59.87,2,Roman Rivas,Bowie,59.15,151.95,88.45,170.1,410.5,Single-ply,SBD,M
Boys,59.87,3,Ethan Meyers,Bowie,58.79,147.42,86.18,163.29,396.89,Single-ply,SBD,M
Boys,59.87,4,Josh Christian,Boyd,59.78,149.69,68.04,136.08,353.8,Single-ply,SBD,M
Boys,59.87,5,Colton Covington,Bowie,56.61,117.93,74.84,142.88,335.66,Single-ply,SBD,M
Boys,59.87,6,Lane Nelson,Paradise,59.69,111.13,74.84,113.4,299.37,Single-ply,SBD,M
Boys,59.87,7,Nathan Curry,Bowie,57.15,108.86,65.77,111.13,285.76,Single-ply,SBD,M
Boys,59.87,DQ,Seth Wilbur,Paradise,56.88,,,,,Single-ply,SBD,M
Boys,59.87,DQ,Jarrett Morris,Paradise,56.15,151.95,79.38,,,Single-ply,SBD,M
Boys,67.13,1,Dalton Davis,Bowie,62.87,174.63,106.59,188.24,469.47,Single-ply,SBD,M
Boys,67.13,2,Jakob Dumke,Alvord,66.04,163.29,111.13,174.63,449.06,Single-ply,SBD,M
Boys,67.13,3,Ottis Carter,Ponder,67.13,154.22,83.91,156.49,394.63,Single-ply,SBD,M
Boys,67.13,4,Julian Perez,Paradise,66.86,151.95,81.65,154.22,387.82,Single-ply,SBD,M
Boys,67.13,5,Chase Taylor,Ponder,67.04,149.69,77.11,124.74,351.53,Single-ply,SBD,M
Boys,67.13,6,Devin Melton,Bowie,64.32,122.47,56.7,142.88,322.05,Single-ply,SBD,M
Boys,67.13,DQ,Drew Epperson,Alvord,65.68,83.91,,,,Single-ply,SBD,M
Boys,67.13,DQ,Payton Meroney,Ponder,64.41,120.2,,,,Single-ply,SBD,M
Boys,67.13,DQ,Alfonso Barraza,Ponder,60.96,136.08,,,,Single-ply,SBD,M
Boys,67.13,DQ,Colby Delao,Bowie,65.68,149.69,86.18,,,Single-ply,SBD,M
Boys,67.13,DQ,Lane Stevens,Paradise,65.23,149.69,99.79,,,Single-ply,SBD,M
Boys,74.84,1,Wyatt Reeves,Paradise,72.12,204.12,122.47,217.72,544.31,Single-ply,SBD,M
Boys,74.84,2,Joey Crawford,Bowie,72.48,176.9,104.33,206.38,487.61,Single-ply,SBD,M
Boys,74.84,3,Terrance Clark,Ponder,74.75,161.03,86.18,170.1,417.3,Single-ply,SBD,M
Boys,74.84,4,Abraham Aguirre,Bowie,72.48,149.69,83.91,174.63,408.23,Single-ply,SBD,M
Boys,74.84,5,Silas Carrillo,Bowie,71.94,156.49,81.65,158.76,396.89,Single-ply,SBD,M
Boys,74.84,6,Tommy White,Paradise,74.39,131.54,74.84,120.2,326.59,Single-ply,SBD,M
Boys,74.84,7,Hunter Aberl,Paradise,72.76,115.67,61.23,129.27,306.17,Single-ply,SBD,M
Boys,74.84,DQ,Aj Craddock,Bowie,73.21,,,,,Single-ply,SBD,M
Boys,82.1,1,Dillon Inman,Boyd,80.38,217.72,151.95,192.78,562.45,Single-ply,SBD,M
Boys,82.1,2,Jacob Skinner,Bowie,81.1,217.72,138.35,204.12,560.19,Single-ply,SBD,M
Boys,82.1,3,Victor Tran,Bowie,81.56,215.46,120.2,217.72,553.38,Single-ply,SBD,M
Boys,82.1,4,Jacob Robinson,Paradise,81.65,199.58,108.86,213.19,521.63,Single-ply,SBD,M
Boys,82.1,5,Turner Edwards,Paradise,81.92,170.1,113.4,163.29,446.79,Single-ply,SBD,M
Boys,82.1,6,Hunter Nash,Boyd,81.01,158.76,92.99,170.1,421.84,Single-ply,SBD,M
Boys,82.1,7,Joe Gonzalez,Paradise,76.57,158.76,95.25,165.56,419.57,Single-ply,SBD,M
Boys,82.1,8,Victor Fernandez,Ponder,81.47,154.22,113.4,145.15,412.77,Single-ply,SBD,M
Boys,82.1,9,Grant Caddell,Paradise,77.38,147.42,99.79,158.76,405.97,Single-ply,SBD,M
Boys,82.1,10,Ezra Fox,Alvord,82.1,149.69,99.79,151.95,401.43,Single-ply,SBD,M
Boys,82.1,11,Chris Osterbuhr,Bowie,80.92,151.95,77.11,156.49,385.55,Single-ply,SBD,M
Boys,82.1,12,JR Castillo,Bowie,79.11,156.49,92.99,133.81,383.29,Single-ply,SBD,M
Boys,82.1,13,Tanner Wallace,Paradise,80.1,117.93,79.38,122.47,319.78,Single-ply,SBD,M
Boys,89.81,1,Jacob Ramos,Paradise,88.72,181.44,113.4,195.04,489.88,Single-ply,SBD,M
Boys,89.81,2,Cameron Carroll,Ponder,82.64,174.63,115.67,192.78,483.08,Single-ply,SBD,M
Boys,89.81,3,Benjamin Antzank,Ponder,89.63,172.37,95.25,181.44,449.06,Single-ply,SBD,M
Boys,89.81,4,Brac Jones,Paradise,86.36,147.42,113.4,140.61,401.43,Single-ply,SBD,M
Boys,89.81,5,Todd Holmes,Bowie,85.91,142.88,83.91,163.29,390.09,Single-ply,SBD,M
Boys,89.81,DQ,Hunter Harris,Alvord,84.28,,,,,Single-ply,SBD,M
Boys,99.79,1,Zackary Otto,Bowie,97.43,238.14,140.61,206.38,585.13,Single-ply,SBD,M
Boys,99.79,2,Kaleb Evans,Paradise,94.98,222.26,122.47,233.6,578.33,Single-ply,SBD,M
Boys,99.79,3,Dawson White,Boyd,91.08,176.9,113.4,183.7,474,Single-ply,SBD,M
Boys,99.79,4,Carson Tinney,Paradise,99.79,183.7,104.33,181.44,469.47,Single-ply,SBD,M
Boys,99.79,5,Coleton Price,Bowie,94.8,185.97,99.79,158.76,444.52,Single-ply,SBD,M
Boys,99.79,6,Jon Newton,Alvord,94.35,145.15,99.79,145.15,390.09,Single-ply,SBD,M
Boys,99.79,7,Matthew Dankesreiter,Ponder,98.79,163.29,68.04,127.01,358.34,Single-ply,SBD,M
Boys,99.79,8,Hunter Wade,Bowie,94.21,113.4,74.84,104.33,292.57,Single-ply,SBD,M
Boys,109.77,1,Bryan Arellano,Bowie,107.59,238.14,154.22,179.17,571.53,Single-ply,SBD,M
Boys,109.77,2,Dain Warnick,Alvord,101.42,222.26,113.4,195.04,530.7,Single-ply,SBD,M
Boys,109.77,3,Brian DeLeon,Ponder,108.05,185.97,102.06,158.76,446.79,Single-ply,SBD,M
Boys,109.77,4,Jonathan Rodriguez,Paradise,100.79,163.29,90.72,136.08,390.09,Single-ply,SBD,M
Boys,109.77,5,Gage Barclay,Alvord,102.42,142.88,97.52,142.88,383.29,Single-ply,SBD,M
Boys,109.77,DQ,Edward Shell,Ponder,100.15,185.97,90.72,,,Single-ply,SBD,M
Boys,124.74,1,Bartolo Guevara,Boyd,119.29,306.17,156.49,215.46,678.12,Single-ply,SBD,M
Boys,124.74,2,Clayton Godwin,Paradise,121.65,226.8,136.08,199.58,562.45,Single-ply,SBD,M
Boys,124.74,3,Kaleb Crable,Alvord,112.13,176.9,99.79,163.29,439.98,Single-ply,SBD,M
Boys,124.74,4,Joshua Cortez,Ponder,117.39,185.97,88.45,158.76,433.18,Single-ply,SBD,M
Boys,124.74,5,William Estel,Boyd,114.76,149.69,83.91,136.08,369.68,Single-ply,SBD,M
Boys,124.74+,1,Zach Brown,Alvord,140.61,290.3,154.22,242.67,687.19,Single-ply,SBD,M
Boys,124.74+,2,Tyler Yeck,Ponder,165.11,183.7,147.42,233.6,564.72,Single-ply,SBD,M
Boys,124.74+,3,Tyson Herron,Bowie,150.14,190.51,133.81,183.7,508.02,Single-ply,SBD,M
Boys,124.74+,DQ,McCain Cantrell,Boyd,132,,,,,Single-ply,SBD,M
