Name,WeightClassKg,Division,Sex,Best3SquatKg,Best3BenchKg,Best3DeadliftKg,TotalKg,Age,Event,Equipment,Place
Lisa Giglia,52,Novice,F,97.52,40.82,136.08,274.42,,SBD,Single-ply,1
A. Schneidmill,56,Novice,F,124.74,70.31,142.88,337.93,,SBD,Single-ply,1
C. Roach,56,Novice,F,95.25,77.11,136.08,308.44,,SBD,Single-ply,2
Iva Zima,56,Novice,F,108.86,58.97,136.08,303.91,,SBD,Single-ply,3
Maggie Blaggoff,60,Novice,F,113.4,65.77,136.08,315.25,,SBD,Single-ply,1
L. Crowder,60,Novice,F,113.4,47.63,127.01,288.03,,SBD,Single-ply,2
L. Boynton,60,Novice,F,88.45,52.16,113.4,254.01,,SBD,Single-ply,3
N. Dyess,67.5,Novice,F,104.33,56.7,95.25,256.28,,SBD,Single-ply,1
J. McCartney,75,Novice,F,195.04,83.91,199.58,478.54,,SBD,Single-ply,1
K. Lowell,75,Novice,F,158.76,90.72,149.69,399.16,,SBD,Single-ply,2
C. Black,75,Novice,F,145.15,77.11,163.29,385.55,,SBD,Single-ply,3
Lisa Nawrocki,90,Novice,F,181.44,129.27,215.46,526.17,,SBD,Single-ply,1
K. Besuden,60,Open,F,145.15,70.31,161.03,376.48,,SBD,Single-ply,1
Cathy Roydhouse,67.5,Open,F,140.61,99.79,158.76,399.16,,SBD,Single-ply,1
S. Gagne,67.5,Open,F,131.54,79.38,138.35,349.27,,SBD,Single-ply,2
Joe Williams,60,Novice,M,149.69,127.01,167.83,444.52,18,SBD,Single-ply,1
Rick Bomar,67.5,Novice,M,188.24,149.69,208.65,546.58,,SBD,Single-ply,1
Danny Kresge,67.5,Novice,M,201.85,136.08,197.31,535.24,,SBD,Single-ply,2
V. Brown,67.5,Novice,M,188.24,117.93,199.58,505.76,,SBD,Single-ply,3
D. Viars,67.5,Novice,M,158.76,131.54,204.12,494.42,,SBD,Single-ply,4
D. Amicone,67.5,Novice,M,163.29,111.13,170.1,444.52,,SBD,Single-ply,5
J. Mobley,67.5,Novice,M,129.27,127.01,181.44,437.72,,SBD,Single-ply,6
F. Deutschman,67.5,Novice,M,145.15,88.45,151.95,385.55,,SBD,Single-ply,7
R. Hartzog,75,Novice,M,201.85,122.47,226.8,551.12,,SBD,Single-ply,1
M. Dixon,75,Novice,M,192.78,104.33,210.92,508.02,,SBD,Single-ply,2
J. Sams,75,Novice,M,136.08,151.95,195.04,483.08,,SBD,Single-ply,3
C. Ulrich,75,Novice,M,158.76,113.4,199.58,471.74,,SBD,Single-ply,4
D. Hamilton,75,Novice,M,158.76,120.2,163.29,442.25,,SBD,Single-ply,5
Al Lane,82.5,Novice,M,240.4,163.29,249.48,653.17,,SBD,Single-ply,1
J. Hannifan,82.5,Novice,M,217.72,131.54,229.06,578.33,,SBD,Single-ply,2
M. Martez,82.5,Novice,M,242.67,117.93,215.46,576.06,,SBD,Single-ply,3
C. Guensch,82.5,Novice,M,215.46,131.54,215.46,562.46,,SBD,Single-ply,4
M. Dunlap,82.5,Novice,M,199.58,142.88,215.46,557.92,,SBD,Single-ply,5
J. Thrift,82.5,Novice,M,192.78,154.22,206.38,553.38,,SBD,Single-ply,6
Steve Beck,90,Novice,M,247.21,156.49,244.94,648.64,,SBD,Single-ply,1
Dave Miller,90,Novice,M,229.06,176.9,240.4,646.37,,SBD,Single-ply,2
R. Boynton,90,Novice,M,215.46,154.22,204.12,573.8,,SBD,Single-ply,3
K. Stover,90,Novice,M,195.04,167.83,208.65,571.53,,SBD,Single-ply,4
B. Hough,90,Novice,M,190.51,117.93,213.19,521.63,,SBD,Single-ply,5
B. Bennett,90,Novice,M,147.42,115.67,210.92,474,,SBD,Single-ply,6
Jim Bibby,100,Novice,M,244.94,147.42,249.48,641.83,,SBD,Single-ply,1
Tom Alter,100,Novice,M,244.94,161.03,233.6,639.57,,SBD,Single-ply,2
M. Bunn,100,Novice,M,208.65,131.54,229.06,569.26,,SBD,Single-ply,3
D. Eldridge,100,Novice,M,201.85,142.88,222.26,566.99,,SBD,Single-ply,4
J. Lombardi,100,Novice,M,192.78,151.95,204.12,548.85,,SBD,Single-ply,5
T. Everett,100,Novice,M,113.4,90.72,158.76,362.87,,SBD,Single-ply,6
F. Zangialosi,110,Novice,M,254.01,142.88,283.5,680.39,,SBD,Single-ply,1
G. Hood,110,Novice,M,208.65,133.81,201.85,544.31,,SBD,Single-ply,2
A. Fortner,110,Novice,M,172.37,124.74,183.71,480.81,,SBD,Single-ply,3
Tom Mahoney,125,Novice,M,281.23,183.71,299.37,764.3,,SBD,Single-ply,1
K. Sopp,125,Novice,M,222.26,170.1,290.3,682.66,,SBD,Single-ply,2
M. Roydhouse,125,Novice,M,249.48,142.88,204.12,596.47,,SBD,Single-ply,3
James Sicuro,125+,Novice,M,340.19,192.78,258.55,791.52,,SBD,Single-ply,1
R. Rice,125+,Novice,M,247.21,165.56,204.12,616.89,,SBD,Single-ply,2
E. Swannie,125+,Novice,M,229.06,158.76,226.8,614.62,,SBD,Single-ply,3
Joe Williams,60,Teen,M,149.69,127.01,167.83,444.52,18,SBD,Single-ply,1
T. Holding,,Teen,M,197.31,140.61,226.8,564.72,,SBD,Single-ply,1
J. Pelkey,,Teen,M,167.83,99.79,199.58,467.2,,SBD,Single-ply,2
D. Porio,,Teen,M,206.38,161.03,183.71,551.12,,SBD,Single-ply,3
J. Hacker,,Teen,M,172.37,154.22,204.12,530.7,,SBD,Single-ply,4
T. Beifuss,,Teen,M,201.85,158.76,217.72,578.33,,SBD,Single-ply,5
R. Antrop,,Teen,M,111.13,90.72,151.95,353.8,,SBD,Single-ply,6
E. Swannie,125+,Teen,M,229.06,158.76,226.8,614.62,,SBD,Single-ply,7
C. Blevins,,Masters,M,215.46,115.67,213.19,544.31,,SBD,Single-ply,1
D. Brown,,Masters,M,176.9,102.06,183.71,462.66,,SBD,Single-ply,2
J. Flint,,Masters,M,192.78,133.81,204.12,530.7,,SBD,Single-ply,3
Ken Snell,56,Open,M,158.76,102.06,181.44,442.25,,SBD,Single-ply,1
Tony Conyers,67.5,Open,M,267.62,181.44,254.01,703.07,,SBD,Single-ply,1
Dave Dial,75,Open,M,265.35,179.17,272.16,716.68,,SBD,Single-ply,1
R. Margsial,75,Open,M,249.48,165.56,247.21,662.25,,SBD,Single-ply,2
P. Hall,75,Open,M,238.14,172.37,249.48,659.98,,SBD,Single-ply,3
G. Thompson,75,Open,M,249.48,179.17,204.12,632.76,,SBD,Single-ply,4
D. Divona,82.5,Open,M,290.3,145.15,260.82,696.27,,SBD,Single-ply,1
W. Conoly,82.5,Open,M,226.8,181.44,249.48,657.71,,SBD,Single-ply,2
B. Mitchell,82.5,Open,M,229.06,136.08,272.16,637.3,,SBD,Single-ply,3
A. Roberts,90,Open,M,238.14,145.15,283.5,666.78,,SBD,Single-ply,1
W. Hayward,90,Open,M,215.46,140.61,244.94,601.01,,SBD,Single-ply,2
B. Hollub,90,Open,M,235.87,147.42,213.19,596.47,,SBD,Single-ply,3
Wilfred Strange,100,Open,M,326.59,222.26,294.84,843.68,,SBD,Single-ply,1
R. Gelineau,100,Open,M,249.48,136.08,226.8,612.35,,SBD,Single-ply,2
M. Roach,110,Open,M,240.4,213.19,226.8,680.39,,SBD,Single-ply,1
Miles Wetzel,125,Open,M,290.3,206.38,322.05,818.74,,SBD,Single-ply,1
C. Iorio,125,Open,M,254.01,181.44,238.14,673.59,,SBD,Single-ply,2
