Division,WeightClassKg,Place,Name,Team,BodyweightKg,Best3SquatKg,Best3BenchKg,Best3DeadliftKg,TotalKg,Equipment,Event,Sex
Boys,51.71,1,Jeff Smith,Valley Mills,49.9,142.88,79.38,142.88,365.14,Single-ply,SBD,M
Boys,51.71,2,DeVante Graves,Chilton,51.62,95.25,56.7,120.2,272.16,Single-ply,SBD,M
Boys,51.71,3,Pablo Avalos,West,46.08,99.79,58.97,111.13,269.89,Single-ply,SBD,M
Boys,51.71,4,Travis Lacina,Crawford,48.81,99.79,52.16,102.06,254.01,Single-ply,SBD,M
Boys,51.71,5,Mike Lundberg,West,49.53,92.99,49.9,92.99,235.87,Single-ply,SBD,M
Boys,51.71,6,Jon Guzman,China Spring,40.19,77.11,40.82,102.06,219.99,Single-ply,SBD,M
Boys,55.79,7,Joseph Bravo,Waco Reicher Catholic,51.89,70.31,47.63,92.99,210.92,Single-ply,SBD,M
Boys,51.71,DQ,Nelson Musgrave,Waco Connally,51.71,70.31,,,,Single-ply,SBD,M
Boys,55.79,1,Tanner Blackwell,Gatesville,54.34,124.74,72.57,136.08,333.39,Single-ply,SBD,M
Boys,55.79,2,Dane Rodriguez,Chilton,55.61,124.74,72.57,124.74,322.05,Single-ply,SBD,M
Boys,55.79,3,Brad Gravitt,China Spring,55.43,111.13,63.5,142.88,317.51,Single-ply,SBD,M
Boys,55.79,4,Jesse Berry,Crawford,54.52,117.93,65.77,131.54,315.25,Single-ply,SBD,M
Boys,55.79,5,Bill Nebors,Waco La Vega,55.61,102.06,72.57,133.81,308.44,Single-ply,SBD,M
Boys,55.79,6,Tanner Dodd,Robinson,53.25,104.33,74.84,122.47,301.64,Single-ply,SBD,M
Boys,55.79,7,Jordan Smith,Valley Mills,54.98,113.4,70.31,108.86,292.57,Single-ply,SBD,M
Boys,55.79,8,Jacob Raborn,China Spring,54.79,95.25,58.97,122.47,276.69,Single-ply,SBD,M
Boys,59.87,1,Josh McCraw,Gatesville,58.42,183.7,92.99,172.37,449.06,Single-ply,SBD,M
Boys,59.87,2,Wesley Barnhill,Lorena,58.79,167.83,104.33,149.69,421.84,Single-ply,SBD,M
Boys,59.87,3,Rey Castro,Waco Reicher Catholic,59.69,142.88,88.45,161.03,392.36,Single-ply,SBD,M
Boys,67.13,4,Melvin Flores,Lampasas,60.1,136.08,72.57,145.15,353.8,Single-ply,SBD,M
Boys,59.87,5,Colton Reeves,Valley Mills,59.6,108.86,68.04,136.08,312.98,Single-ply,SBD,M
Boys,59.87,6,Adrian Rodriguez,Lorena,56.61,113.4,61.23,136.08,310.71,Single-ply,SBD,M
Boys,59.87,7,Sebastian Allen,Valley Mills,58.42,124.74,56.7,127.01,308.44,Single-ply,SBD,M
Boys,59.87,8,Marco Munoz,Lampasas,57.15,113.4,58.97,127.01,299.37,Single-ply,SBD,M
Boys,59.87,9,Joey Leavelle,Robinson,57.52,108.86,63.5,117.93,290.3,Single-ply,SBD,M
Boys,59.87,10,Noah Contella,Waco Reicher Catholic,58.15,102.06,70.31,108.86,281.23,Single-ply,SBD,M
Boys,67.13,11,Myles Robison,Valley Mills,60.1,95.25,61.23,124.74,281.23,Single-ply,SBD,M
Boys,59.87,12,Zach Rankin,West,57.79,95.25,68.04,113.4,276.69,Single-ply,SBD,M
Boys,59.87,13,Patricio Rodriguez,Lorena,56.06,97.52,61.23,102.06,260.82,Single-ply,SBD,M
Boys,59.87,14,Hunter Solano,Waco Reicher Catholic,59.15,90.72,47.63,90.72,229.06,Single-ply,SBD,M
Boys,59.87,DQ,Samuel Barrientes,Chilton,59.51,,,,,Single-ply,SBD,M
Boys,67.13,1,Tyrell Irby,Waco La Vega,66.68,229.06,140.61,249.48,619.15,Single-ply,SBD,M
Boys,67.13,2,Jong Hoon Lim,Gatesville,66.13,167.83,102.06,181.44,451.32,Single-ply,SBD,M
Boys,67.13,3,Cruz Dominguez,Chilton,60.96,147.42,104.33,179.17,430.91,Single-ply,SBD,M
Boys,67.13,4,Kyle Castilleja,Hearne,65.77,133.81,77.11,165.56,376.48,Single-ply,SBD,M
Boys,67.13,5,Vincent Bell,Chilton,66.22,142.88,68.04,158.76,369.68,Single-ply,SBD,M
Boys,67.13,6,Marc Martinez,Hearne,64.32,142.88,70.31,154.22,367.41,Single-ply,SBD,M
Boys,67.13,7,Adrian Zackery,Lampasas,60.96,136.08,68.04,158.76,362.87,Single-ply,SBD,M
Boys,67.13,8,Chase McGhee,Gatesville,65.68,129.27,83.91,142.88,356.07,Single-ply,SBD,M
Boys,67.13,9,Devonne Adkinson,China Spring,65.41,113.4,86.18,151.95,351.53,Single-ply,SBD,M
Boys,67.13,10,Matt Barnard,Lorena,64.77,124.74,81.65,138.35,344.73,Single-ply,SBD,M
Boys,67.13,11,Donavan McGruder,West,66.86,113.4,79.38,151.95,344.73,Single-ply,SBD,M
Boys,67.13,12,Lane Fikes,Robinson,61.69,117.93,70.31,154.22,342.46,Single-ply,SBD,M
Boys,67.13,13,Isaac Tinnell,Hearne,65.14,106.59,63.5,124.74,294.84,Single-ply,SBD,M
Boys,67.13,14,Logan Kilpatrick,Valley Mills,62.41,104.33,56.7,111.13,272.16,Single-ply,SBD,M
Boys,67.13,DQ,Cameron Terrell,Waco Connally,62.51,,,,,Single-ply,SBD,M
Boys,74.84,DQ,Derek Christensen,Crawford,67.36,99.79,,,,Single-ply,SBD,M
Boys,74.84,1,Hunter Fritscher,Crawford,74.03,235.87,117.93,204.12,557.92,Single-ply,SBD,M
Boys,74.84,2,Collin Cresson,Lorena,74.21,185.97,115.67,183.7,485.34,Single-ply,SBD,M
Boys,74.84,3,Chris Castileja,Hearne,74.21,179.17,113.4,183.7,476.27,Single-ply,SBD,M
Boys,74.84,4,Jacob Martinez,Hearne,73.94,147.42,92.99,206.38,446.79,Single-ply,SBD,M
Boys,74.84,5,Tom Lawless,Rogers,68.95,172.37,90.72,181.44,444.52,Single-ply,SBD,M
Boys,74.84,6,John Lawless,Rogers,72.21,167.83,95.25,181.44,444.52,Single-ply,SBD,M
Boys,74.84,7,Weldon Bleything,Crawford,71.94,167.83,79.38,183.7,430.91,Single-ply,SBD,M
Boys,74.84,8,Kadale Kolar,West,72.21,151.95,90.72,158.76,401.43,Single-ply,SBD,M
Boys,74.84,9,Ramiro Fraire,West,69.49,151.95,79.38,158.76,390.09,Single-ply,SBD,M
Boys,74.84,10,Matt Karl,Chilton,72.3,145.15,83.91,156.49,385.55,Single-ply,SBD,M
Boys,74.84,11,Manual Garcia,Waco La Vega,74.48,145.15,86.18,145.15,376.48,Single-ply,SBD,M
Boys,74.84,12,Cole Anderson,West,72.39,136.08,92.99,145.15,374.21,Single-ply,SBD,M
Boys,74.84,13,Keith Skopik,Waco Connally,74.03,129.27,74.84,136.08,340.19,Single-ply,SBD,M
Boys,74.84,14,Brandon Pierce,Valley Mills,71.67,127.01,72.57,136.08,335.66,Single-ply,SBD,M
Boys,74.84,15,Cody Kemp,Waco Connally,68.4,108.86,74.84,129.27,312.98,Single-ply,SBD,M
Boys,74.84,16,Travis Semmel,Gatesville,73.75,102.06,83.91,127.01,312.98,Single-ply,SBD,M
Boys,74.84,17,Richard Fetzek,Valley Mills,67.86,95.25,70.31,140.61,306.17,Single-ply,SBD,M
Boys,82.1,1,Brody Jones,Crawford,78.02,195.04,122.47,183.7,501.22,Single-ply,SBD,M
Boys,82.1,2,Jack Baskin,Lorena,80.74,195.04,104.33,195.04,494.42,Single-ply,SBD,M
Boys,82.1,3,Farrin DeHerrerra,China Spring,80.74,188.24,99.79,204.12,492.15,Single-ply,SBD,M
Boys,82.1,4,Daniel Stanley,China Spring,77.66,161.03,124.74,195.04,480.81,Single-ply,SBD,M
Boys,82.1,5,Chris Olsen,Crawford,80.47,172.37,111.13,197.31,480.81,Single-ply,SBD,M
Boys,89.81,6,Kevin Drake,Hearne,82.33,165.56,108.86,183.7,458.13,Single-ply,SBD,M
Boys,82.1,7,Austin McNeill,Rogers,79.65,158.76,97.52,192.78,449.06,Single-ply,SBD,M
Boys,82.1,8,Chris Gaines,Waco Connally,81.56,156.49,111.13,181.44,449.06,Single-ply,SBD,M
Boys,82.1,9,Dauntay Horne,Chilton,75.84,158.76,92.99,188.24,439.98,Single-ply,SBD,M
Boys,82.1,10,Sean McGrew,Hearne,76.75,163.29,102.06,174.63,439.98,Single-ply,SBD,M
Boys,89.81,11,Sean Hill,China Spring,82.33,167.83,99.79,170.1,437.72,Single-ply,SBD,M
Boys,82.1,12,Alan Figurski,Lampasas,75.66,154.22,102.06,174.63,430.91,Single-ply,SBD,M
Boys,82.1,13,Cody Jandreau,Lampasas,77.11,158.76,117.93,154.22,430.91,Single-ply,SBD,M
Boys,82.1,14,Malik Hampton,Waco La Vega,79.29,142.88,92.99,151.95,387.82,Single-ply,SBD,M
Boys,82.1,15,Matthew Davis,Robinson,77.2,149.69,81.65,149.69,381.02,Single-ply,SBD,M
Boys,82.1,16,Tyler Atkinson,Lorena,81.47,140.61,92.99,145.15,378.75,Single-ply,SBD,M
Boys,82.1,17,Kameron Smith,Chilton,81.65,138.35,90.72,124.74,353.8,Single-ply,SBD,M
Boys,82.1,DQ,Dustin McLearen,Gatesville,78.38,,,,,Single-ply,SBD,M
Boys,82.1,DQ,Dylan Mendoza,Rogers,78.56,142.88,,,,Single-ply,SBD,M
Boys,89.81,1,Dustin Westerfield,Waco La Vega,89.63,208.65,127.01,181.44,517.1,Single-ply,SBD,M
Boys,89.81,2,Cedric Carter,Chilton,88.27,195.04,120.2,192.78,508.02,Single-ply,SBD,M
Boys,89.81,3,Mike Drummond,Waco La Vega,84.64,190.51,111.13,199.58,501.22,Single-ply,SBD,M
Boys,89.81,4,Terrance Ratliff,Waco Connally,83.73,174.63,129.27,195.04,498.95,Single-ply,SBD,M
Boys,89.81,5,Trent Munden,China Spring,89.36,183.7,104.33,204.12,492.15,Single-ply,SBD,M
Boys,89.81,6,Matt Gerik,West,89.72,170.1,95.25,156.49,421.84,Single-ply,SBD,M
Boys,89.81,7,Austin Bohannon,Valley Mills,82.83,142.88,95.25,154.22,392.36,Single-ply,SBD,M
Boys,89.81,8,Seth Pomykal,Chilton,87.82,145.15,88.45,149.69,383.29,Single-ply,SBD,M
Boys,89.81,9,Ryan McAdams,Waco Connally,88.72,129.27,79.38,170.1,378.75,Single-ply,SBD,M
Boys,89.81,10,Bobby Reed,Gatesville,89.72,133.81,79.38,163.29,376.48,Single-ply,SBD,M
Boys,89.81,11,Jacob Kevil,Crawford,83.01,142.88,86.18,142.88,371.95,Single-ply,SBD,M
Boys,89.81,12,Shawn Stafford,Gatesville,84.91,142.88,68.04,156.49,367.41,Single-ply,SBD,M
Boys,99.79,1,Matt Meader,Gatesville,94.53,226.8,131.54,235.87,594.21,Single-ply,SBD,M
Boys,99.79,2,Chris Johnson,Waco Connally,98.43,204.12,124.74,215.46,544.31,Single-ply,SBD,M
Boys,99.79,3,Secody Howard,Lampasas,94.08,183.7,111.13,226.8,521.63,Single-ply,SBD,M
Boys,99.79,4,Chris Robinson #5,Waco Connally,90.81,188.24,120.2,195.04,503.49,Single-ply,SBD,M
Boys,99.79,5,Shaq Walker,Waco La Vega,93.44,195.04,104.33,204.12,503.49,Single-ply,SBD,M
Boys,99.79,6,Jakob Coker,Lorena,92.53,197.31,131.54,172.37,501.22,Single-ply,SBD,M
Boys,99.79,7,Ej Waggy,Rogers,93.44,181.44,113.4,192.78,487.61,Single-ply,SBD,M
Boys,99.79,8,Guadulope Munoz,Waco La Vega,99.79,192.78,120.2,174.63,487.61,Single-ply,SBD,M
Boys,99.79,9,Alex Flores,Hearne,94.08,174.63,108.86,197.31,480.81,Single-ply,SBD,M
Boys,99.79,10,Cyle Hickey,Crawford,98.25,185.97,86.18,192.78,464.93,Single-ply,SBD,M
Boys,99.79,11,Josh Valles,Lampasas,95.53,188.24,113.4,158.76,460.4,Single-ply,SBD,M
Boys,99.79,12,Tyler Pustejovsky,West,90.99,163.29,88.45,172.37,424.11,Single-ply,SBD,M
Boys,99.79,13,Ryan de la Garza,Waco Connally,97.89,165.56,83.91,174.63,424.11,Single-ply,SBD,M
Boys,99.79,14,Justin Rhyne,Gatesville,99.16,151.95,108.86,147.42,408.23,Single-ply,SBD,M
Boys,99.79,15,Blake Kasparian,Crawford,99.79,163.29,92.99,142.88,399.16,Single-ply,SBD,M
Boys,99.79,16,Colby Gohlke,Crawford,96.71,138.35,77.11,142.88,358.34,Single-ply,SBD,M
Boys,99.79,17,Stephen Brown,Lorena,93.8,108.86,83.91,117.93,310.71,Single-ply,SBD,M
Boys,99.79,18,Undra Smith,West,93.8,113.4,63.5,124.74,301.64,Single-ply,SBD,M
Boys,124.74,1,Garlin Gonzalez,Waco Reicher Catholic,109.95,283.5,181.44,276.69,741.62,Single-ply,SBD,M
Boys,109.77,2,Shurdon Simpson,Chilton,109.68,249.48,127.01,192.78,569.26,Single-ply,SBD,M
Boys,109.77,3,Colton Ridley,Gatesville,104.69,195.04,124.74,192.78,512.56,Single-ply,SBD,M
Boys,109.77,4,Jake Terry,Lampasas,105.78,181.44,120.2,185.97,487.61,Single-ply,SBD,M
Boys,109.77,5,Andy Gomez,Lampasas,107.68,204.12,106.59,170.1,480.81,Single-ply,SBD,M
Boys,109.77,6,Jesse Martinez,China Spring,104.33,181.44,115.67,172.37,469.47,Single-ply,SBD,M
Boys,109.77,7,Judah Crow,China Spring,100.7,170.1,120.2,147.42,437.72,Single-ply,SBD,M
Boys,109.77,8,Zak Hudspeth,Gatesville,101.7,158.76,83.91,181.44,424.11,Single-ply,SBD,M
Boys,109.77,9,Montana Monk,Robinson,106.59,136.08,92.99,136.08,365.14,Single-ply,SBD,M
Boys,109.77,10,Tanner Trigg,Valley Mills,105.96,117.93,86.18,138.35,342.46,Single-ply,SBD,M
Boys,109.77,DQ,David Zettler,Waco Reicher Catholic,109.13,,,,,Single-ply,SBD,M
Boys,124.74,1,Luis Ramírez,Waco Reicher Catholic,113.85,249.48,165.56,222.26,637.3,Single-ply,SBD,M
Boys,124.74,2,Joseph Holder,West,120.47,240.4,147.42,199.58,587.4,Single-ply,SBD,M
Boys,124.74,3,Austin Pierce,Lorena,116.94,229.06,140.61,183.7,553.38,Single-ply,SBD,M
Boys,124.74,4,Dwight Holder,Waco La Vega,124.38,226.8,136.08,190.51,553.38,Single-ply,SBD,M
Boys,124.74,5,Omar Cardosa,Waco Reicher Catholic,112.4,210.92,113.4,197.31,521.63,Single-ply,SBD,M
Boys,124.74,6,David Cockrell,Lampasas,110.77,181.44,127.01,170.1,478.54,Single-ply,SBD,M
Boys,124.74,7,Junior Quiroz,Gatesville,120.56,181.44,102.06,174.63,458.13,Single-ply,SBD,M
Boys,124.74,8,Trevor Beard,Lorena,117.03,181.44,102.06,154.22,437.72,Single-ply,SBD,M
Boys,124.74+,1,Brian Pullen,China Spring,126.1,231.33,138.35,206.38,576.06,Single-ply,SBD,M
Boys,124.74+,2,Justin Burgan,Gatesville,126.82,204.12,124.74,213.19,542.04,Single-ply,SBD,M
Boys,124.74+,3,Shane Murphy,Robinson,150.05,219.99,140.61,158.76,519.36,Single-ply,SBD,M
