Division,WeightClassKg,Place,Name,Team,BodyweightKg,Best3SquatKg,Best3BenchKg,Best3DeadliftKg,TotalKg,Equipment,Event,Sex
Boys,51.71,1,Rolando Gualardo,Frisco Centennial,51.26,108.86,65.77,113.4,288.03,Single-ply,SBD,M
Boys,51.71,2,Reid Morris,Frisco Wakeland,50.8,106.59,52.16,99.79,258.55,Single-ply,SBD,M
Boys,51.71,3,Precious Essien,Frisco Liberty,51.71,106.59,47.63,95.25,249.48,Single-ply,SBD,M
Boys,51.71,4,John Hammer,Frisco Centennial,47.63,61.23,34.02,68.04,163.29,Single-ply,SBD,M
Boys,55.79,1,Nate Lunsford,Frisco Wakeland,53.71,181.44,90.72,181.44,453.59,Single-ply,SBD,M
Boys,55.79,2,Gavin Carroll,Frisco Wakeland,55.16,149.69,81.65,151.95,383.29,Single-ply,SBD,M
Boys,55.79,3,Blake Battle,Frisco Liberty,55.79,136.08,77.11,129.27,342.46,Single-ply,SBD,M
Boys,55.79,4,Chris Medlin,Frisco Liberty,54.93,108.86,58.97,113.4,281.23,Single-ply,SBD,M
Boys,59.87,1,Zeke Castillo,Frisco Wakeland,57.65,149.69,74.84,158.76,383.29,Single-ply,SBD,M
Boys,59.87,2,Johnny Wilkins,Frisco Reedy,57.79,120.2,74.84,136.08,331.12,Single-ply,SBD,M
Boys,59.87,3,Andrew Zamaripa,Frisco Lone Star,58.06,129.27,65.77,131.54,326.59,Single-ply,SBD,M
Boys,59.87,4,Austin Hoxey,Frisco Reedy,58.56,120.2,70.31,131.54,322.05,Single-ply,SBD,M
Boys,59.87,5,Matthew Reed,Frisco Heritage,57.7,106.59,63.5,127.01,297.1,Single-ply,SBD,M
Boys,59.87,6,Jordan Rhoades,Frisco Independence,58.83,97.52,61.23,113.4,272.16,Single-ply,SBD,M
Boys,67.13,1,Jake Schumacher,Frisco Centennial,66.41,176.9,117.93,176.9,471.74,Single-ply,SBD,M
Boys,67.13,2,Zach Jones,Frisco Lone Star,65.18,158.76,83.91,183.7,426.38,Single-ply,SBD,M
Boys,67.13,3,Jordan Jones,Frisco Liberty,62.19,181.44,83.91,154.22,419.57,Single-ply,SBD,M
Boys,67.13,4,Nick Cryer,Frisco Wakeland,66.77,147.42,81.65,154.22,383.29,Single-ply,SBD,M
Boys,67.13,5,Ty Martin,Frisco Reedy,67,140.61,77.11,138.35,356.07,Single-ply,SBD,M
Boys,67.13,6,Gabe Hodges,Frisco Lone Star,63.73,124.74,70.31,154.22,349.27,Single-ply,SBD,M
Boys,67.13,7,Adam Thieson,Frisco Reedy,66.68,129.27,77.11,129.27,335.66,Single-ply,SBD,M
Boys,67.13,8,Evan Shatto,Frisco Heritage,64.95,97.52,74.84,145.15,317.51,Single-ply,SBD,M
Boys,67.13,9,Collin Wilbourn,Frisco Heritage,67,102.06,72.57,136.08,310.71,Single-ply,SBD,M
Boys,67.13,DQ,Danny Maroquin,Frisco Liberty,67.13,,,,,Single-ply,SBD,M
Boys,67.13,DQ,Sam Munir,Frisco,61.6,,,,,Single-ply,SBD,M
Boys,74.84,1,George Kennard,Frisco Wakeland,73.53,229.06,136.08,213.19,578.33,Single-ply,SBD,M
Boys,74.84,2,Christian Lee,Frisco Heritage,74.34,176.9,117.93,172.37,467.2,Single-ply,SBD,M
Boys,74.84,3,Aiden Kilbane,Frisco Lone Star,74.48,170.1,113.4,174.63,458.13,Single-ply,SBD,M
Boys,74.84,4,Dillon Mironti,Frisco Liberty,70.81,163.29,120.2,167.83,451.32,Single-ply,SBD,M
Boys,74.84,5,Devin Wyatt,Frisco,74.71,154.22,92.99,179.17,426.38,Single-ply,SBD,M
Boys,74.84,6,Steven Sacarello,Frisco Centennial,73.62,158.76,83.91,170.1,412.77,Single-ply,SBD,M
Boys,74.84,7,Marco Marcano,Frisco Heritage,67.45,140.61,68.04,149.69,358.34,Single-ply,SBD,M
Boys,74.84,8,Ethan Tackitt,Frisco Heritage,70.81,115.67,68.04,136.08,319.78,Single-ply,SBD,M
Boys,74.84,DQ,Justin Gipson,Frisco Reedy,73.16,197.31,115.67,,,Single-ply,SBD,M
Boys,74.84,DQ,Trevor Heavner,Frisco Reedy,70.85,165.56,97.52,,,Single-ply,SBD,M
Boys,82.1,1,Vance Hooper,Frisco Heritage,82.1,204.12,117.93,201.85,523.9,Single-ply,SBD,M
Boys,82.1,2,Ryan Lara,Frisco Independence,82.1,192.78,115.67,210.92,519.36,Single-ply,SBD,M
Boys,82.1,3,Isaac Williams,Frisco Centennial,81.37,208.65,102.06,183.7,494.42,Single-ply,SBD,M
Boys,82.1,4,Mathew Rechsteiner,Frisco Heritage,79.97,181.44,104.33,197.31,483.08,Single-ply,SBD,M
Boys,82.1,5,Kyle Johnson #3,Frisco,81.1,170.1,115.67,190.51,476.27,Single-ply,SBD,M
Boys,82.1,6,Dimitri Jones,Frisco Liberty,76.38,183.7,97.52,179.17,460.4,Single-ply,SBD,M
Boys,82.1,7,Ryan Newell,Frisco Centennial,81.96,163.29,99.79,188.24,451.32,Single-ply,SBD,M
Boys,82.1,8,Jonathan Vaquera,Frisco Wakeland,80.69,158.76,92.99,181.44,433.18,Single-ply,SBD,M
Boys,82.1,9,Brendan Foster,Frisco,79.24,147.42,108.86,167.83,424.11,Single-ply,SBD,M
Boys,82.1,10,Jaden Ramey,McKinney Boyd,80.88,147.42,104.33,172.37,424.11,Single-ply,SBD,M
Boys,82.1,11,Andrew Mills,McKinney,79.65,149.69,90.72,181.44,421.84,Single-ply,SBD,M
Boys,82.1,12,Dalton Hester,Frisco Reedy,79.79,156.49,90.72,165.56,412.77,Single-ply,SBD,M
Boys,82.1,13,Jarred Brown,Frisco Heritage,77.93,142.88,83.91,145.15,371.95,Single-ply,SBD,M
Boys,89.81,1,Jared Morris,McKinney North,88.22,206.38,124.74,240.4,571.53,Single-ply,SBD,M
Boys,89.81,2,Chris Ponder,McKinney,89.4,195.04,131.54,222.26,548.85,Single-ply,SBD,M
Boys,89.81,3,Taylor Heyen,Frisco Centennial,89.58,199.58,115.67,204.12,519.36,Single-ply,SBD,M
Boys,89.81,4,Khalil Lewis,McKinney North,89.72,192.78,108.86,210.92,512.56,Single-ply,SBD,M
Boys,89.81,5,Brandon Williams,Frisco Independence,85.5,197.31,108.86,204.12,510.29,Single-ply,SBD,M
Boys,89.81,6,Angel Okolie,McKinney,83.69,174.63,102.06,174.63,451.32,Single-ply,SBD,M
Boys,89.81,7,Brandon Cambre,Frisco Independence,88.63,163.29,95.25,181.44,439.98,Single-ply,SBD,M
Boys,89.81,8,Cade Wynn,Frisco Liberty,88.22,158.76,104.33,163.29,426.38,Single-ply,SBD,M
Boys,89.81,9,Nick Longoria,McKinney Boyd,87.86,145.15,92.99,167.83,405.97,Single-ply,SBD,M
Boys,89.81,10,Eric Hawkins,Frisco Lone Star,85.05,142.88,97.52,154.22,394.63,Single-ply,SBD,M
Boys,89.81,11,Ben Meriam,Frisco,89.36,131.54,90.72,158.76,381.02,Single-ply,SBD,M
Boys,89.81,DQ,Laurence Lewis,Frisco Reedy,88.36,158.76,97.52,,,Single-ply,SBD,M
Boys,99.79,1,Matt Hawk,Frisco Independence,99.47,206.38,138.35,213.19,557.92,Single-ply,SBD,M
Boys,99.79,2,Zach Barenberg,McKinney Boyd,98.02,204.12,136.08,215.46,555.65,Single-ply,SBD,M
Boys,99.79,3,Sullivan MacLean,Frisco Centennial,93.21,217.72,117.93,217.72,553.38,Single-ply,SBD,M
Boys,99.79,4,Rafay Usman,Frisco Liberty,94.94,190.51,131.54,204.12,526.17,Single-ply,SBD,M
Boys,99.79,5,Collin Moore,Frisco Centennial,99.79,204.12,122.47,181.44,508.02,Single-ply,SBD,M
Boys,99.79,6,Sam Guzman,McKinney Boyd,95.57,190.51,113.4,201.85,505.76,Single-ply,SBD,M
Boys,99.79,7,Britt Lewis,Frisco,94.53,170.1,117.93,172.37,460.4,Single-ply,SBD,M
Boys,99.79,8,Seye Akinwale,Frisco Heritage,97.34,149.69,117.93,192.78,460.4,Single-ply,SBD,M
Boys,99.79,9,Logan Steitle,Frisco,98.97,163.29,120.2,176.9,460.4,Single-ply,SBD,M
Boys,99.79,10,Braden Torres-Labrie,Frisco Heritage,93.8,181.44,108.86,163.29,453.59,Single-ply,SBD,M
Boys,99.79,11,Vincent Ton,Frisco,94.26,165.56,111.13,176.9,453.59,Single-ply,SBD,M
Boys,99.79,12,James Craft,McKinney North,95.03,163.29,90.72,181.44,435.45,Single-ply,SBD,M
Boys,99.79,13,Trevon Gray,Frisco Lone Star,94.71,151.95,111.13,158.76,421.84,Single-ply,SBD,M
Boys,99.79,14,Caleb Moore,Frisco Lone Star,91.76,142.88,102.06,163.29,408.23,Single-ply,SBD,M
Boys,99.79,DQ,Emanuel Kim,Frisco Reedy,92.08,165.56,90.72,,,Single-ply,SBD,M
Boys,109.77,1,Tyler Ballard,Frisco Liberty,106.23,219.99,133.81,204.12,557.92,Single-ply,SBD,M
Boys,109.77,2,Noah Schwartz,Frisco Wakeland,106.64,181.44,124.74,188.24,494.42,Single-ply,SBD,M
Boys,109.77,3,Tom McGowan,McKinney,101.88,170.1,104.33,174.63,449.06,Single-ply,SBD,M
Boys,109.77,4,Cameron Crane,Frisco Reedy,104.19,170.1,99.79,172.37,442.25,Single-ply,SBD,M
Boys,109.77,5,Cody Ragsdale,Frisco Centennial,106.78,158.76,102.06,172.37,433.18,Single-ply,SBD,M
Boys,109.77,6,Dreylan Washington,Frisco,102.92,142.88,90.72,154.22,387.82,Single-ply,SBD,M
Boys,124.74,1,Camren Thompson,Frisco Wakeland,116.17,294.84,136.08,263.08,694,Single-ply,SBD,M
Boys,124.74,2,Drew Grisham,McKinney North,118.89,233.6,149.69,226.8,610.08,Single-ply,SBD,M
Boys,124.74,3,Markus Ramsey,McKinney,112.08,238.14,129.27,226.8,594.21,Single-ply,SBD,M
Boys,124.74,4,Kirubell Tadesse,McKinney,111.77,226.8,108.86,226.8,562.45,Single-ply,SBD,M
Boys,124.74,5,Zach Saldana,Frisco Independence,117.07,226.8,142.88,192.78,562.45,Single-ply,SBD,M
Boys,124.74,6,Beau Blanton,Frisco Wakeland,120.75,201.85,151.95,190.51,544.31,Single-ply,SBD,M
Boys,124.74,7,Constantino Zuniga,McKinney North,120.25,195.04,99.79,231.33,526.17,Single-ply,SBD,M
Boys,124.74,8,Jake Waszkowski,McKinney Boyd,116.71,167.83,149.69,181.44,498.95,Single-ply,SBD,M
Boys,124.74,9,Izeya Floyd,Frisco Reedy,120.16,161.03,131.54,206.38,498.95,Single-ply,SBD,M
Boys,124.74,10,Zane Zia,Frisco Centennial,121.65,170.1,127.01,195.04,492.15,Single-ply,SBD,M
Boys,124.74,11,Tucker Rowland,Frisco Heritage,123.83,158.76,147.42,181.44,487.61,Single-ply,SBD,M
Boys,124.74,12,Cooper Gschwend,Frisco Independence,124.47,165.56,120.2,183.7,469.47,Single-ply,SBD,M
Boys,124.74+,1,Alec Jamar,Frisco Liberty,136.3,235.87,167.83,258.55,662.24,Single-ply,SBD,M
Boys,124.74+,2,Perry Radway,McKinney North,133.86,244.94,149.69,263.08,657.71,Single-ply,SBD,M
Boys,124.74+,3,Zach Thomas,McKinney North,133.67,254.01,154.22,235.87,644.1,Single-ply,SBD,M
Boys,124.74+,4,Patrick Quintana,McKinney Boyd,138.94,249.48,147.42,204.12,601.01,Single-ply,SBD,M
Boys,124.74+,5,Felix Ramirez,Frisco Wakeland,125.19,222.26,127.01,192.78,542.04,Single-ply,SBD,M
Boys,124.74+,6,Justin Stewart,McKinney Boyd,125.83,183.7,115.67,172.37,471.74,Single-ply,SBD,M
Boys,124.74+,7,Deondray Fortman,McKinney,164.34,190.51,83.91,149.69,424.11,Single-ply,SBD,M
Boys,124.74+,DQ,Tanner Leser,Frisco Lone Star,140.39,,,,,Single-ply,SBD,M
Boys,124.74+,DQ,Austin Stein,McKinney Boyd,132.18,,,,,Single-ply,SBD,M
